%!PS-Adobe-3.0 EPSF-3.0
%%Creator: cairo 1.8.8 (http://cairographics.org)
%%CreationDate: Mon Apr 27 13:52:34 2015
%%Pages: 1
%%BoundingBox: 0 0 320 299
%%DocumentData: Clean7Bit
%%LanguageLevel: 2
%%EndComments
%%BeginProlog
/cairo_eps_state save def
/dict_count countdictstack def
/op_count count 1 sub def
userdict begin
/q { gsave } bind def
/Q { grestore } bind def
/cm { 6 array astore concat } bind def
/w { setlinewidth } bind def
/J { setlinecap } bind def
/j { setlinejoin } bind def
/M { setmiterlimit } bind def
/d { setdash } bind def
/m { moveto } bind def
/l { lineto } bind def
/c { curveto } bind def
/h { closepath } bind def
/re { exch dup neg 3 1 roll 5 3 roll moveto 0 rlineto
      0 exch rlineto 0 rlineto closepath } bind def
/S { stroke } bind def
/f { fill } bind def
/f* { eofill } bind def
/B { fill stroke } bind def
/B* { eofill stroke } bind def
/n { newpath } bind def
/W { clip } bind def
/W* { eoclip } bind def
/BT { } bind def
/ET { } bind def
/pdfmark where { pop globaldict /?pdfmark /exec load put }
    { globaldict begin /?pdfmark /pop load def /pdfmark
    /cleartomark load def end } ifelse
/BDC { mark 3 1 roll /BDC pdfmark } bind def
/EMC { mark /EMC pdfmark } bind def
/cairo_store_point { /cairo_point_y exch def /cairo_point_x exch def } def
/Tj { show currentpoint cairo_store_point } bind def
/TJ {
  {
    dup
    type /stringtype eq
    { show } { -0.001 mul 0 cairo_font_matrix dtransform rmoveto } ifelse
  } forall
  currentpoint cairo_store_point
} bind def
/cairo_selectfont { cairo_font_matrix aload pop pop pop 0 0 6 array astore
    cairo_font exch selectfont cairo_point_x cairo_point_y moveto } bind def
/Tf { pop /cairo_font exch def /cairo_font_matrix where
      { pop cairo_selectfont } if } bind def
/Td { matrix translate cairo_font_matrix matrix concatmatrix dup
      /cairo_font_matrix exch def dup 4 get exch 5 get cairo_store_point
      /cairo_font where { pop cairo_selectfont } if } bind def
/Tm { 2 copy 8 2 roll 6 array astore /cairo_font_matrix exch def
      cairo_store_point /cairo_font where { pop cairo_selectfont } if } bind def
/g { setgray } bind def
/rg { setrgbcolor } bind def
/d1 { setcachedevice } bind def
%%EndProlog
%%Page: 1 1
%%BeginPageSetup
%%PageBoundingBox: 0 0 320 299
%%EndPageSetup
q
Q q
0 298.4 m 320.801 298.4 l 320.801 0.002 l 0 0.002 l 0 298.4 l h
0 298.4 m W n
q 0 0 321 299 rectclip
[ 1 0 0 1 0 -0.600006 ] concat
  q
  0 0 321 299 rectclip
Q q
0.85098 g
74.41 231.938 167.434 -144.93 re f
0 g
1.6 w
0 J
1 j
[] 0.0 d
10 M q 1 0 0 -1 0 299 cm
74.41 67.062 167.434 144.93 re S Q
0.462745 0.647059 0.686275 rg
173.754 227.867 63.949 -36.609 re f
0 g
q 1 0 0 -1 0 299 cm
173.754 71.133 63.949 36.609 re S Q
195.703 207.695 m 196.602 207.586 l 196.512 206.961 196.262 206.473 
195.852 206.121 c 195.445 205.773 194.949 205.598 194.363 205.598 c 
193.621 205.598 193.027 205.84 192.578 206.32 c 192.137 206.805 191.914 
207.496 191.914 208.398 c 191.914 208.98 192.012 209.488 192.203 
209.922 c 192.395 210.363 192.684 210.691 193.078 210.91 c 193.469 
211.125 193.898 211.234 194.363 211.234 c 194.949 211.234 195.426 
211.086 195.801 210.785 c 196.176 210.492 196.414 210.074 196.516 
209.535 c 195.625 209.398 l 195.543 209.754 195.395 210.027 195.176 
210.211 c 194.969 210.391 194.711 210.484 194.402 210.484 c 193.945 
210.484 193.57 210.316 193.277 209.984 c 192.992 209.66 192.852 209.137 
192.852 208.422 c 192.852 207.695 192.988 207.168 193.266 206.836 c 
193.539 206.508 193.902 206.348 194.352 206.348 c 194.711 206.348 
195.012 206.453 195.25 206.672 c 195.492 206.898 195.645 207.238 
195.703 207.695 c h
197.184 208.422 m 197.184 209.422 197.457 210.16 198.008 210.633 c 
198.477 211.035 199.043 211.234 199.707 211.234 c 200.449 211.234 
201.055 210.992 201.52 210.508 c 201.996 210.027 202.234 209.355 
202.234 208.496 c 202.234 207.805 202.129 207.258 201.922 206.859 c 
201.711 206.461 201.406 206.148 201.008 205.922 c 200.609 205.703 
200.176 205.598 199.707 205.598 c 198.949 205.598 198.336 205.84 
197.871 206.32 c 197.414 206.805 197.184 207.504 197.184 208.422 c h
198.121 208.422 m 198.121 207.73 198.27 207.211 198.57 206.859 c 
198.871 206.516 199.25 206.348 199.707 206.348 c 200.156 206.348 
200.531 206.516 200.832 206.859 c 201.141 207.211 201.297 207.738 
201.297 208.445 c 201.297 209.113 201.141 209.617 200.832 209.961 c 
200.531 210.309 200.156 210.484 199.707 210.484 c 199.25 210.484 
198.871 210.312 198.57 209.973 c 198.27 209.629 198.121 209.113 198.121 
208.422 c h
203.449 205.723 m 203.449 211.109 l 204.277 211.109 l 204.277 210.348 l 
204.668 210.938 205.238 211.234 205.988 211.234 c 206.312 211.234 
206.609 211.176 206.875 211.059 c 207.152 210.941 207.355 210.789 
207.488 210.598 c 207.629 210.414 207.727 210.188 207.777 209.922 c 
207.809 209.754 207.824 209.461 207.824 209.035 c 207.824 205.723 l 
206.914 205.723 l 206.914 208.996 l 206.914 209.371 206.875 209.652 
206.801 209.836 c 206.734 210.016 206.609 210.164 206.426 210.273 c 
206.25 210.387 206.043 210.445 205.801 210.445 c 205.41 210.445 205.07 
210.32 204.789 210.07 c 204.504 209.828 204.363 209.363 204.363 208.672 
c 204.363 205.723 l 203.449 205.723 l h
209.594 205.723 m 209.594 210.41 l 208.793 210.41 l 208.793 211.109 l 
209.594 211.109 l 209.594 211.684 l 209.594 212.051 209.625 212.32 
209.691 212.496 c 209.785 212.73 209.938 212.922 210.156 213.07 c 
210.379 213.223 210.691 213.297 211.094 213.297 c 211.352 213.297 
211.633 213.262 211.941 213.195 c 211.805 212.41 l 211.613 212.441 
211.434 212.461 211.27 212.461 c 210.992 212.461 210.797 212.398 210.68 
212.273 c 210.562 212.156 210.504 211.934 210.504 211.609 c 210.504 
211.109 l 211.555 211.109 l 211.555 210.41 l 210.504 210.41 l 210.504 
205.723 l 209.594 205.723 l h
212.344 212.109 m 212.344 213.172 l 213.254 213.172 l 213.254 212.109 l 
212.344 212.109 l h
212.344 205.723 m 212.344 211.109 l 213.254 211.109 l 213.254 205.723 l 
212.344 205.723 l h
214.535 205.273 m 215.438 205.148 l 215.469 204.871 215.57 204.672 
215.738 204.547 c 215.969 204.371 216.281 204.285 216.676 204.285 c 
217.09 204.285 217.414 204.371 217.648 204.547 c 217.883 204.715 
218.035 204.949 218.113 205.258 c 218.16 205.441 218.188 205.828 
218.188 206.422 c 217.785 205.953 217.285 205.723 216.688 205.723 c 
215.945 205.723 215.371 205.988 214.961 206.523 c 214.562 207.055 
214.363 207.695 214.363 208.445 c 214.363 208.965 214.453 209.438 
214.637 209.871 c 214.828 210.305 215.098 210.637 215.449 210.871 c 
215.801 211.113 216.215 211.234 216.699 211.234 c 217.332 211.234 
217.859 210.977 218.273 210.461 c 218.273 211.109 l 219.113 211.109 l 
219.113 206.461 l 219.113 205.617 219.023 205.023 218.848 204.672 c 
218.684 204.32 218.41 204.047 218.035 203.848 c 217.672 203.637 217.215 
203.535 216.676 203.535 c 216.031 203.535 215.512 203.68 215.113 
203.973 c 214.719 204.254 214.527 204.688 214.535 205.273 c h
215.301 208.508 m 215.301 207.809 215.438 207.297 215.711 206.973 c 
215.996 206.648 216.348 206.484 216.773 206.484 c 217.199 206.484 
217.555 206.641 217.836 206.961 c 218.121 207.285 218.262 207.793 
218.262 208.484 c 218.262 209.141 218.117 209.637 217.824 209.973 c 
217.531 210.312 217.18 210.484 216.762 210.484 c 216.352 210.484 
216.008 210.316 215.723 209.984 c 215.441 209.652 215.301 209.16 
215.301 208.508 c h
215.301 208.508 m f
0.956863 0.8 0.8 rg
259.086 139.246 m 289.121 139.246 l 298.418 129.949 l 289.121 120.648 l 
259.086 120.648 l h
259.086 139.246 m f
0 g
q 1 0 0 -1 0 299 cm
259.086 159.754 m 289.121 159.754 l 298.418 169.051 l 289.121 178.352 l 
259.086 178.352 l h
259.086 159.754 m S Q
266.273 126.109 m 269.133 133.559 l 270.184 133.559 l 273.234 126.109 l 
272.109 126.109 l 271.246 128.359 l 268.133 128.359 l 267.309 126.109 l 
266.273 126.109 l h
268.422 129.172 m 270.945 129.172 l 270.16 131.234 l 269.926 131.859 
269.75 132.371 269.633 132.77 c 269.543 132.297 269.41 131.82 269.234 
131.344 c 268.422 129.172 l h
274.195 126.109 m 274.195 133.559 l 277.008 133.559 l 277.5 133.559 
277.875 133.531 278.133 133.484 c 278.5 133.426 278.809 133.309 279.059 
133.133 c 279.309 132.965 279.508 132.73 279.66 132.422 c 279.809 
132.113 279.883 131.77 279.883 131.395 c 279.883 130.762 279.68 130.227 
279.27 129.781 c 278.871 129.352 278.145 129.133 277.098 129.133 c 
275.184 129.133 l 275.184 126.109 l 274.195 126.109 l h
275.184 130.008 m 277.109 130.008 l 277.742 130.008 278.191 130.125 
278.457 130.359 c 278.734 130.602 278.871 130.938 278.871 131.371 c 
278.871 131.68 278.793 131.941 278.633 132.156 c 278.477 132.383 
278.266 132.531 278.008 132.609 c 277.844 132.648 277.535 132.672 
277.082 132.672 c 275.184 132.672 l 275.184 130.008 l h
275.184 130.008 m f
92.047 241.469 m 95.574 250.629 l 96.887 250.629 l 100.637 241.469 l 
99.25 241.469 l 98.188 244.242 l 94.348 244.242 l 93.348 241.469 l 
92.047 241.469 l h
94.699 245.23 m 97.812 245.23 l 96.848 247.766 l 96.559 248.543 96.34 
249.176 96.199 249.668 c 96.082 249.082 95.918 248.5 95.711 247.918 c 
94.699 245.23 l h
101.598 241.469 m 101.598 250.629 l 104.762 250.629 l 105.469 250.629 
106.012 250.586 106.387 250.504 c 106.91 250.379 107.359 250.16 107.734 
249.844 c 108.219 249.434 108.578 248.914 108.812 248.281 c 109.051 
247.645 109.172 246.922 109.172 246.105 c 109.172 245.406 109.09 
244.785 108.922 244.242 c 108.766 243.707 108.559 243.266 108.297 
242.918 c 108.047 242.566 107.773 242.289 107.473 242.078 c 107.172 
241.879 106.809 241.727 106.375 241.617 c 105.949 241.516 105.461 
241.469 104.91 241.469 c 101.598 241.469 l h
102.812 242.555 m 104.773 242.555 l 105.375 242.555 105.844 242.609 
106.188 242.719 c 106.535 242.832 106.812 242.992 107.012 243.191 c 
107.301 243.484 107.527 243.871 107.688 244.355 c 107.844 244.836 
107.922 245.426 107.922 246.117 c 107.922 247.074 107.766 247.812 
107.449 248.328 c 107.141 248.848 106.762 249.191 106.312 249.367 c 
105.984 249.492 105.461 249.555 104.734 249.555 c 102.812 249.555 l 
102.812 242.555 l h
117.379 244.68 m 118.594 244.379 l 118.344 243.379 117.883 242.617 
117.219 242.094 c 116.559 241.566 115.754 241.305 114.805 241.305 c 
113.812 241.305 113.008 241.504 112.391 241.906 c 111.777 242.312 
111.305 242.895 110.98 243.656 c 110.656 244.422 110.492 245.242 
110.492 246.117 c 110.492 247.074 110.676 247.91 111.043 248.617 c 
111.41 249.324 111.926 249.863 112.594 250.23 c 113.266 250.605 114.008 
250.793 114.816 250.793 c 115.734 250.793 116.504 250.559 117.129 
250.094 c 117.754 249.625 118.191 248.969 118.441 248.117 c 117.242 
247.844 l 117.035 248.508 116.727 248.992 116.316 249.293 c 115.918 
249.602 115.41 249.754 114.793 249.754 c 114.094 249.754 113.504 
249.582 113.031 249.242 c 112.555 248.91 112.223 248.453 112.031 
247.879 c 111.84 247.312 111.742 246.73 111.742 246.129 c 111.742 
245.348 111.855 244.664 112.078 244.078 c 112.312 243.504 112.668 
243.07 113.141 242.781 c 113.625 242.496 114.145 242.355 114.703 
242.355 c 115.379 242.355 115.949 242.551 116.418 242.941 c 116.891 
243.332 117.215 243.914 117.379 244.68 c h
122.629 241.469 m 126.156 250.629 l 127.469 250.629 l 131.219 241.469 l 
129.828 241.469 l 128.766 244.242 l 124.93 244.242 l 123.93 241.469 l 
122.629 241.469 l h
125.281 245.23 m 128.391 245.23 l 127.43 247.766 l 127.137 248.543 
126.922 249.176 126.781 249.668 c 126.664 249.082 126.5 248.5 126.293 
247.918 c 125.281 245.23 l h
136.469 245.066 m 136.469 246.141 l 140.355 246.141 l 140.355 242.742 l 
139.754 242.266 139.137 241.91 138.504 241.668 c 137.871 241.426 
137.223 241.305 136.555 241.305 c 135.656 241.305 134.84 241.496 
134.105 241.879 c 133.371 242.27 132.816 242.828 132.441 243.555 c 
132.066 244.289 131.879 245.105 131.879 246.004 c 131.879 246.895 
132.062 247.73 132.43 248.504 c 132.805 249.281 133.344 249.855 134.043 
250.23 c 134.742 250.605 135.551 250.793 136.469 250.793 c 137.125 
250.793 137.723 250.684 138.254 250.469 c 138.797 250.25 139.219 
249.949 139.516 249.566 c 139.824 249.184 140.059 248.684 140.219 
248.066 c 139.117 247.766 l 138.984 248.234 138.812 248.602 138.605 
248.867 c 138.406 249.133 138.113 249.348 137.73 249.504 c 137.355 
249.672 136.934 249.754 136.469 249.754 c 135.918 249.754 135.438 
249.668 135.031 249.492 c 134.629 249.324 134.305 249.105 134.055 
248.828 c 133.805 248.555 133.613 248.254 133.48 247.93 c 133.246 
247.363 133.129 246.746 133.129 246.078 c 133.129 245.262 133.266 
244.578 133.543 244.031 c 133.824 243.48 134.234 243.07 134.766 242.805 
c 135.309 242.539 135.883 242.406 136.492 242.406 c 137.016 242.406 
137.531 242.504 138.031 242.703 c 138.531 242.914 138.91 243.129 
139.168 243.355 c 139.168 245.066 l 136.469 245.066 l h
142.16 241.469 m 142.16 250.629 l 148.785 250.629 l 148.785 249.555 l 
143.375 249.555 l 143.375 246.742 l 148.449 246.742 l 148.449 245.668 l 
143.375 245.668 l 143.375 242.555 l 149 242.555 l 149 241.469 l 142.16 
241.469 l h
150.66 241.469 m 150.66 250.629 l 151.91 250.629 l 156.723 243.441 l 
156.723 250.629 l 157.887 250.629 l 157.887 241.469 l 156.637 241.469 l 
151.824 248.668 l 151.824 241.469 l 150.66 241.469 l h
162.254 241.469 m 162.254 249.555 l 159.23 249.555 l 159.23 250.629 l 
166.492 250.629 l 166.492 249.555 l 163.469 249.555 l 163.469 241.469 l 
162.254 241.469 l h
162.254 241.469 m f
19.316 270.023 m 23.504 280.898 l 25.055 280.898 l 29.504 270.023 l 
27.867 270.023 l 26.59 273.324 l 22.039 273.324 l 20.852 270.023 l 
19.316 270.023 l h
22.453 274.484 m 26.141 274.484 l 25.016 277.512 l 24.664 278.418 
24.406 279.168 24.242 279.762 c 24.098 279.059 23.902 278.367 23.652 
277.684 c 22.453 274.484 l h
30.469 270.023 m 30.469 280.898 l 34.219 280.898 l 35.062 280.898 
35.707 280.848 36.156 280.746 c 36.773 280.605 37.305 280.348 37.746 
279.973 c 38.32 279.48 38.75 278.855 39.031 278.098 c 39.316 277.348 
39.457 276.488 39.457 275.523 c 39.457 274.699 39.363 273.965 39.172 
273.324 c 38.98 272.688 38.734 272.16 38.434 271.734 c 38.133 271.32 
37.805 270.988 37.445 270.746 c 37.086 270.516 36.652 270.336 36.145 
270.211 c 35.637 270.086 35.055 270.023 34.395 270.023 c 30.469 270.023 
l h
31.906 271.309 m 34.234 271.309 l 34.949 271.309 35.512 271.375 35.922 
271.512 c 36.328 271.645 36.652 271.832 36.895 272.074 c 37.238 272.414 
37.504 272.871 37.695 273.449 c 37.887 274.023 37.984 274.723 37.984 
275.547 c 37.984 276.68 37.797 277.551 37.422 278.16 c 37.047 278.777 
36.59 279.188 36.059 279.398 c 35.676 279.547 35.055 279.621 34.195 
279.621 c 31.906 279.621 l 31.906 271.309 l h
49.012 273.836 m 50.449 273.473 l 50.148 272.289 49.605 271.387 48.824 
270.762 c 48.039 270.145 47.082 269.836 45.949 269.836 c 44.773 269.836 
43.82 270.074 43.086 270.547 c 42.352 271.031 41.793 271.723 41.41 
272.621 c 41.027 273.531 40.836 274.508 40.836 275.547 c 40.836 276.68 
41.051 277.668 41.473 278.512 c 41.906 279.352 42.523 279.988 43.324 
280.422 c 44.125 280.863 45.004 281.086 45.961 281.086 c 47.055 281.086 
47.969 280.805 48.711 280.246 c 49.453 279.699 49.969 278.922 50.262 
277.922 c 48.848 277.586 l 48.598 278.375 48.23 278.953 47.75 279.309 c 
47.266 279.676 46.66 279.859 45.938 279.859 c 45.102 279.859 44.402 
279.66 43.836 279.262 c 43.277 278.859 42.883 278.32 42.648 277.637 c 
42.426 276.961 42.312 276.266 42.312 275.547 c 42.312 274.621 42.445 
273.812 42.711 273.121 c 42.988 272.438 43.406 271.926 43.973 271.586 c 
44.551 271.242 45.164 271.074 45.824 271.074 c 46.633 271.074 47.316 
271.301 47.875 271.762 c 48.434 272.227 48.812 272.918 49.012 273.836 c 
h
63.312 280.898 m 64.75 280.898 l 64.75 274.621 l 64.75 273.523 64.625 
272.652 64.375 272.012 c 64.133 271.367 63.688 270.844 63.035 270.434 c 
62.395 270.035 61.551 269.836 60.5 269.836 c 59.48 269.836 58.648 
270.012 58 270.359 c 57.348 270.711 56.887 271.219 56.613 271.887 c 
56.336 272.551 56.199 273.465 56.199 274.621 c 56.199 280.898 l 57.637 
280.898 l 57.637 274.621 l 57.637 273.68 57.723 272.984 57.898 272.535 
c 58.074 272.086 58.375 271.738 58.801 271.496 c 59.23 271.258 59.758 
271.137 60.375 271.137 c 61.434 271.137 62.188 271.371 62.637 271.848 c 
63.086 272.332 63.312 273.258 63.312 274.621 c 63.312 280.898 l h
70.066 270.023 m 65.84 280.898 l 67.402 280.898 l 70.227 272.996 l 
70.461 272.363 70.652 271.773 70.801 271.223 c 70.969 271.812 71.164 
272.406 71.391 272.996 c 74.328 280.898 l 75.801 280.898 l 71.539 
270.023 l 70.066 270.023 l h
84.668 273.836 m 86.105 273.473 l 85.809 272.289 85.266 271.387 84.48 
270.762 c 83.699 270.145 82.742 269.836 81.605 269.836 c 80.434 269.836 
79.477 270.074 78.746 270.547 c 78.012 271.031 77.453 271.723 77.07 
272.621 c 76.688 273.531 76.496 274.508 76.496 275.547 c 76.496 276.68 
76.707 277.668 77.133 278.512 c 77.566 279.352 78.184 279.988 78.98 
280.422 c 79.781 280.863 80.66 281.086 81.621 281.086 c 82.711 281.086 
83.629 280.805 84.371 280.246 c 85.109 279.699 85.629 278.922 85.918 
277.922 c 84.508 277.586 l 84.258 278.375 83.891 278.953 83.406 279.309 
c 82.922 279.676 82.32 279.859 81.594 279.859 c 80.762 279.859 80.062 
279.66 79.496 279.262 c 78.938 278.859 78.539 278.32 78.309 277.637 c 
78.082 276.961 77.969 276.266 77.969 275.547 c 77.969 274.621 78.102 
273.812 78.371 273.121 c 78.645 272.438 79.066 271.926 79.633 271.586 c 
80.207 271.242 80.824 271.074 81.48 271.074 c 82.289 271.074 82.973 
271.301 83.531 271.762 c 84.09 272.227 84.469 272.918 84.668 273.836 c 
h
84.668 273.836 m f
q 1 0 0 -1 0 299 cm
143.391 196.488 m S Q
q 1 0 0 -1 0 299 cm
143.391 196.488 m S Q
1 g
241.848 129.949 m 248.121 136.223 l 254.395 129.949 l 248.121 123.676 l 
h
241.848 129.949 m f
0 g
q 1 0 0 -1 0 299 cm
241.848 169.051 m 248.121 162.777 l 254.395 169.051 l 248.121 175.324 l 
h
241.848 169.051 m S Q
118.203 110.648 8.141 -8.137 re f
q 1 0 0 -1 0 299 cm
118.203 188.352 8.141 8.137 re S Q
1 0.898039 0.6 rg
122.273 16.215 m 99.949 38.539 l 111.109 38.539 l 111.109 78.578 l 
99.949 78.578 l 122.273 100.902 l 144.598 78.578 l 133.434 78.578 l 
133.434 38.539 l 144.598 38.539 l h
122.273 16.215 m f
0 g
q 1 0 0 -1 0 299 cm
122.273 282.785 m 99.949 260.461 l 111.109 260.461 l 111.109 220.422 l 
99.949 220.422 l 122.273 198.098 l 144.598 220.422 l 133.434 220.422 l 
133.434 260.461 l 144.598 260.461 l h
122.273 282.785 m S Q
1 0.85098 0.4 rg
148.824 76.352 110.262 -12.551 re f
0 g
q 1 0 0 -1 0 299 cm
148.824 222.648 110.262 12.551 re S Q
161.926 66.898 m 161.594 66.617 161.27 66.41 160.953 66.285 c 160.645 
66.168 160.309 66.109 159.953 66.109 c 159.352 66.109 158.895 66.258 
158.578 66.547 c 158.262 66.84 158.102 67.211 158.102 67.66 c 158.102 
67.918 158.16 68.156 158.277 68.375 c 158.402 68.598 158.559 68.777 
158.754 68.91 c 158.953 69.043 159.172 69.145 159.414 69.211 c 159.59 
69.254 159.859 69.297 160.227 69.348 c 160.961 69.434 161.504 69.535 
161.852 69.66 c 161.859 69.785 161.863 69.867 161.863 69.898 c 161.863 
70.273 161.777 70.535 161.602 70.688 c 161.367 70.895 161.023 71 
160.566 71 c 160.133 71 159.809 70.922 159.602 70.773 c 159.402 70.625 
159.254 70.355 159.152 69.973 c 158.266 70.086 l 158.34 70.469 158.469 
70.777 158.652 71.012 c 158.844 71.254 159.113 71.438 159.465 71.562 c 
159.824 71.688 160.23 71.75 160.691 71.75 c 161.156 71.75 161.531 
71.695 161.816 71.586 c 162.105 71.477 162.32 71.34 162.453 71.172 c 
162.586 71.016 162.68 70.812 162.738 70.562 c 162.766 70.402 162.777 
70.121 162.777 69.711 c 162.777 68.5 l 162.777 67.648 162.797 67.109 
162.84 66.887 c 162.883 66.66 162.957 66.445 163.066 66.234 c 162.113 
66.234 l 162.023 66.43 161.961 66.648 161.926 66.898 c h
161.852 68.949 m 161.52 68.809 161.023 68.691 160.363 68.598 c 159.988 
68.539 159.723 68.477 159.566 68.41 c 159.406 68.344 159.285 68.246 
159.203 68.109 c 159.117 67.984 159.078 67.844 159.078 67.688 c 159.078 
67.445 159.168 67.242 159.352 67.074 c 159.535 66.914 159.805 66.836 
160.164 66.836 c 160.516 66.836 160.828 66.91 161.102 67.062 c 161.379 
67.219 161.582 67.434 161.715 67.699 c 161.805 67.898 161.852 68.203 
161.852 68.609 c 161.852 68.949 l h
167.844 66.234 m 167.844 66.91 l 167.504 66.379 167 66.109 166.332 
66.109 c 165.906 66.109 165.512 66.227 165.145 66.461 c 164.785 66.703 
164.508 67.035 164.309 67.461 c 164.105 67.887 164.008 68.375 164.008 
68.922 c 164.008 69.465 164.098 69.953 164.281 70.387 c 164.465 70.828 
164.734 71.164 165.094 71.398 c 165.453 71.633 165.852 71.75 166.293 
71.75 c 166.621 71.75 166.906 71.68 167.156 71.535 c 167.414 71.402 
167.625 71.227 167.781 71.012 c 167.781 73.688 l 168.695 73.688 l 
168.695 66.234 l 167.844 66.234 l h
164.957 68.922 m 164.957 68.23 165.098 67.715 165.383 67.375 c 165.672 
67.031 166.02 66.859 166.418 66.859 c 166.82 66.859 167.156 67.023 
167.434 67.348 c 167.715 67.684 167.855 68.184 167.855 68.848 c 167.855 
69.59 167.715 70.133 167.434 70.473 c 167.148 70.824 166.797 71 166.383 
71 c 165.973 71 165.633 70.832 165.355 70.5 c 165.09 70.164 164.957 
69.641 164.957 68.922 c h
173.785 68.211 m 174.688 68.098 l 174.594 67.473 174.344 66.984 173.938 
66.637 c 173.527 66.285 173.031 66.109 172.449 66.109 c 171.707 66.109 
171.113 66.352 170.66 66.836 c 170.219 67.32 170 68.012 170 68.91 c 170 
69.496 170.094 70.004 170.285 70.438 c 170.48 70.879 170.77 71.207 
171.16 71.422 c 171.555 71.641 171.984 71.75 172.449 71.75 c 173.031 
71.75 173.512 71.598 173.887 71.297 c 174.262 71.008 174.5 70.59 
174.598 70.047 c 173.711 69.91 l 173.629 70.27 173.48 70.539 173.262 
70.723 c 173.055 70.906 172.797 71 172.488 71 c 172.027 71 171.652 
70.832 171.363 70.5 c 171.078 70.172 170.938 69.652 170.938 68.938 c 
170.938 68.211 171.074 67.684 171.348 67.348 c 171.625 67.023 171.988 
66.859 172.438 66.859 c 172.797 66.859 173.094 66.969 173.336 67.188 c 
173.578 67.41 173.73 67.754 173.785 68.211 c h
180.066 66.234 m 178.02 71.625 l 178.98 71.625 l 180.129 68.398 l 
180.254 68.047 180.371 67.688 180.48 67.312 c 180.562 67.594 180.676 
67.938 180.816 68.336 c 182.02 71.625 l 182.957 71.625 l 180.918 66.234 
l 180.066 66.234 l h
183.898 72.625 m 183.898 73.688 l 184.812 73.688 l 184.812 72.625 l 
183.898 72.625 l h
183.898 66.234 m 183.898 71.625 l 184.812 71.625 l 184.812 66.234 l 
183.898 66.234 l h
186.254 66.234 m 186.254 71.625 l 187.082 71.625 l 187.082 70.812 l 
187.289 71.195 187.48 71.445 187.656 71.562 c 187.84 71.688 188.035 
71.75 188.242 71.75 c 188.551 71.75 188.863 71.652 189.18 71.461 c 
188.867 70.609 l 188.645 70.746 188.422 70.812 188.207 70.812 c 188.004 
70.812 187.824 70.75 187.656 70.625 c 187.496 70.508 187.387 70.34 
187.316 70.125 c 187.219 69.797 187.168 69.445 187.168 69.062 c 187.168 
66.234 l 186.254 66.234 l h
191.82 67.047 m 191.945 66.25 l 191.688 66.191 191.457 66.16 191.258 
66.16 c 190.922 66.16 190.664 66.215 190.48 66.324 c 190.297 66.434 
190.168 66.57 190.094 66.734 c 190.02 66.91 189.98 67.27 189.98 67.812 
c 189.98 70.922 l 189.32 70.922 l 189.32 71.625 l 189.98 71.625 l 
189.98 72.961 l 190.895 73.512 l 190.895 71.625 l 191.82 71.625 l 
191.82 70.922 l 190.895 70.922 l 190.895 67.762 l 190.895 67.504 190.91 
67.336 190.945 67.262 c 190.977 67.188 191.027 67.129 191.094 67.086 c 
191.168 67.043 191.273 67.023 191.406 67.023 c 191.516 67.023 191.652 
67.031 191.82 67.047 c h
196.32 66.234 m 196.32 67.023 l 195.895 66.414 195.324 66.109 194.605 
66.109 c 194.289 66.109 193.988 66.172 193.707 66.297 c 193.43 66.422 
193.227 66.578 193.094 66.762 c 192.961 66.945 192.867 67.168 192.82 
67.438 c 192.777 67.609 192.758 67.895 192.758 68.285 c 192.758 71.625 
l 193.668 71.625 l 193.668 68.637 l 193.668 68.16 193.691 67.84 193.73 
67.672 c 193.789 67.434 193.91 67.242 194.094 67.098 c 194.277 66.965 
194.508 66.898 194.781 66.898 c 195.055 66.898 195.316 66.969 195.555 
67.109 c 195.797 67.254 195.969 67.445 196.07 67.688 c 196.168 67.93 
196.219 68.277 196.219 68.734 c 196.219 71.625 l 197.133 71.625 l 
197.133 66.234 l 196.32 66.234 l h
202.223 66.898 m 201.891 66.617 201.566 66.41 201.25 66.285 c 200.941 
66.168 200.605 66.109 200.25 66.109 c 199.648 66.109 199.191 66.258 
198.875 66.547 c 198.559 66.84 198.398 67.211 198.398 67.66 c 198.398 
67.918 198.457 68.156 198.574 68.375 c 198.699 68.598 198.855 68.777 
199.047 68.91 c 199.25 69.043 199.469 69.145 199.711 69.211 c 199.887 
69.254 200.156 69.297 200.523 69.348 c 201.258 69.434 201.797 69.535 
202.148 69.66 c 202.156 69.785 202.16 69.867 202.16 69.898 c 202.16 
70.273 202.074 70.535 201.898 70.688 c 201.664 70.895 201.32 71 200.859 
71 c 200.43 71 200.105 70.922 199.898 70.773 c 199.699 70.625 199.547 
70.355 199.449 69.973 c 198.562 70.086 l 198.637 70.469 198.766 70.777 
198.949 71.012 c 199.141 71.254 199.41 71.438 199.762 71.562 c 200.121 
71.688 200.527 71.75 200.984 71.75 c 201.453 71.75 201.828 71.695 
202.109 71.586 c 202.402 71.477 202.617 71.34 202.75 71.172 c 202.883 
71.016 202.977 70.812 203.035 70.562 c 203.062 70.402 203.074 70.121 
203.074 69.711 c 203.074 68.5 l 203.074 67.648 203.094 67.109 203.137 
66.887 c 203.18 66.66 203.254 66.445 203.359 66.234 c 202.41 66.234 l 
202.32 66.43 202.258 66.648 202.223 66.898 c h
202.148 68.949 m 201.816 68.809 201.32 68.691 200.66 68.598 c 200.285 
68.539 200.02 68.477 199.859 68.41 c 199.703 68.344 199.582 68.246 
199.5 68.109 c 199.414 67.984 199.375 67.844 199.375 67.688 c 199.375 
67.445 199.465 67.242 199.648 67.074 c 199.832 66.914 200.102 66.836 
200.461 66.836 c 200.812 66.836 201.125 66.91 201.398 67.062 c 201.672 
67.219 201.879 67.434 202.012 67.699 c 202.102 67.898 202.148 68.203 
202.148 68.609 c 202.148 68.949 l h
204.617 66.234 m 204.617 73.688 l 205.527 73.688 l 205.527 66.234 l 
204.617 66.234 l h
209.973 72.625 m 209.973 73.688 l 210.887 73.688 l 210.887 72.625 l 
209.973 72.625 l h
209.973 66.234 m 209.973 71.625 l 210.887 71.625 l 210.887 66.234 l 
209.973 66.234 l h
212.34 66.234 m 212.34 71.625 l 213.168 71.625 l 213.168 70.859 l 
213.559 71.453 214.129 71.75 214.879 71.75 c 215.203 71.75 215.5 71.691 
215.766 71.574 c 216.043 71.457 216.246 71.305 216.379 71.109 c 216.52 
70.93 216.617 70.703 216.668 70.438 c 216.699 70.27 216.715 69.973 
216.715 69.547 c 216.715 66.234 l 215.805 66.234 l 215.805 69.512 l 
215.805 69.887 215.766 70.164 215.691 70.348 c 215.625 70.531 215.5 
70.68 215.316 70.785 c 215.141 70.902 214.934 70.961 214.691 70.961 c 
214.301 70.961 213.961 70.836 213.68 70.586 c 213.395 70.344 213.254 
69.879 213.254 69.188 c 213.254 66.234 l 212.34 66.234 l h
220.27 67.047 m 220.395 66.25 l 220.137 66.191 219.91 66.16 219.707 
66.16 c 219.375 66.16 219.117 66.215 218.934 66.324 c 218.75 66.434 
218.621 66.57 218.547 66.734 c 218.473 66.91 218.434 67.27 218.434 
67.812 c 218.434 70.922 l 217.77 70.922 l 217.77 71.625 l 218.434 
71.625 l 218.434 72.961 l 219.348 73.512 l 219.348 71.625 l 220.27 
71.625 l 220.27 70.922 l 219.348 70.922 l 219.348 67.762 l 219.348 
67.504 219.363 67.336 219.395 67.262 c 219.43 67.188 219.48 67.129 
219.547 67.086 c 219.621 67.043 219.727 67.023 219.859 67.023 c 219.969 
67.023 220.105 67.031 220.27 67.047 c h
224.922 67.973 m 225.871 67.859 l 225.723 67.305 225.441 66.871 225.035 
66.562 c 224.633 66.262 224.121 66.109 223.496 66.109 c 222.703 66.109 
222.074 66.352 221.609 66.836 c 221.152 67.328 220.922 68.012 220.922 
68.887 c 220.922 69.793 221.156 70.5 221.621 71 c 222.098 71.5 222.703 
71.75 223.445 71.75 c 224.172 71.75 224.758 71.504 225.207 71.012 c 
225.668 70.52 225.895 69.832 225.895 68.949 c 225.895 68.699 l 221.871 
68.699 l 221.906 68.105 222.07 67.652 222.371 67.336 c 222.672 67.02 
223.047 66.859 223.496 66.859 c 223.84 66.859 224.125 66.949 224.359 
67.125 c 224.602 67.309 224.789 67.59 224.922 67.973 c h
221.922 69.449 m 224.934 69.449 l 224.891 69.906 224.777 70.25 224.582 
70.473 c 224.293 70.824 223.918 71 223.457 71 c 223.035 71 222.68 
70.855 222.395 70.574 c 222.113 70.297 221.953 69.922 221.922 69.449 c 
h
227.152 66.234 m 227.152 71.625 l 227.977 71.625 l 227.977 70.812 l 
228.184 71.195 228.375 71.445 228.551 71.562 c 228.734 71.688 228.93 
71.75 229.141 71.75 c 229.445 71.75 229.758 71.652 230.078 71.461 c 
229.766 70.609 l 229.539 70.746 229.316 70.812 229.102 70.812 c 228.902 
70.812 228.719 70.75 228.551 70.625 c 228.395 70.508 228.281 70.34 
228.215 70.125 c 228.113 69.797 228.062 69.445 228.062 69.062 c 228.062 
66.234 l 227.152 66.234 l h
230.926 66.234 m 230.926 70.922 l 230.129 70.922 l 230.129 71.625 l 
230.926 71.625 l 230.926 72.199 l 230.926 72.566 230.961 72.836 231.027 
73.012 c 231.117 73.246 231.273 73.438 231.488 73.586 c 231.715 73.734 
232.027 73.812 232.426 73.812 c 232.684 73.812 232.969 73.777 233.277 
73.711 c 233.141 72.922 l 232.949 72.957 232.77 72.973 232.602 72.973 c 
232.328 72.973 232.133 72.91 232.016 72.785 c 231.898 72.668 231.84 
72.449 231.84 72.125 c 231.84 71.625 l 232.891 71.625 l 232.891 70.922 
l 231.84 70.922 l 231.84 66.234 l 230.926 66.234 l h
237.188 66.898 m 236.855 66.617 236.531 66.41 236.215 66.285 c 235.906 
66.168 235.574 66.109 235.215 66.109 c 234.613 66.109 234.156 66.258 
233.84 66.547 c 233.523 66.84 233.363 67.211 233.363 67.66 c 233.363 
67.918 233.422 68.156 233.539 68.375 c 233.664 68.598 233.824 68.777 
234.016 68.91 c 234.215 69.043 234.434 69.145 234.676 69.211 c 234.852 
69.254 235.121 69.297 235.488 69.348 c 236.223 69.434 236.766 69.535 
237.113 69.66 c 237.121 69.785 237.125 69.867 237.125 69.898 c 237.125 
70.273 237.039 70.535 236.863 70.688 c 236.633 70.895 236.285 71 
235.828 71 c 235.395 71 235.074 70.922 234.863 70.773 c 234.664 70.625 
234.516 70.355 234.414 69.973 c 233.527 70.086 l 233.602 70.469 233.73 
70.777 233.914 71.012 c 234.105 71.254 234.375 71.438 234.727 71.562 c 
235.086 71.688 235.492 71.75 235.953 71.75 c 236.418 71.75 236.793 
71.695 237.078 71.586 c 237.367 71.477 237.582 71.34 237.715 71.172 c 
237.848 71.016 237.945 70.812 238 70.562 c 238.027 70.402 238.039 
70.121 238.039 69.711 c 238.039 68.5 l 238.039 67.648 238.059 67.109 
238.102 66.887 c 238.145 66.66 238.219 66.445 238.328 66.234 c 237.375 
66.234 l 237.285 66.43 237.223 66.648 237.188 66.898 c h
237.113 68.949 m 236.781 68.809 236.285 68.691 235.625 68.598 c 235.25 
68.539 234.984 68.477 234.828 68.41 c 234.668 68.344 234.547 68.246 
234.465 68.109 c 234.383 67.984 234.34 67.844 234.34 67.688 c 234.34 
67.445 234.43 67.242 234.613 67.074 c 234.797 66.914 235.07 66.836 
235.426 66.836 c 235.777 66.836 236.09 66.91 236.363 67.062 c 236.641 
67.219 236.844 67.434 236.977 67.699 c 237.07 67.898 237.113 68.203 
237.113 68.609 c 237.113 68.949 l h
243.121 68.211 m 244.02 68.098 l 243.926 67.473 243.676 66.984 243.27 
66.637 c 242.859 66.285 242.363 66.109 241.781 66.109 c 241.039 66.109 
240.445 66.352 239.996 66.836 c 239.551 67.32 239.332 68.012 239.332 
68.91 c 239.332 69.496 239.426 70.004 239.621 70.438 c 239.812 70.879 
240.102 71.207 240.496 71.422 c 240.887 71.641 241.316 71.75 241.781 
71.75 c 242.363 71.75 242.844 71.598 243.219 71.297 c 243.594 71.008 
243.832 70.59 243.934 70.047 c 243.043 69.91 l 242.961 70.27 242.812 
70.539 242.594 70.723 c 242.387 70.906 242.129 71 241.82 71 c 241.359 
71 240.984 70.832 240.695 70.5 c 240.41 70.172 240.27 69.652 240.27 
68.938 c 240.27 68.211 240.406 67.684 240.684 67.348 c 240.957 67.023 
241.32 66.859 241.77 66.859 c 242.129 66.859 242.426 66.969 242.668 
67.188 c 242.91 67.41 243.062 67.754 243.121 68.211 c h
248.625 67.973 m 249.574 67.859 l 249.426 67.305 249.145 66.871 248.738 
66.562 c 248.34 66.262 247.824 66.109 247.199 66.109 c 246.41 66.109 
245.781 66.352 245.312 66.836 c 244.855 67.328 244.625 68.012 244.625 
68.887 c 244.625 69.793 244.859 70.5 245.324 71 c 245.801 71.5 246.41 
71.75 247.152 71.75 c 247.875 71.75 248.465 71.504 248.914 71.012 c 
249.371 70.52 249.602 69.832 249.602 68.949 c 249.602 68.699 l 245.574 
68.699 l 245.609 68.105 245.777 67.652 246.074 67.336 c 246.375 67.02 
246.75 66.859 247.199 66.859 c 247.543 66.859 247.828 66.949 248.062 
67.125 c 248.305 67.309 248.492 67.59 248.625 67.973 c h
245.625 69.449 m 248.637 69.449 l 248.598 69.906 248.48 70.25 248.289 
70.473 c 247.996 70.824 247.621 71 247.164 71 c 246.738 71 246.383 
70.855 246.102 70.574 c 245.816 70.297 245.66 69.922 245.625 69.449 c h
245.625 69.449 m f
1 0.94902 0.8 rg
148.824 63.801 110.262 -12.547 re f
0 g
q 1 0 0 -1 0 299 cm
148.824 235.199 110.262 12.547 re S Q
197.766 53.688 m 197.766 54.363 l 197.422 53.828 196.918 53.562 196.254 
53.562 c 195.828 53.562 195.434 53.68 195.066 53.914 c 194.707 54.156 
194.426 54.488 194.227 54.914 c 194.027 55.34 193.926 55.824 193.926 
56.375 c 193.926 56.918 194.02 57.406 194.203 57.84 c 194.387 58.281 
194.656 58.617 195.016 58.852 c 195.375 59.082 195.773 59.199 196.215 
59.199 c 196.539 59.199 196.828 59.129 197.078 58.988 c 197.336 58.855 
197.543 58.68 197.703 58.465 c 197.703 61.137 l 198.613 61.137 l 
198.613 53.688 l 197.766 53.688 l h
194.879 56.375 m 194.879 55.684 195.02 55.168 195.301 54.824 c 195.594 
54.484 195.941 54.312 196.34 54.312 c 196.738 54.312 197.078 54.477 
197.352 54.801 c 197.637 55.133 197.777 55.633 197.777 56.301 c 197.777 
57.043 197.637 57.582 197.352 57.926 c 197.07 58.277 196.719 58.449 
196.301 58.449 c 195.895 58.449 195.551 58.285 195.277 57.949 c 195.012 
57.617 194.879 57.094 194.879 56.375 c h
203.707 54.352 m 203.375 54.066 203.051 53.863 202.734 53.738 c 202.426 
53.621 202.09 53.562 201.734 53.562 c 201.133 53.562 200.676 53.707 
200.359 54 c 200.039 54.293 199.883 54.664 199.883 55.113 c 199.883 
55.371 199.941 55.609 200.059 55.824 c 200.184 56.051 200.34 56.23 
200.531 56.363 c 200.734 56.496 200.953 56.598 201.195 56.664 c 201.371 
56.703 201.641 56.75 202.008 56.801 c 202.742 56.883 203.281 56.988 
203.633 57.113 c 203.641 57.238 203.645 57.316 203.645 57.352 c 203.645 
57.727 203.559 57.988 203.383 58.137 c 203.148 58.348 202.805 58.449 
202.344 58.449 c 201.91 58.449 201.59 58.375 201.383 58.227 c 201.184 
58.074 201.031 57.809 200.934 57.426 c 200.047 57.539 l 200.121 57.922 
200.25 58.23 200.434 58.465 c 200.625 58.703 200.895 58.887 201.246 
59.012 c 201.602 59.137 202.012 59.199 202.469 59.199 c 202.938 59.199 
203.312 59.145 203.594 59.039 c 203.887 58.93 204.098 58.793 204.234 
58.625 c 204.367 58.469 204.461 58.262 204.52 58.012 c 204.547 57.855 
204.559 57.57 204.559 57.164 c 204.559 55.949 l 204.559 55.102 204.578 
54.562 204.621 54.34 c 204.66 54.113 204.738 53.895 204.844 53.688 c 
203.895 53.688 l 203.805 53.879 203.742 54.102 203.707 54.352 c h
203.633 56.402 m 203.301 56.258 202.805 56.141 202.145 56.051 c 201.77 
55.992 201.504 55.93 201.344 55.863 c 201.188 55.797 201.066 55.695 
200.984 55.562 c 200.898 55.438 200.859 55.297 200.859 55.137 c 200.859 
54.895 200.949 54.691 201.133 54.527 c 201.316 54.367 201.586 54.289 
201.945 54.289 c 202.297 54.289 202.609 54.363 202.883 54.512 c 203.156 
54.672 203.363 54.883 203.496 55.152 c 203.586 55.352 203.633 55.656 
203.633 56.062 c 203.633 56.402 l h
208.125 54.5 m 208.25 53.699 l 207.992 53.641 207.762 53.613 207.562 
53.613 c 207.23 53.613 206.973 53.668 206.789 53.777 c 206.605 53.883 
206.477 54.02 206.398 54.188 c 206.324 54.363 206.289 54.723 206.289 
55.262 c 206.289 58.375 l 205.625 58.375 l 205.625 59.074 l 206.289 
59.074 l 206.289 60.414 l 207.199 60.965 l 207.199 59.074 l 208.125 
59.074 l 208.125 58.375 l 207.199 58.375 l 207.199 55.215 l 207.199 
54.953 207.215 54.789 207.25 54.715 c 207.285 54.637 207.332 54.578 
207.398 54.539 c 207.477 54.496 207.578 54.477 207.711 54.477 c 207.82 
54.477 207.957 54.484 208.125 54.5 c h
212.602 54.352 m 212.266 54.066 211.941 53.863 211.625 53.738 c 211.316 
53.621 210.984 53.562 210.625 53.562 c 210.023 53.562 209.566 53.707 
209.25 54 c 208.934 54.293 208.773 54.664 208.773 55.113 c 208.773 
55.371 208.832 55.609 208.949 55.824 c 209.074 56.051 209.234 56.23 
209.426 56.363 c 209.625 56.496 209.848 56.598 210.086 56.664 c 210.262 
56.703 210.535 56.75 210.898 56.801 c 211.633 56.883 212.176 56.988 
212.523 57.113 c 212.535 57.238 212.539 57.316 212.539 57.352 c 212.539 
57.727 212.449 57.988 212.273 58.137 c 212.043 58.348 211.695 58.449 
211.238 58.449 c 210.805 58.449 210.484 58.375 210.273 58.227 c 210.074 
58.074 209.926 57.809 209.824 57.426 c 208.938 57.539 l 209.012 57.922 
209.141 58.23 209.324 58.465 c 209.516 58.703 209.789 58.887 210.137 
59.012 c 210.496 59.137 210.902 59.199 211.363 59.199 c 211.828 59.199 
212.203 59.145 212.488 59.039 c 212.777 58.93 212.992 58.793 213.125 
58.625 c 213.258 58.469 213.355 58.262 213.414 58.012 c 213.438 57.855 
213.449 57.57 213.449 57.164 c 213.449 55.949 l 213.449 55.102 213.473 
54.562 213.512 54.34 c 213.555 54.113 213.629 53.895 213.738 53.688 c 
212.789 53.688 l 212.695 53.879 212.633 54.102 212.602 54.352 c h
212.523 56.402 m 212.191 56.258 211.695 56.141 211.039 56.051 c 210.664 
55.992 210.395 55.93 210.238 55.863 c 210.078 55.797 209.957 55.695 
209.875 55.562 c 209.793 55.438 209.75 55.297 209.75 55.137 c 209.75 
54.895 209.84 54.691 210.023 54.527 c 210.207 54.367 210.48 54.289 
210.836 54.289 c 211.188 54.289 211.5 54.363 211.773 54.512 c 212.051 
54.672 212.254 54.883 212.387 55.152 c 212.48 55.352 212.523 55.656 
212.523 56.062 c 212.523 56.402 l h
212.523 56.402 m f
1 0.94902 0.8 rg
148.824 51.254 110.262 -12.547 re f
0 g
q 1 0 0 -1 0 299 cm
148.824 247.746 110.262 12.547 re S Q
193.91 42.754 m 194.809 42.891 l 194.859 42.531 195.004 42.254 195.234 
42.051 c 195.469 41.859 195.793 41.766 196.211 41.766 c 196.629 41.766 
196.934 41.848 197.137 42.016 c 197.344 42.191 197.449 42.395 197.449 
42.629 c 197.449 42.836 197.355 43 197.172 43.113 c 197.047 43.199 
196.734 43.301 196.234 43.426 c 195.57 43.594 195.105 43.738 194.848 
43.863 c 194.59 43.988 194.395 44.16 194.262 44.379 c 194.129 44.594 
194.059 44.836 194.059 45.102 c 194.059 45.344 194.113 45.566 194.223 
45.766 c 194.332 45.973 194.48 46.145 194.672 46.277 c 194.816 46.387 
195.008 46.473 195.246 46.539 c 195.496 46.613 195.766 46.652 196.047 
46.652 c 196.465 46.652 196.832 46.59 197.148 46.465 c 197.473 46.348 
197.711 46.188 197.859 45.977 c 198.02 45.77 198.129 45.488 198.184 
45.141 c 197.285 45.016 l 197.242 45.297 197.129 45.516 196.934 45.664 
c 196.742 45.824 196.469 45.902 196.109 45.902 c 195.695 45.902 195.395 
45.832 195.211 45.691 c 195.027 45.559 194.934 45.395 194.934 45.203 c 
194.934 45.086 194.973 44.98 195.047 44.891 c 195.121 44.789 195.238 
44.707 195.398 44.641 c 195.488 44.605 195.762 44.531 196.211 44.414 c 
196.859 44.238 197.309 44.098 197.559 43.988 c 197.82 43.883 198.02 
43.719 198.16 43.504 c 198.309 43.293 198.387 43.035 198.387 42.727 c 
198.387 42.418 198.293 42.133 198.109 41.863 c 197.934 41.598 197.68 
41.391 197.348 41.238 c 197.016 41.09 196.637 41.016 196.211 41.016 c 
195.512 41.016 194.977 41.16 194.609 41.453 c 194.242 41.746 194.012 
42.176 193.91 42.754 c h
201.605 41.953 m 201.73 41.152 l 201.473 41.094 201.242 41.066 201.043 
41.066 c 200.707 41.066 200.449 41.121 200.266 41.227 c 200.082 41.336 
199.953 41.473 199.879 41.641 c 199.805 41.816 199.766 42.172 199.766 
42.715 c 199.766 45.828 l 199.105 45.828 l 199.105 46.527 l 199.766 
46.527 l 199.766 47.863 l 200.68 48.414 l 200.68 46.527 l 201.605 
46.527 l 201.605 45.828 l 200.68 45.828 l 200.68 42.664 l 200.68 42.406 
200.695 42.238 200.73 42.164 c 200.762 42.09 200.812 42.031 200.879 
41.988 c 200.953 41.949 201.059 41.926 201.191 41.926 c 201.301 41.926 
201.438 41.938 201.605 41.953 c h
206.078 41.801 m 205.746 41.52 205.422 41.316 205.105 41.191 c 204.797 
41.074 204.461 41.016 204.105 41.016 c 203.504 41.016 203.047 41.16 
202.73 41.453 c 202.414 41.746 202.254 42.113 202.254 42.566 c 202.254 
42.824 202.312 43.062 202.43 43.277 c 202.555 43.504 202.711 43.684 
202.902 43.816 c 203.105 43.949 203.324 44.047 203.566 44.113 c 203.742 
44.156 204.012 44.203 204.379 44.254 c 205.113 44.336 205.652 44.441 
206.004 44.566 c 206.012 44.691 206.016 44.77 206.016 44.801 c 206.016 
45.176 205.93 45.441 205.754 45.59 c 205.52 45.797 205.176 45.902 
204.715 45.902 c 204.285 45.902 203.961 45.828 203.754 45.676 c 203.555 
45.527 203.402 45.262 203.305 44.879 c 202.418 44.988 l 202.492 45.375 
202.621 45.684 202.805 45.914 c 202.996 46.156 203.266 46.34 203.617 
46.465 c 203.977 46.59 204.383 46.652 204.84 46.652 c 205.309 46.652 
205.684 46.598 205.965 46.488 c 206.258 46.383 206.473 46.246 206.605 
46.078 c 206.738 45.918 206.832 45.715 206.891 45.465 c 206.918 45.309 
206.93 45.023 206.93 44.613 c 206.93 43.402 l 206.93 42.551 206.949 
42.016 206.992 41.789 c 207.035 41.566 207.109 41.348 207.215 41.141 c 
206.266 41.141 l 206.176 41.332 206.113 41.551 206.078 41.801 c h
206.004 43.852 m 205.672 43.711 205.176 43.594 204.516 43.504 c 204.141 
43.445 203.875 43.383 203.715 43.316 c 203.559 43.25 203.438 43.148 
203.355 43.016 c 203.27 42.891 203.23 42.75 203.23 42.59 c 203.23 
42.348 203.32 42.145 203.504 41.977 c 203.688 41.82 203.957 41.738 
204.316 41.738 c 204.668 41.738 204.98 41.816 205.254 41.965 c 205.527 
42.125 205.734 42.336 205.867 42.602 c 205.957 42.801 206.004 43.105 
206.004 43.516 c 206.004 43.852 l h
208.484 41.141 m 208.484 46.527 l 209.309 46.527 l 209.309 45.715 l 
209.516 46.098 209.711 46.348 209.883 46.465 c 210.066 46.59 210.262 
46.652 210.473 46.652 c 210.781 46.652 211.094 46.559 211.41 46.363 c 
211.098 45.516 l 210.871 45.648 210.652 45.715 210.434 45.715 c 210.234 
45.715 210.051 45.652 209.883 45.527 c 209.727 45.41 209.613 45.246 
209.547 45.027 c 209.445 44.703 209.398 44.348 209.398 43.965 c 209.398 
41.141 l 208.484 41.141 l h
214.047 41.953 m 214.172 41.152 l 213.914 41.094 213.684 41.066 213.484 
41.066 c 213.152 41.066 212.895 41.121 212.711 41.227 c 212.527 41.336 
212.398 41.473 212.32 41.641 c 212.246 41.816 212.211 42.172 212.211 
42.715 c 212.211 45.828 l 211.547 45.828 l 211.547 46.527 l 212.211 
46.527 l 212.211 47.863 l 213.121 48.414 l 213.121 46.527 l 214.047 
46.527 l 214.047 45.828 l 213.121 45.828 l 213.121 42.664 l 213.121 
42.406 213.141 42.238 213.172 42.164 c 213.207 42.09 213.254 42.031 
213.32 41.988 c 213.398 41.949 213.5 41.926 213.633 41.926 c 213.742 
41.926 213.879 41.938 214.047 41.953 c h
214.047 41.953 m f
1 0.94902 0.8 rg
148.824 38.758 110.262 -12.547 re f
0 g
q 1 0 0 -1 0 299 cm
148.824 260.242 110.262 12.547 re S Q
191.293 28.645 m 191.293 34.031 l 192.117 34.031 l 192.117 33.219 l 
192.328 33.602 192.52 33.852 192.691 33.969 c 192.875 34.094 193.07 
34.156 193.281 34.156 c 193.59 34.156 193.902 34.062 194.219 33.871 c 
193.906 33.02 l 193.68 33.152 193.461 33.219 193.242 33.219 c 193.043 
33.219 192.859 33.156 192.691 33.031 c 192.535 32.914 192.422 32.75 
192.355 32.531 c 192.254 32.207 192.207 31.852 192.207 31.469 c 192.207 
28.645 l 191.293 28.645 l h
198.543 30.383 m 199.492 30.27 l 199.344 29.711 199.062 29.277 198.656 
28.969 c 198.258 28.668 197.742 28.52 197.117 28.52 c 196.328 28.52 
195.699 28.762 195.23 29.246 c 194.773 29.734 194.543 30.418 194.543 
31.293 c 194.543 32.203 194.777 32.906 195.242 33.406 c 195.719 33.906 
196.328 34.156 197.07 34.156 c 197.793 34.156 198.383 33.91 198.832 
33.418 c 199.289 32.93 199.52 32.242 199.52 31.355 c 199.52 31.105 l 
195.492 31.105 l 195.527 30.516 195.695 30.062 195.992 29.746 c 196.293 
29.43 196.668 29.27 197.117 29.27 c 197.461 29.27 197.746 29.355 197.98 
29.531 c 198.223 29.715 198.41 30 198.543 30.383 c h
195.543 31.855 m 198.555 31.855 l 198.516 32.316 198.398 32.656 198.207 
32.883 c 197.914 33.23 197.539 33.406 197.082 33.406 c 196.656 33.406 
196.301 33.266 196.02 32.98 c 195.734 32.707 195.578 32.332 195.543 
31.855 c h
204.297 29.309 m 203.965 29.023 203.641 28.82 203.324 28.695 c 203.016 
28.578 202.684 28.52 202.324 28.52 c 201.723 28.52 201.266 28.664 
200.949 28.957 c 200.633 29.25 200.473 29.621 200.473 30.07 c 200.473 
30.328 200.531 30.566 200.648 30.781 c 200.773 31.008 200.934 31.188 
201.125 31.32 c 201.324 31.453 201.543 31.555 201.785 31.621 c 201.961 
31.66 202.23 31.707 202.598 31.758 c 203.332 31.84 203.875 31.945 
204.223 32.07 c 204.23 32.195 204.234 32.273 204.234 32.309 c 204.234 
32.684 204.148 32.945 203.973 33.094 c 203.738 33.305 203.395 33.406 
202.938 33.406 c 202.504 33.406 202.184 33.332 201.973 33.184 c 201.773 
33.031 201.625 32.766 201.523 32.383 c 200.637 32.496 l 200.711 32.879 
200.84 33.188 201.023 33.418 c 201.215 33.66 201.484 33.844 201.836 
33.969 c 202.195 34.094 202.602 34.156 203.062 34.156 c 203.527 34.156 
203.902 34.102 204.188 33.996 c 204.477 33.887 204.691 33.75 204.824 
33.582 c 204.957 33.422 205.051 33.219 205.109 32.969 c 205.137 32.812 
205.148 32.527 205.148 32.121 c 205.148 30.906 l 205.148 30.059 205.168 
29.52 205.211 29.293 c 205.254 29.07 205.328 28.852 205.438 28.645 c 
204.484 28.645 l 204.395 28.836 204.332 29.059 204.297 29.309 c h
204.223 31.355 m 203.891 31.215 203.395 31.098 202.734 31.008 c 202.359 
30.949 202.094 30.887 201.938 30.82 c 201.777 30.754 201.656 30.652 
201.574 30.52 c 201.488 30.395 201.449 30.254 201.449 30.094 c 201.449 
29.852 201.539 29.648 201.723 29.48 c 201.906 29.324 202.176 29.246 
202.535 29.246 c 202.887 29.246 203.199 29.32 203.473 29.469 c 203.75 
29.629 203.953 29.84 204.086 30.105 c 204.176 30.309 204.223 30.609 
204.223 31.02 c 204.223 31.355 l h
210.215 28.645 m 210.215 29.32 l 209.875 28.785 209.371 28.52 208.703 
28.52 c 208.277 28.52 207.883 28.637 207.516 28.871 c 207.156 29.109 
206.879 29.445 206.68 29.871 c 206.477 30.293 206.379 30.781 206.379 
31.332 c 206.379 31.875 206.469 32.359 206.652 32.793 c 206.836 33.234 
207.109 33.574 207.465 33.809 c 207.824 34.039 208.223 34.156 208.664 
34.156 c 208.992 34.156 209.277 34.086 209.527 33.945 c 209.785 33.812 
209.996 33.637 210.152 33.418 c 210.152 36.094 l 211.066 36.094 l 
211.066 28.645 l 210.215 28.645 l h
207.328 31.332 m 207.328 30.641 207.469 30.125 207.754 29.781 c 208.047 
29.441 208.391 29.27 208.789 29.27 c 209.191 29.27 209.527 29.434 
209.805 29.758 c 210.086 30.09 210.227 30.59 210.227 31.258 c 210.227 
32 210.086 32.539 209.805 32.883 c 209.52 33.23 209.172 33.406 208.754 
33.406 c 208.344 33.406 208.004 33.242 207.727 32.906 c 207.461 32.574 
207.328 32.047 207.328 31.332 c h
212.609 26.57 m 212.496 27.418 l 212.695 27.371 212.871 27.344 213.02 
27.344 c 213.23 27.344 213.391 27.379 213.508 27.445 c 213.633 27.512 
213.734 27.605 213.809 27.73 c 213.867 27.824 213.961 28.047 214.098 
28.406 c 214.172 28.633 l 212.121 34.031 l 213.109 34.031 l 214.234 
30.918 l 214.375 30.52 214.504 30.102 214.621 29.668 c 214.73 30.086 
214.855 30.496 214.996 30.895 c 216.16 34.031 l 217.07 34.031 l 215.02 
28.559 l 214.797 27.965 214.625 27.559 214.508 27.332 c 214.344 27.031 
214.156 26.812 213.945 26.668 c 213.738 26.527 213.488 26.457 213.195 
26.457 c 213.02 26.457 212.824 26.496 212.609 26.57 c h
212.609 26.57 m f
1 0.94902 0.8 rg
99.949 139.246 44.648 -18.598 re f
0 g
[ 6.4 4.8] 0 d
q 1 0 0 -1 0 299 cm
99.949 159.754 44.648 18.598 re S Q
111.879 128.215 m 111.668 128.043 111.469 127.918 111.277 127.84 c 
111.086 127.766 110.879 127.73 110.652 127.73 c 110.293 127.73 110.016 
127.816 109.816 127.992 c 109.621 128.176 109.527 128.402 109.527 
128.68 c 109.527 128.844 109.559 128.996 109.629 129.129 c 109.703 
129.262 109.797 129.367 109.914 129.441 c 110.039 129.523 110.176 
129.586 110.328 129.629 c 110.434 129.664 110.602 129.691 110.828 
129.715 c 111.285 129.773 111.617 129.84 111.828 129.918 c 111.836 
129.992 111.84 130.039 111.84 130.055 c 111.84 130.289 111.785 130.449 
111.676 130.543 c 111.535 130.668 111.324 130.73 111.039 130.73 c 
110.773 130.73 110.578 130.684 110.453 130.59 c 110.328 130.5 110.23 
130.336 110.164 130.105 c 109.613 130.18 l 109.664 130.414 109.746 
130.602 109.863 130.742 c 109.98 130.891 110.148 131.004 110.363 
131.078 c 110.582 131.164 110.832 131.203 111.113 131.203 c 111.398 
131.203 111.629 131.172 111.801 131.105 c 111.984 131.039 112.117 
130.949 112.203 130.84 c 112.285 130.742 112.344 130.617 112.379 
130.465 c 112.395 130.367 112.402 130.191 112.402 129.941 c 112.402 
129.191 l 112.402 128.676 112.414 128.344 112.441 128.203 c 112.465 
128.062 112.512 127.93 112.578 127.805 c 111.988 127.805 l 111.93 
127.922 111.895 128.059 111.879 128.215 c h
111.828 129.465 m 111.629 129.383 111.324 129.312 110.914 129.254 c 
110.68 129.219 110.516 129.184 110.414 129.141 c 110.324 129.102 
110.254 129.039 110.203 128.953 c 110.152 128.879 110.129 128.793 
110.129 128.691 c 110.129 128.543 110.18 128.418 110.289 128.316 c 
110.406 128.215 110.574 128.168 110.789 128.168 c 111.008 128.168 
111.199 128.211 111.363 128.305 c 111.539 128.402 111.664 128.539 
111.738 128.703 c 111.797 128.828 111.828 129.016 111.828 129.266 c 
111.828 129.465 l h
115.426 127.805 m 115.426 128.23 l 115.215 127.895 114.906 127.73 114.5 
127.73 c 114.23 127.73 113.988 127.801 113.762 127.941 c 113.543 128.09 
113.375 128.297 113.25 128.555 c 113.133 128.82 113.074 129.125 113.074 
129.465 c 113.074 129.793 113.129 130.086 113.238 130.355 c 113.344 
130.629 113.508 130.836 113.723 130.98 c 113.949 131.129 114.199 
131.203 114.473 131.203 c 114.676 131.203 114.848 131.156 115 131.066 c 
115.156 130.984 115.285 130.875 115.387 130.742 c 115.387 132.391 l 
115.949 132.391 l 115.949 127.805 l 115.426 127.805 l h
113.648 129.465 m 113.648 129.043 113.738 128.719 113.91 128.504 c 
114.094 128.297 114.309 128.191 114.551 128.191 c 114.801 128.191 
115.008 128.293 115.176 128.492 c 115.348 128.691 115.438 129 115.438 
129.418 c 115.438 129.867 115.348 130.195 115.176 130.402 c 115 130.621 
114.781 130.73 114.523 130.73 c 114.273 130.73 114.066 130.625 113.898 
130.418 c 113.73 130.215 113.648 129.898 113.648 129.465 c h
118.996 129.016 m 119.547 128.953 l 119.488 128.57 119.332 128.27 
119.082 128.055 c 118.832 127.836 118.527 127.73 118.172 127.73 c 
117.711 127.73 117.348 127.875 117.07 128.168 c 116.797 128.465 116.66 
128.895 116.66 129.453 c 116.66 129.812 116.715 130.125 116.832 130.391 
c 116.957 130.656 117.141 130.859 117.383 130.992 c 117.625 131.133 
117.887 131.203 118.172 131.203 c 118.527 131.203 118.82 131.113 
119.047 130.93 c 119.277 130.746 119.43 130.488 119.496 130.152 c 
118.945 130.066 l 118.895 130.293 118.805 130.457 118.672 130.566 c 
118.539 130.684 118.379 130.742 118.195 130.742 c 117.914 130.742 
117.68 130.637 117.496 130.43 c 117.32 130.23 117.234 129.906 117.234 
129.465 c 117.234 129.023 117.316 128.699 117.484 128.492 c 117.66 
128.293 117.883 128.191 118.16 128.191 c 118.383 128.191 118.566 
128.258 118.707 128.391 c 118.859 128.531 118.953 128.742 118.996 
129.016 c h
119.508 126.527 m 119.508 126.941 l 123.246 126.941 l 123.246 126.527 l 
119.508 126.527 l h
123.594 131.742 m 123.594 132.391 l 124.156 132.391 l 124.156 131.742 l 
123.594 131.742 l h
123.594 127.805 m 123.594 131.129 l 124.156 131.129 l 124.156 127.805 l 
123.594 127.805 l h
126.238 128.305 m 126.328 127.816 l 126.168 127.773 126.027 127.754 
125.902 127.754 c 125.695 127.754 125.531 127.789 125.414 127.855 c 
125.305 127.922 125.227 128.004 125.176 128.105 c 125.137 128.211 
125.113 128.438 125.113 128.777 c 125.113 130.691 l 124.703 130.691 l 
124.703 131.129 l 125.113 131.129 l 125.113 131.941 l 125.676 132.277 l 
125.676 131.129 l 126.238 131.129 l 126.238 130.691 l 125.676 130.691 l 
125.676 128.742 l 125.676 128.582 125.684 128.48 125.703 128.43 c 
125.727 128.387 125.762 128.355 125.801 128.328 c 125.844 128.305 
125.906 128.293 125.988 128.293 c 126.055 128.293 126.141 128.297 
126.238 128.305 c h
129.066 128.879 m 129.645 128.805 l 129.551 128.461 129.379 128.195 
129.129 128.004 c 128.887 127.82 128.57 127.73 128.18 127.73 c 127.695 
127.73 127.312 127.879 127.031 128.18 c 126.746 128.48 126.605 128.898 
126.605 129.441 c 126.605 130 126.746 130.434 127.031 130.742 c 127.32 
131.051 127.695 131.203 128.156 131.203 c 128.598 131.203 128.961 
131.051 129.242 130.742 c 129.527 130.441 129.668 130.016 129.668 
129.465 c 129.668 129.434 129.664 129.383 129.656 129.316 c 127.18 
129.316 l 127.207 128.957 127.309 128.68 127.492 128.48 c 127.676 
128.289 127.91 128.191 128.191 128.191 c 128.395 128.191 128.562 
128.246 128.707 128.355 c 128.855 128.461 128.977 128.637 129.066 
128.879 c h
127.219 129.777 m 129.066 129.777 l 129.043 130.062 128.973 130.273 
128.855 130.418 c 128.68 130.633 128.445 130.742 128.156 130.742 c 
127.898 130.742 127.68 130.652 127.504 130.48 c 127.332 130.305 127.234 
130.07 127.219 129.777 c h
130.352 127.805 m 130.352 131.129 l 130.852 131.129 l 130.852 130.652 l 
130.961 130.82 131.098 130.953 131.266 131.055 c 131.441 131.152 
131.641 131.203 131.863 131.203 c 132.105 131.203 132.305 131.148 
132.465 131.043 c 132.621 130.941 132.734 130.801 132.801 130.617 c 
133.059 131.008 133.402 131.203 133.828 131.203 c 134.152 131.203 
134.402 131.113 134.578 130.93 c 134.762 130.746 134.852 130.461 
134.852 130.078 c 134.852 127.805 l 134.289 127.805 l 134.289 129.891 l 
134.289 130.117 134.27 130.277 134.227 130.379 c 134.195 130.48 134.129 
130.559 134.027 130.617 c 133.934 130.684 133.828 130.715 133.703 
130.715 c 133.469 130.715 133.273 130.637 133.113 130.48 c 132.965 
130.32 132.891 130.07 132.891 129.73 c 132.891 127.805 l 132.328 
127.805 l 132.328 129.965 l 132.328 130.215 132.281 130.402 132.191 
130.527 c 132.098 130.652 131.949 130.715 131.738 130.715 c 131.582 
130.715 131.43 130.676 131.289 130.59 c 131.156 130.508 131.059 130.383 
131.004 130.215 c 130.945 130.059 130.914 129.828 130.914 129.527 c 
130.914 127.805 l 130.352 127.805 l h
130.352 127.805 m f
[] 0.0 d
q 1 0 0 -1 0 299 cm
230.535 169.051 m 241.848 169.051 l S Q
1 g
217.996 129.949 m 224.27 136.223 l 230.543 129.949 l 224.27 123.676 l h
217.996 129.949 m f
0 g
q 1 0 0 -1 0 299 cm
217.996 169.051 m 224.27 162.777 l 230.543 169.051 l 224.27 175.324 l h
217.996 169.051 m S Q
q 1 0 0 -1 0 299 cm
122.273 188.352 m 122.273 178.348 l S Q
0.6 g
[ 6.4 4.8 1.6 4.8] 0 d
q 1 0 0 -1 0 299 cm
203.953 222.648 m 205.719 107.754 l S Q
1 0.94902 0.8 rg
148.824 26.156 110.262 -12.547 re f
0 g
[] 0.0 d
q 1 0 0 -1 0 299 cm
148.824 272.844 110.262 12.547 re S Q
201.637 18.02 m 202.539 17.906 l 202.445 17.281 202.195 16.793 201.789 
16.445 c 201.379 16.094 200.883 15.918 200.301 15.918 c 199.559 15.918 
198.965 16.16 198.512 16.645 c 198.07 17.129 197.852 17.82 197.852 
18.719 c 197.852 19.301 197.945 19.812 198.137 20.242 c 198.328 20.688 
198.621 21.016 199.012 21.23 c 199.406 21.449 199.832 21.555 200.301 
21.555 c 200.883 21.555 201.363 21.406 201.738 21.105 c 202.113 20.816 
202.352 20.398 202.449 19.855 c 201.562 19.719 l 201.48 20.078 201.328 
20.348 201.113 20.531 c 200.906 20.715 200.645 20.805 200.34 20.805 c 
199.879 20.805 199.504 20.641 199.215 20.305 c 198.93 19.98 198.789 
19.461 198.789 18.742 c 198.789 18.02 198.926 17.488 199.199 17.156 c 
199.477 16.832 199.84 16.668 200.289 16.668 c 200.645 16.668 200.945 
16.777 201.188 16.992 c 201.43 17.219 201.578 17.562 201.637 18.02 c h
203.434 16.043 m 203.434 23.492 l 204.344 23.492 l 204.344 16.043 l 
203.434 16.043 l h
205.824 16.043 m 205.824 23.492 l 206.738 23.492 l 206.738 19.242 l 
208.902 21.43 l 210.09 21.43 l 208.027 19.43 l 210.301 16.043 l 209.176 
16.043 l 207.387 18.805 l 206.738 18.18 l 206.738 16.043 l 205.824 
16.043 l h
205.824 16.043 m f
q 1 0 0 -1 0 299 cm
144.598 169.051 m 217.996 169.051 l S Q
Q q
0 299 m 320.801 299 l 320.801 0.602 l 0 0.602 l 0 299 l h
0 299 m W n
  Q
Q
Q q
Q
showpage
%%Trailer
count op_count sub {pop} repeat
countdictstack dict_count sub {end} repeat
cairo_eps_state restore
%%EOF
