%!PS-Adobe-3.0 EPSF-3.0
%%Creator: cairo 1.8.8 (http://cairographics.org)
%%CreationDate: Sun Apr  5 16:52:19 2015
%%Pages: 1
%%BoundingBox: 0 0 320 299
%%DocumentData: Clean7Bit
%%LanguageLevel: 2
%%EndComments
%%BeginProlog
/cairo_eps_state save def
/dict_count countdictstack def
/op_count count 1 sub def
userdict begin
/q { gsave } bind def
/Q { grestore } bind def
/cm { 6 array astore concat } bind def
/w { setlinewidth } bind def
/J { setlinecap } bind def
/j { setlinejoin } bind def
/M { setmiterlimit } bind def
/d { setdash } bind def
/m { moveto } bind def
/l { lineto } bind def
/c { curveto } bind def
/h { closepath } bind def
/re { exch dup neg 3 1 roll 5 3 roll moveto 0 rlineto
      0 exch rlineto 0 rlineto closepath } bind def
/S { stroke } bind def
/f { fill } bind def
/f* { eofill } bind def
/B { fill stroke } bind def
/B* { eofill stroke } bind def
/n { newpath } bind def
/W { clip } bind def
/W* { eoclip } bind def
/BT { } bind def
/ET { } bind def
/pdfmark where { pop globaldict /?pdfmark /exec load put }
    { globaldict begin /?pdfmark /pop load def /pdfmark
    /cleartomark load def end } ifelse
/BDC { mark 3 1 roll /BDC pdfmark } bind def
/EMC { mark /EMC pdfmark } bind def
/cairo_store_point { /cairo_point_y exch def /cairo_point_x exch def } def
/Tj { show currentpoint cairo_store_point } bind def
/TJ {
  {
    dup
    type /stringtype eq
    { show } { -0.001 mul 0 cairo_font_matrix dtransform rmoveto } ifelse
  } forall
  currentpoint cairo_store_point
} bind def
/cairo_selectfont { cairo_font_matrix aload pop pop pop 0 0 6 array astore
    cairo_font exch selectfont cairo_point_x cairo_point_y moveto } bind def
/Tf { pop /cairo_font exch def /cairo_font_matrix where
      { pop cairo_selectfont } if } bind def
/Td { matrix translate cairo_font_matrix matrix concatmatrix dup
      /cairo_font_matrix exch def dup 4 get exch 5 get cairo_store_point
      /cairo_font where { pop cairo_selectfont } if } bind def
/Tm { 2 copy 8 2 roll 6 array astore /cairo_font_matrix exch def
      cairo_store_point /cairo_font where { pop cairo_selectfont } if } bind def
/g { setgray } bind def
/rg { setrgbcolor } bind def
/d1 { setcachedevice } bind def
%%EndProlog
%%Page: 1 1
%%BeginPageSetup
%%PageBoundingBox: 0 0 320 299
%%EndPageSetup
q
Q q
0 298.4 m 320.801 298.4 l 320.801 0.002 l 0 0.002 l 0 298.4 l h
0 298.4 m W n
q 0 0 321 299 rectclip
[ 1 0 0 1 0 -0.600006 ] concat
  q
  0 0 321 299 rectclip
Q q
0.85098 g
74.41 231.938 167.434 -144.93 re f
0 g
1.6 w
0 J
1 j
[] 0.0 d
10 M q 1 0 0 -1 0 299 cm
74.41 67.062 167.434 144.93 re S Q
0.462745 0.647059 0.686275 rg
173.754 227.867 63.949 -36.609 re f
0 g
q 1 0 0 -1 0 299 cm
173.754 71.133 63.949 36.609 re S Q
195.703 207.695 m 196.602 207.586 l 196.512 206.961 196.262 206.473 
195.852 206.121 c 195.445 205.773 194.949 205.598 194.363 205.598 c 
193.621 205.598 193.027 205.84 192.578 206.32 c 192.137 206.805 191.914 
207.496 191.914 208.398 c 191.914 208.98 192.012 209.488 192.203 
209.922 c 192.395 210.363 192.684 210.691 193.078 210.91 c 193.469 
211.125 193.898 211.234 194.363 211.234 c 194.949 211.234 195.426 
211.086 195.801 210.785 c 196.176 210.492 196.414 210.074 196.516 
209.535 c 195.625 209.398 l 195.543 209.754 195.395 210.027 195.176 
210.211 c 194.969 210.391 194.711 210.484 194.402 210.484 c 193.945 
210.484 193.57 210.316 193.277 209.984 c 192.992 209.66 192.852 209.137 
192.852 208.422 c 192.852 207.695 192.988 207.168 193.266 206.836 c 
193.539 206.508 193.902 206.348 194.352 206.348 c 194.711 206.348 
195.012 206.453 195.25 206.672 c 195.492 206.898 195.645 207.238 
195.703 207.695 c h
197.184 208.422 m 197.184 209.422 197.457 210.16 198.008 210.633 c 
198.477 211.035 199.043 211.234 199.707 211.234 c 200.449 211.234 
201.055 210.992 201.52 210.508 c 201.996 210.027 202.234 209.355 
202.234 208.496 c 202.234 207.805 202.129 207.258 201.922 206.859 c 
201.711 206.461 201.406 206.148 201.008 205.922 c 200.609 205.703 
200.176 205.598 199.707 205.598 c 198.949 205.598 198.336 205.84 
197.871 206.32 c 197.414 206.805 197.184 207.504 197.184 208.422 c h
198.121 208.422 m 198.121 207.73 198.27 207.211 198.57 206.859 c 
198.871 206.516 199.25 206.348 199.707 206.348 c 200.156 206.348 
200.531 206.516 200.832 206.859 c 201.141 207.211 201.297 207.738 
201.297 208.445 c 201.297 209.113 201.141 209.617 200.832 209.961 c 
200.531 210.309 200.156 210.484 199.707 210.484 c 199.25 210.484 
198.871 210.312 198.57 209.973 c 198.27 209.629 198.121 209.113 198.121 
208.422 c h
203.449 205.723 m 203.449 211.109 l 204.277 211.109 l 204.277 210.348 l 
204.668 210.938 205.238 211.234 205.988 211.234 c 206.312 211.234 
206.609 211.176 206.875 211.059 c 207.152 210.941 207.355 210.789 
207.488 210.598 c 207.629 210.414 207.727 210.188 207.777 209.922 c 
207.809 209.754 207.824 209.461 207.824 209.035 c 207.824 205.723 l 
206.914 205.723 l 206.914 208.996 l 206.914 209.371 206.875 209.652 
206.801 209.836 c 206.734 210.016 206.609 210.164 206.426 210.273 c 
206.25 210.387 206.043 210.445 205.801 210.445 c 205.41 210.445 205.07 
210.32 204.789 210.07 c 204.504 209.828 204.363 209.363 204.363 208.672 
c 204.363 205.723 l 203.449 205.723 l h
209.594 205.723 m 209.594 210.41 l 208.793 210.41 l 208.793 211.109 l 
209.594 211.109 l 209.594 211.684 l 209.594 212.051 209.625 212.32 
209.691 212.496 c 209.785 212.73 209.938 212.922 210.156 213.07 c 
210.379 213.223 210.691 213.297 211.094 213.297 c 211.352 213.297 
211.633 213.262 211.941 213.195 c 211.805 212.41 l 211.613 212.441 
211.434 212.461 211.27 212.461 c 210.992 212.461 210.797 212.398 210.68 
212.273 c 210.562 212.156 210.504 211.934 210.504 211.609 c 210.504 
211.109 l 211.555 211.109 l 211.555 210.41 l 210.504 210.41 l 210.504 
205.723 l 209.594 205.723 l h
212.344 212.109 m 212.344 213.172 l 213.254 213.172 l 213.254 212.109 l 
212.344 212.109 l h
212.344 205.723 m 212.344 211.109 l 213.254 211.109 l 213.254 205.723 l 
212.344 205.723 l h
214.535 205.273 m 215.438 205.148 l 215.469 204.871 215.57 204.672 
215.738 204.547 c 215.969 204.371 216.281 204.285 216.676 204.285 c 
217.09 204.285 217.414 204.371 217.648 204.547 c 217.883 204.715 
218.035 204.949 218.113 205.258 c 218.16 205.441 218.188 205.828 
218.188 206.422 c 217.785 205.953 217.285 205.723 216.688 205.723 c 
215.945 205.723 215.371 205.988 214.961 206.523 c 214.562 207.055 
214.363 207.695 214.363 208.445 c 214.363 208.965 214.453 209.438 
214.637 209.871 c 214.828 210.305 215.098 210.637 215.449 210.871 c 
215.801 211.113 216.215 211.234 216.699 211.234 c 217.332 211.234 
217.859 210.977 218.273 210.461 c 218.273 211.109 l 219.113 211.109 l 
219.113 206.461 l 219.113 205.617 219.023 205.023 218.848 204.672 c 
218.684 204.32 218.41 204.047 218.035 203.848 c 217.672 203.637 217.215 
203.535 216.676 203.535 c 216.031 203.535 215.512 203.68 215.113 
203.973 c 214.719 204.254 214.527 204.688 214.535 205.273 c h
215.301 208.508 m 215.301 207.809 215.438 207.297 215.711 206.973 c 
215.996 206.648 216.348 206.484 216.773 206.484 c 217.199 206.484 
217.555 206.641 217.836 206.961 c 218.121 207.285 218.262 207.793 
218.262 208.484 c 218.262 209.141 218.117 209.637 217.824 209.973 c 
217.531 210.312 217.18 210.484 216.762 210.484 c 216.352 210.484 
216.008 210.316 215.723 209.984 c 215.441 209.652 215.301 209.16 
215.301 208.508 c h
215.301 208.508 m f
0.811765 0.886275 0.952941 rg
84.875 223.234 63.949 -18.594 re f
0 g
q 1 0 0 -1 0 299 cm
84.875 75.766 63.949 18.594 re S Q
92.66 216.359 m 92.66 217.246 l 93.438 217.246 l 93.438 216.359 l 92.66 
216.359 l h
92.66 210.945 m 92.66 215.508 l 93.438 215.508 l 93.438 210.945 l 92.66 
210.945 l h
98.391 211.684 m 98.391 210.945 l 94.23 210.945 l 94.23 211.129 94.262 
211.309 94.328 211.484 c 94.43 211.766 94.598 212.047 94.828 212.32 c 
95.062 212.594 95.402 212.914 95.844 213.27 c 96.527 213.836 96.988 
214.281 97.23 214.609 c 97.473 214.934 97.594 215.242 97.594 215.531 c 
97.594 215.84 97.484 216.102 97.266 216.309 c 97.051 216.523 96.762 
216.633 96.406 216.633 c 96.039 216.633 95.742 216.52 95.516 216.297 c 
95.293 216.07 95.18 215.762 95.18 215.371 c 94.379 215.445 l 94.438 
216.039 94.641 216.488 94.992 216.797 c 95.352 217.113 95.828 217.27 
96.43 217.27 c 97.031 217.27 97.504 217.105 97.855 216.77 c 98.215 
216.438 98.391 216.02 98.391 215.52 c 98.391 215.27 98.34 215.02 98.23 
214.77 c 98.129 214.527 97.961 214.273 97.719 214.008 c 97.484 213.742 
97.09 213.371 96.531 212.895 c 96.062 212.512 95.762 212.25 95.629 
212.109 c 95.504 211.965 95.398 211.824 95.305 211.684 c 98.391 211.684 
l h
102.27 212.621 m 103.02 212.52 l 102.945 211.996 102.734 211.582 
102.383 211.281 c 102.043 210.992 101.625 210.844 101.133 210.844 c 
100.508 210.844 100.004 211.051 99.621 211.457 c 99.246 211.867 99.059 
212.449 99.059 213.207 c 99.059 213.699 99.137 214.129 99.297 214.496 c 
99.461 214.871 99.711 215.148 100.047 215.332 c 100.379 215.516 100.742 
215.609 101.133 215.609 c 101.625 215.609 102.031 215.484 102.348 
215.234 c 102.664 214.984 102.867 214.629 102.957 214.172 c 102.195 
214.059 l 102.129 214.359 102.004 214.582 101.82 214.734 c 101.637 
214.891 101.418 214.969 101.16 214.969 c 100.773 214.969 100.457 
214.828 100.207 214.547 c 99.969 214.27 99.848 213.832 99.848 213.234 c 
99.848 212.617 99.961 212.172 100.195 211.895 c 100.43 211.621 100.738 
211.484 101.121 211.484 c 101.422 211.484 101.672 211.574 101.871 
211.758 c 102.078 211.941 102.211 212.23 102.27 212.621 c h
102.832 209.195 m 102.832 209.758 l 107.957 209.758 l 107.957 209.195 l 
102.832 209.195 l h
107.988 212.309 m 108.75 212.434 l 108.793 212.125 108.906 211.887 
109.102 211.719 c 109.301 211.562 109.574 211.484 109.926 211.484 c 
110.281 211.484 110.547 211.555 110.711 211.695 c 110.887 211.836 
110.977 212.008 110.977 212.207 c 110.977 212.383 110.898 212.52 110.75 
212.621 c 110.641 212.688 110.379 212.773 109.961 212.883 c 109.395 
213.023 109 213.145 108.773 213.246 c 108.559 213.355 108.391 213.5 
108.273 213.684 c 108.168 213.867 108.113 214.07 108.113 214.297 c 
108.113 214.504 108.156 214.691 108.25 214.859 c 108.34 215.031 108.469 
215.18 108.637 215.297 c 108.754 215.387 108.918 215.461 109.125 215.52 
c 109.332 215.578 109.555 215.609 109.789 215.609 c 110.145 215.609 
110.457 215.559 110.727 215.457 c 111 215.359 111.199 215.215 111.324 
215.031 c 111.457 214.859 111.551 214.625 111.602 214.332 c 110.852 
214.234 l 110.809 214.465 110.703 214.645 110.539 214.77 c 110.379 
214.902 110.148 214.969 109.852 214.969 c 109.492 214.969 109.238 
214.914 109.086 214.797 c 108.938 214.68 108.863 214.543 108.863 
214.383 c 108.863 214.281 108.891 214.195 108.949 214.121 c 109.016 
214.039 109.117 213.965 109.25 213.906 c 109.324 213.883 109.555 
213.816 109.938 213.707 c 110.48 213.566 110.859 213.449 111.074 
213.359 c 111.293 213.266 111.461 213.129 111.586 212.945 c 111.711 
212.77 111.773 212.551 111.773 212.281 c 111.773 212.023 111.699 
211.781 111.551 211.559 c 111.398 211.332 111.184 211.156 110.898 
211.031 c 110.617 210.906 110.297 210.844 109.938 210.844 c 109.344 
210.844 108.891 210.965 108.574 211.207 c 108.266 211.457 108.07 
211.824 107.988 212.309 c h
115.676 212.422 m 116.477 212.32 l 116.352 211.855 116.117 211.492 
115.773 211.234 c 115.434 210.977 115 210.844 114.477 210.844 c 113.809 
210.844 113.277 211.051 112.887 211.457 c 112.496 211.867 112.301 
212.441 112.301 213.184 c 112.301 213.957 112.496 214.555 112.887 
214.969 c 113.289 215.395 113.801 215.609 114.426 215.609 c 115.043 
215.609 115.543 215.398 115.926 214.984 c 116.309 214.574 116.5 213.992 
116.5 213.234 c 116.5 213.031 l 113.102 213.031 l 113.125 212.531 
113.262 212.148 113.512 211.883 c 113.77 211.617 114.09 211.484 114.477 
211.484 c 114.758 211.484 115 211.555 115.199 211.695 c 115.398 211.844 
115.559 212.086 115.676 212.422 c h
113.137 213.672 m 115.688 213.672 l 115.652 214.055 115.559 214.34 
115.398 214.531 c 115.148 214.824 114.828 214.969 114.438 214.969 c 
114.078 214.969 113.777 214.852 113.539 214.609 c 113.297 214.375 
113.164 214.062 113.137 213.672 c h
120.203 209.195 m 120.203 211.434 l 120.086 211.266 119.922 211.125 
119.703 211.008 c 119.488 210.898 119.258 210.844 119.016 210.844 c 
118.473 210.844 118.008 211.062 117.617 211.496 c 117.223 211.93 
117.027 212.52 117.027 213.27 c 117.027 213.73 117.109 214.137 117.266 
214.496 c 117.426 214.863 117.652 215.137 117.953 215.32 c 118.254 
215.512 118.586 215.609 118.953 215.609 c 119.512 215.609 119.953 
215.371 120.277 214.895 c 120.277 215.508 l 120.98 215.508 l 120.98 
209.195 l 120.203 209.195 l h
117.816 213.246 m 117.816 212.652 117.938 212.211 118.18 211.922 c 
118.43 211.629 118.73 211.484 119.078 211.484 c 119.402 211.484 119.684 
211.621 119.918 211.895 c 120.156 212.18 120.277 212.605 120.277 
213.172 c 120.277 213.777 120.152 214.238 119.902 214.547 c 119.652 
214.855 119.363 215.008 119.027 215.008 c 118.688 215.008 118.398 
214.863 118.168 214.57 c 117.934 214.289 117.816 213.844 117.816 
213.246 c h
117.816 213.246 m f
0.811765 0.886275 0.952941 rg
132.938 223.234 8.137 -18.598 re f
0 g
q 1 0 0 -1 0 299 cm
132.938 75.766 8.137 18.598 re S Q
0.643137 0.760784 0.956863 rg
84.875 198.066 71.305 -24.617 re f
0 g
q 1 0 0 -1 0 299 cm
84.875 100.934 71.305 24.617 re S Q
100.137 187.551 m 100.137 188.203 l 100.699 188.203 l 100.699 187.551 l 
100.137 187.551 l h
100.137 183.613 m 100.137 186.938 l 100.699 186.938 l 100.699 183.613 l 
100.137 183.613 l h
104.359 184.152 m 104.359 183.613 l 101.336 183.613 l 101.328 183.746 
101.348 183.875 101.398 184 c 101.473 184.211 101.594 184.414 101.762 
184.613 c 101.934 184.812 102.18 185.047 102.496 185.312 c 102.996 
185.723 103.336 186.043 103.512 186.277 c 103.684 186.52 103.773 
186.742 103.773 186.953 c 103.773 187.176 103.691 187.363 103.535 
187.516 c 103.375 187.672 103.168 187.75 102.91 187.75 c 102.645 187.75 
102.426 187.668 102.262 187.5 c 102.102 187.344 102.02 187.117 102.012 
186.828 c 101.434 186.891 l 101.477 187.324 101.625 187.652 101.887 
187.875 c 102.145 188.102 102.488 188.215 102.922 188.215 c 103.363 
188.215 103.711 188.094 103.961 187.852 c 104.219 187.609 104.348 
187.305 104.348 186.938 c 104.348 186.754 104.309 186.578 104.234 
186.402 c 104.16 186.227 104.035 186.039 103.859 185.84 c 103.691 
185.648 103.406 185.379 102.996 185.039 c 102.664 184.754 102.449 
184.562 102.348 184.465 c 102.254 184.363 102.176 184.262 102.109 
184.152 c 104.359 184.152 l h
107.281 184.828 m 107.832 184.766 l 107.773 184.379 107.621 184.082 
107.371 183.863 c 107.121 183.648 106.816 183.539 106.457 183.539 c 106 
183.539 105.633 183.684 105.355 183.977 c 105.082 184.277 104.945 
184.707 104.945 185.266 c 104.945 185.621 105.004 185.934 105.121 
186.203 c 105.246 186.469 105.426 186.668 105.668 186.801 c 105.91 
186.941 106.172 187.016 106.457 187.016 c 106.816 187.016 107.105 
186.922 107.332 186.738 c 107.566 186.555 107.715 186.297 107.781 
185.965 c 107.23 185.875 l 107.184 186.102 107.09 186.27 106.957 
186.375 c 106.824 186.492 106.664 186.551 106.48 186.551 c 106.199 
186.551 105.965 186.449 105.781 186.238 c 105.605 186.039 105.52 
185.719 105.52 185.277 c 105.52 184.836 105.602 184.512 105.77 184.301 
c 105.945 184.102 106.168 184 106.445 184 c 106.668 184 106.852 184.066 
106.996 184.203 c 107.145 184.344 107.238 184.551 107.281 184.828 c h
107.793 182.34 m 107.793 182.75 l 111.531 182.75 l 111.531 182.34 l 
107.793 182.34 l h
111.652 184.602 m 112.203 184.688 l 112.238 184.473 112.324 184.301 
112.465 184.176 c 112.609 184.059 112.809 184 113.066 184 c 113.324 184 
113.516 184.051 113.641 184.152 c 113.766 184.262 113.828 184.387 
113.828 184.527 c 113.828 184.66 113.773 184.762 113.668 184.828 c 
113.59 184.875 113.398 184.941 113.09 185.027 c 112.676 185.125 112.387 
185.215 112.23 185.289 c 112.07 185.363 111.949 185.469 111.867 185.602 
c 111.781 185.742 111.742 185.895 111.742 186.051 c 111.742 186.203 
111.773 186.34 111.84 186.465 c 111.918 186.59 112.012 186.691 112.129 
186.777 c 112.211 186.844 112.328 186.898 112.48 186.938 c 112.629 
186.988 112.793 187.016 112.965 187.016 c 113.223 187.016 113.453 
186.977 113.652 186.902 c 113.855 186.828 114 186.723 114.09 186.59 c 
114.184 186.465 114.246 186.293 114.277 186.078 c 113.73 186 l 113.703 
186.176 113.633 186.309 113.516 186.402 c 113.398 186.5 113.23 186.551 
113.004 186.551 c 112.746 186.551 112.562 186.504 112.453 186.414 c 
112.344 186.332 112.293 186.23 112.293 186.113 c 112.293 186.047 
112.312 185.984 112.355 185.926 c 112.402 185.859 112.48 185.809 
112.578 185.777 c 112.629 185.75 112.793 185.703 113.066 185.625 c 
113.465 185.52 113.746 185.43 113.902 185.363 c 114.062 185.297 114.184 
185.199 114.266 185.062 c 114.359 184.938 114.402 184.781 114.402 
184.59 c 114.402 184.406 114.348 184.23 114.242 184.062 c 114.133 
183.898 113.973 183.77 113.766 183.676 c 113.566 183.586 113.332 
183.539 113.066 183.539 c 112.641 183.539 112.312 183.625 112.078 
183.801 c 111.855 183.984 111.711 184.25 111.652 184.602 c h
117.355 184.688 m 117.93 184.613 l 117.836 184.273 117.668 184.004 
117.418 183.812 c 117.176 183.629 116.859 183.539 116.465 183.539 c 
115.984 183.539 115.598 183.688 115.316 183.988 c 115.031 184.289 
114.891 184.711 114.891 185.25 c 114.891 185.809 115.031 186.242 
115.316 186.551 c 115.609 186.859 115.984 187.016 116.441 187.016 c 
116.883 187.016 117.246 186.859 117.527 186.551 c 117.812 186.25 
117.953 185.828 117.953 185.277 c 117.953 185.242 117.949 185.191 
117.941 185.125 c 115.465 185.125 l 115.492 184.77 115.594 184.488 
115.777 184.289 c 115.961 184.098 116.195 184 116.48 184 c 116.68 184 
116.848 184.055 116.992 184.164 c 117.141 184.273 117.262 184.449 
117.355 184.688 c h
115.504 185.59 m 117.355 185.59 l 117.328 185.871 117.258 186.086 
117.141 186.227 c 116.965 186.441 116.734 186.551 116.441 186.551 c 
116.184 186.551 115.965 186.465 115.793 186.289 c 115.617 186.113 
115.52 185.879 115.504 185.59 c h
120.75 182.34 m 120.75 183.965 l 120.668 183.848 120.547 183.746 
120.387 183.664 c 120.23 183.582 120.062 183.539 119.887 183.539 c 
119.488 183.539 119.145 183.699 118.863 184.016 c 118.578 184.332 
118.438 184.762 118.438 185.301 c 118.438 185.637 118.496 185.934 
118.613 186.203 c 118.73 186.469 118.895 186.668 119.113 186.801 c 
119.34 186.941 119.578 187.016 119.84 187.016 c 120.246 187.016 120.57 
186.84 120.812 186.488 c 120.812 186.938 l 121.312 186.938 l 121.312 
182.34 l 120.75 182.34 l h
119.012 185.289 m 119.012 184.855 119.102 184.531 119.277 184.312 c 
119.457 184.105 119.676 184 119.926 184 c 120.168 184 120.375 184.102 
120.551 184.301 c 120.727 184.512 120.812 184.824 120.812 185.238 c 
120.812 185.68 120.723 186.012 120.539 186.227 c 120.355 186.453 
120.137 186.562 119.887 186.562 c 119.645 186.562 119.438 186.461 
119.262 186.25 c 119.098 186.043 119.012 185.723 119.012 185.289 c h
124.371 183.613 m 124.371 184.102 l 124.113 183.727 123.766 183.539 
123.324 183.539 c 123.121 183.539 122.934 183.578 122.762 183.652 c 
122.594 183.727 122.469 183.816 122.387 183.926 c 122.309 184.043 
122.254 184.184 122.223 184.352 c 122.199 184.461 122.184 184.637 
122.184 184.875 c 122.184 186.938 l 122.746 186.938 l 122.746 185.09 l 
122.746 184.797 122.762 184.602 122.785 184.5 c 122.816 184.352 122.891 
184.234 122.996 184.152 c 123.113 184.066 123.262 184.027 123.434 
184.027 c 123.602 184.027 123.754 184.066 123.898 184.152 c 124.047 
184.242 124.152 184.359 124.211 184.5 c 124.277 184.652 124.309 184.867 
124.309 185.152 c 124.309 186.938 l 124.871 186.938 l 124.871 183.613 l 
124.371 183.613 l h
128.031 184.688 m 128.605 184.613 l 128.516 184.273 128.344 184.004 
128.094 183.812 c 127.852 183.629 127.535 183.539 127.145 183.539 c 
126.66 183.539 126.277 183.688 125.996 183.988 c 125.711 184.289 125.57 
184.711 125.57 185.25 c 125.57 185.809 125.711 186.242 125.996 186.551 
c 126.285 186.859 126.66 187.016 127.121 187.016 c 127.562 187.016 
127.922 186.859 128.207 186.551 c 128.488 186.25 128.633 185.828 
128.633 185.277 c 128.633 185.242 128.629 185.191 128.621 185.125 c 
126.145 185.125 l 126.168 184.77 126.273 184.488 126.457 184.289 c 
126.641 184.098 126.875 184 127.156 184 c 127.355 184 127.527 184.055 
127.668 184.164 c 127.82 184.273 127.941 184.449 128.031 184.688 c h
126.184 185.59 m 128.031 185.59 l 128.008 185.871 127.938 186.086 
127.82 186.227 c 127.645 186.441 127.41 186.551 127.121 186.551 c 
126.859 186.551 126.645 186.465 126.469 186.289 c 126.293 186.113 
126.199 185.879 126.184 185.59 c h
129.316 183.613 m 129.316 186.938 l 129.816 186.938 l 129.816 186.465 l 
130.066 186.832 130.422 187.016 130.879 187.016 c 131.078 187.016 
131.262 186.977 131.43 186.902 c 131.594 186.828 131.719 186.73 131.805 
186.613 c 131.887 186.496 131.945 186.359 131.98 186.203 c 132.004 
186.102 132.016 185.918 132.016 185.652 c 132.016 183.613 l 131.453 
183.613 l 131.453 185.641 l 131.453 185.863 131.43 186.031 131.379 
186.141 c 131.336 186.254 131.258 186.348 131.141 186.414 c 131.031 
186.488 130.902 186.527 130.754 186.527 c 130.52 186.527 130.316 
186.449 130.141 186.289 c 129.965 186.141 129.879 185.852 129.879 
185.426 c 129.879 183.613 l 129.316 183.613 l h
135.039 184.828 m 135.59 184.766 l 135.531 184.379 135.375 184.082 
135.125 183.863 c 134.875 183.648 134.57 183.539 134.215 183.539 c 
133.754 183.539 133.387 183.684 133.113 183.977 c 132.84 184.277 
132.699 184.707 132.699 185.266 c 132.699 185.621 132.758 185.934 
132.875 186.203 c 133 186.469 133.184 186.668 133.426 186.801 c 133.668 
186.941 133.93 187.016 134.215 187.016 c 134.57 187.016 134.863 186.922 
135.09 186.738 c 135.32 186.555 135.473 186.297 135.539 185.965 c 
134.988 185.875 l 134.938 186.102 134.848 186.27 134.715 186.375 c 
134.578 186.492 134.422 186.551 134.238 186.551 c 133.953 186.551 
133.723 186.449 133.539 186.238 c 133.363 186.039 133.277 185.719 
133.277 185.277 c 133.277 184.836 133.359 184.512 133.527 184.301 c 
133.699 184.102 133.926 184 134.199 184 c 134.426 184 134.609 184.066 
134.75 184.203 c 134.902 184.344 134.996 184.551 135.039 184.828 c h
138.352 184.688 m 138.926 184.613 l 138.832 184.273 138.664 184.004 
138.414 183.812 c 138.172 183.629 137.855 183.539 137.465 183.539 c 
136.98 183.539 136.598 183.688 136.312 183.988 c 136.031 184.289 
135.887 184.711 135.887 185.25 c 135.887 185.809 136.031 186.242 
136.312 186.551 c 136.605 186.859 136.98 187.016 137.438 187.016 c 
137.879 187.016 138.242 186.859 138.527 186.551 c 138.809 186.25 
138.949 185.828 138.949 185.277 c 138.949 185.242 138.945 185.191 
138.938 185.125 c 136.465 185.125 l 136.488 184.77 136.594 184.488 
136.777 184.289 c 136.957 184.098 137.191 184 137.477 184 c 137.676 184 
137.848 184.055 137.988 184.164 c 138.137 184.273 138.258 184.449 
138.352 184.688 c h
136.5 185.59 m 138.352 185.59 l 138.324 185.871 138.254 186.086 138.137 
186.227 c 137.965 186.441 137.73 186.551 137.438 186.551 c 137.18 
186.551 136.965 186.465 136.789 186.289 c 136.613 186.113 136.516 
185.879 136.5 185.59 c h
139.621 183.613 m 139.621 186.938 l 140.137 186.938 l 140.137 186.426 l 
140.262 186.668 140.375 186.828 140.484 186.902 c 140.602 186.977 
140.723 187.016 140.848 187.016 c 141.039 187.016 141.234 186.953 
141.434 186.828 c 141.234 186.301 l 141.102 186.387 140.965 186.426 
140.824 186.426 c 140.699 186.426 140.586 186.391 140.484 186.312 c 
140.395 186.238 140.328 186.141 140.285 186.016 c 140.219 185.812 
140.184 185.594 140.184 185.352 c 140.184 183.613 l 139.621 183.613 l h
139.621 183.613 m f
0.643137 0.760784 0.956863 rg
90.301 136.613 63.949 -29.832 re f
0 g
q 1 0 0 -1 0 299 cm
90.301 162.387 63.949 29.832 re S Q
104.383 124.117 m 104.383 125.008 l 105.16 125.008 l 105.16 124.117 l 
104.383 124.117 l h
104.383 118.707 m 104.383 123.27 l 105.16 123.27 l 105.16 118.707 l 
104.383 118.707 l h
110.113 119.445 m 110.113 118.707 l 105.953 118.707 l 105.953 118.891 
105.984 119.07 106.051 119.242 c 106.152 119.527 106.32 119.805 106.551 
120.082 c 106.785 120.355 107.125 120.672 107.566 121.031 c 108.25 
121.598 108.711 122.043 108.953 122.367 c 109.195 122.695 109.316 
123.004 109.316 123.293 c 109.316 123.602 109.207 123.859 108.988 
124.07 c 108.773 124.285 108.484 124.395 108.129 124.395 c 107.762 
124.395 107.465 124.281 107.238 124.055 c 107.016 123.832 106.902 
123.523 106.902 123.133 c 106.102 123.207 l 106.16 123.797 106.363 
124.246 106.715 124.555 c 107.074 124.871 107.551 125.031 108.152 
125.031 c 108.754 125.031 109.227 124.863 109.578 124.531 c 109.938 
124.199 110.113 123.781 110.113 123.281 c 110.113 123.031 110.062 
122.781 109.953 122.531 c 109.852 122.289 109.684 122.035 109.441 
121.77 c 109.207 121.504 108.812 121.133 108.254 120.656 c 107.785 
120.273 107.484 120.012 107.352 119.867 c 107.227 119.727 107.121 
119.586 107.027 119.445 c 110.113 119.445 l h
113.992 120.383 m 114.742 120.281 l 114.668 119.758 114.457 119.344 
114.105 119.043 c 113.766 118.754 113.348 118.605 112.855 118.605 c 
112.23 118.605 111.727 118.809 111.344 119.219 c 110.969 119.629 
110.781 120.211 110.781 120.969 c 110.781 121.461 110.859 121.891 
111.02 122.258 c 111.188 122.633 111.438 122.91 111.77 123.094 c 
112.102 123.277 112.465 123.367 112.855 123.367 c 113.348 123.367 
113.754 123.242 114.07 122.992 c 114.387 122.742 114.59 122.391 114.68 
121.93 c 113.918 121.82 l 113.852 122.117 113.727 122.344 113.543 
122.492 c 113.359 122.652 113.141 122.73 112.883 122.73 c 112.5 122.73 
112.18 122.59 111.93 122.305 c 111.691 122.031 111.57 121.594 111.57 
120.992 c 111.57 120.379 111.688 119.93 111.918 119.656 c 112.152 
119.383 112.461 119.242 112.844 119.242 c 113.145 119.242 113.395 
119.336 113.594 119.52 c 113.801 119.703 113.938 119.988 113.992 
120.383 c h
114.555 116.957 m 114.555 117.52 l 119.68 117.52 l 119.68 116.957 l 
114.555 116.957 l h
122.973 118.707 m 122.973 119.281 l 122.688 118.832 122.266 118.605 
121.699 118.605 c 121.34 118.605 121.008 118.707 120.699 118.906 c 
120.391 119.105 120.152 119.387 119.984 119.742 c 119.82 120.102 
119.734 120.516 119.734 120.98 c 119.734 121.441 119.809 121.852 
119.961 122.219 c 120.117 122.594 120.348 122.879 120.648 123.07 c 
120.949 123.27 121.285 123.367 121.66 123.367 c 121.934 123.367 122.18 
123.309 122.398 123.195 c 122.613 123.078 122.789 122.926 122.922 
122.742 c 122.922 125.008 l 123.699 125.008 l 123.699 118.707 l 122.973 
118.707 l h
120.535 120.98 m 120.535 120.398 120.656 119.961 120.898 119.668 c 
121.148 119.387 121.438 119.242 121.773 119.242 c 122.113 119.242 
122.402 119.383 122.637 119.656 c 122.867 119.93 122.984 120.352 
122.984 120.918 c 122.984 121.543 122.863 122.004 122.621 122.293 c 
122.391 122.586 122.094 122.73 121.734 122.73 c 121.395 122.73 121.105 
122.59 120.871 122.305 c 120.648 122.031 120.535 121.59 120.535 120.98 
c h
124.75 118.707 m 124.75 123.27 l 125.438 123.27 l 125.438 122.582 l 
125.621 122.906 125.789 123.117 125.938 123.219 c 126.09 123.32 126.25 
123.367 126.426 123.367 c 126.691 123.367 126.961 123.285 127.227 
123.117 c 126.965 122.406 l 126.773 122.516 126.582 122.57 126.391 
122.57 c 126.223 122.57 126.07 122.52 125.938 122.418 c 125.805 122.32 
125.711 122.176 125.652 121.992 c 125.566 121.719 125.527 121.418 
125.527 121.094 c 125.527 118.707 l 124.75 118.707 l h
127.602 124.117 m 127.602 125.008 l 128.379 125.008 l 128.379 124.117 l 
127.602 124.117 l h
127.602 118.707 m 127.602 123.27 l 128.379 123.27 l 128.379 118.707 l 
127.602 118.707 l h
130.758 118.707 m 129.023 123.27 l 129.836 123.27 l 130.82 120.531 l 
130.922 120.238 131.016 119.934 131.109 119.617 c 131.176 119.859 
131.273 120.148 131.398 120.48 c 132.41 123.27 l 133.211 123.27 l 
131.484 118.707 l 130.758 118.707 l h
136.871 120.18 m 137.672 120.082 l 137.547 119.613 137.312 119.254 
136.973 118.992 c 136.629 118.734 136.195 118.605 135.672 118.605 c 
135.004 118.605 134.477 118.809 134.086 119.219 c 133.691 119.629 
133.496 120.203 133.496 120.945 c 133.496 121.719 133.691 122.316 
134.086 122.73 c 134.484 123.156 134.996 123.367 135.621 123.367 c 
136.238 123.367 136.738 123.16 137.121 122.742 c 137.504 122.336 
137.695 121.754 137.695 120.992 c 137.695 120.793 l 134.297 120.793 l 
134.32 120.293 134.461 119.91 134.711 119.645 c 134.969 119.379 135.289 
119.242 135.672 119.242 c 135.953 119.242 136.195 119.316 136.398 
119.457 c 136.598 119.605 136.754 119.848 136.871 120.18 c h
134.336 121.43 m 136.883 121.43 l 136.852 121.816 136.754 122.102 
136.598 122.293 c 136.348 122.586 136.027 122.73 135.633 122.73 c 
135.277 122.73 134.977 122.609 134.734 122.367 c 134.492 122.137 
134.359 121.824 134.336 121.43 c h
138.488 118.707 m 138.488 123.27 l 139.176 123.27 l 139.176 122.582 l 
139.359 122.906 139.527 123.117 139.676 123.219 c 139.824 123.32 
139.988 123.367 140.164 123.367 c 140.43 123.367 140.695 123.285 
140.965 123.117 c 140.699 122.406 l 140.508 122.516 140.316 122.57 
140.125 122.57 c 139.957 122.57 139.809 122.52 139.676 122.418 c 
139.543 122.32 139.445 122.176 139.387 121.992 c 139.305 121.719 
139.262 121.418 139.262 121.094 c 139.262 118.707 l 138.488 118.707 l h
138.488 118.707 m f
0.643137 0.760784 0.956863 rg
160.441 136.613 63.949 -29.832 re f
0 g
q 1 0 0 -1 0 299 cm
160.441 162.387 63.949 29.832 re S Q
170.969 124.117 m 170.969 125.008 l 171.746 125.008 l 171.746 124.117 l 
170.969 124.117 l h
170.969 118.707 m 170.969 123.27 l 171.746 123.27 l 171.746 118.707 l 
170.969 118.707 l h
176.703 119.445 m 176.703 118.707 l 172.539 118.707 l 172.539 118.891 
172.574 119.07 172.641 119.242 c 172.738 119.527 172.906 119.805 
173.141 120.082 c 173.371 120.355 173.711 120.672 174.152 121.031 c 
174.836 121.598 175.297 122.043 175.539 122.367 c 175.781 122.695 
175.902 123.004 175.902 123.293 c 175.902 123.602 175.793 123.859 
175.578 124.07 c 175.359 124.285 175.074 124.395 174.715 124.395 c 
174.348 124.395 174.051 124.281 173.828 124.055 c 173.602 123.832 
173.488 123.523 173.488 123.133 c 172.691 123.207 l 172.746 123.797 
172.953 124.246 173.301 124.555 c 173.66 124.871 174.141 125.031 
174.738 125.031 c 175.34 125.031 175.816 124.863 176.164 124.531 c 
176.523 124.199 176.703 123.781 176.703 123.281 c 176.703 123.031 
176.648 122.781 176.539 122.531 c 176.441 122.289 176.27 122.035 
176.027 121.77 c 175.793 121.504 175.398 121.133 174.84 120.656 c 
174.371 120.273 174.074 120.012 173.941 119.867 c 173.816 119.727 
173.707 119.586 173.613 119.445 c 176.703 119.445 l h
180.582 120.383 m 181.332 120.281 l 181.254 119.758 181.043 119.344 
180.691 119.043 c 180.352 118.754 179.934 118.605 179.441 118.605 c 
178.816 118.605 178.312 118.809 177.93 119.219 c 177.555 119.629 
177.367 120.211 177.367 120.969 c 177.367 121.461 177.449 121.891 
177.605 122.258 c 177.773 122.633 178.023 122.91 178.355 123.094 c 
178.688 123.277 179.051 123.367 179.441 123.367 c 179.934 123.367 
180.34 123.242 180.656 122.992 c 180.973 122.742 181.176 122.391 181.27 
121.93 c 180.504 121.82 l 180.438 122.117 180.312 122.344 180.129 
122.492 c 179.949 122.652 179.727 122.73 179.469 122.73 c 179.086 
122.73 178.77 122.59 178.52 122.305 c 178.277 122.031 178.156 121.594 
178.156 120.992 c 178.156 120.379 178.273 119.93 178.504 119.656 c 
178.738 119.383 179.047 119.242 179.43 119.242 c 179.73 119.242 179.98 
119.336 180.18 119.52 c 180.391 119.703 180.523 119.988 180.582 120.383 
c h
181.145 116.957 m 181.145 117.52 l 186.27 117.52 l 186.27 116.957 l 
181.145 116.957 l h
186.598 118.707 m 186.598 123.27 l 187.297 123.27 l 187.297 122.633 l 
187.438 122.855 187.625 123.035 187.859 123.168 c 188.102 123.301 
188.371 123.367 188.672 123.367 c 189.012 123.367 189.293 123.297 
189.508 123.156 c 189.727 123.023 189.879 122.828 189.973 122.57 c 
190.332 123.102 190.797 123.367 191.371 123.367 c 191.832 123.367 
192.18 123.242 192.422 122.992 c 192.664 122.742 192.785 122.359 
192.785 121.844 c 192.785 118.707 l 192.023 118.707 l 192.023 121.582 l 
192.023 121.891 191.996 122.109 191.945 122.242 c 191.898 122.387 
191.805 122.496 191.672 122.582 c 191.539 122.664 191.383 122.707 
191.211 122.707 c 190.883 122.707 190.613 122.598 190.398 122.383 c 
190.188 122.164 190.086 121.824 190.086 121.355 c 190.086 118.707 l 
189.309 118.707 l 189.309 121.668 l 189.309 122.012 189.246 122.27 
189.121 122.445 c 188.996 122.617 188.793 122.707 188.508 122.707 c 
188.293 122.707 188.09 122.648 187.898 122.531 c 187.715 122.414 
187.582 122.242 187.496 122.02 c 187.414 121.801 187.371 121.484 
187.371 121.07 c 187.371 118.707 l 186.598 118.707 l h
193.41 120.992 m 193.41 121.836 193.648 122.461 194.125 122.867 c 
194.516 123.203 194.996 123.367 195.562 123.367 c 196.188 123.367 
196.695 123.164 197.086 122.758 c 197.484 122.348 197.688 121.781 
197.688 121.055 c 197.688 120.465 197.598 119.996 197.422 119.656 c 
197.25 119.324 196.988 119.066 196.648 118.883 c 196.316 118.699 
195.953 118.605 195.562 118.605 c 194.918 118.605 194.398 118.809 194 
119.219 c 193.605 119.629 193.41 120.219 193.41 120.992 c h
194.211 120.992 m 194.211 120.402 194.336 119.961 194.586 119.668 c 
194.844 119.387 195.168 119.242 195.562 119.242 c 195.945 119.242 
196.262 119.391 196.512 119.68 c 196.77 119.973 196.898 120.418 196.898 
121.02 c 196.898 121.578 196.77 122.004 196.512 122.293 c 196.254 
122.586 195.938 122.73 195.562 122.73 c 195.168 122.73 194.844 122.586 
194.586 122.293 c 194.336 122.012 194.211 121.578 194.211 120.992 c h
198.441 118.707 m 198.441 123.27 l 199.141 123.27 l 199.141 122.617 l 
199.473 123.117 199.957 123.367 200.59 123.367 c 200.863 123.367 
201.117 123.32 201.352 123.219 c 201.586 123.129 201.758 122.996 
201.863 122.832 c 201.98 122.672 202.066 122.484 202.113 122.27 c 
202.141 122.117 202.152 121.863 202.152 121.508 c 202.152 118.707 l 
201.379 118.707 l 201.379 121.48 l 201.379 121.797 201.348 122.031 
201.289 122.18 c 201.23 122.34 201.121 122.465 200.965 122.555 c 
200.816 122.656 200.637 122.707 200.426 122.707 c 200.102 122.707 
199.82 122.602 199.578 122.395 c 199.336 122.184 199.215 121.785 
199.215 121.195 c 199.215 118.707 l 198.441 118.707 l h
203.191 124.117 m 203.191 125.008 l 203.969 125.008 l 203.969 124.117 l 
203.191 124.117 l h
203.191 118.707 m 203.191 123.27 l 203.969 123.27 l 203.969 118.707 l 
203.191 118.707 l h
206.773 119.395 m 206.875 118.719 l 206.656 118.668 206.465 118.645 
206.301 118.645 c 206.016 118.645 205.797 118.691 205.637 118.781 c 
205.488 118.871 205.379 118.988 205.312 119.133 c 205.254 119.273 
205.227 119.578 205.227 120.043 c 205.227 122.668 l 204.648 122.668 l 
204.648 123.27 l 205.227 123.27 l 205.227 124.395 l 205.988 124.867 l 
205.988 123.27 l 206.773 123.27 l 206.773 122.668 l 205.988 122.668 l 
205.988 119.992 l 205.988 119.777 206 119.637 206.023 119.57 c 206.059 
119.512 206.105 119.461 206.164 119.418 c 206.23 119.387 206.316 
119.367 206.426 119.367 c 206.516 119.367 206.633 119.379 206.773 
119.395 c h
207.156 120.992 m 207.156 121.836 207.395 122.461 207.867 122.867 c 
208.262 123.203 208.738 123.367 209.305 123.367 c 209.93 123.367 
210.438 123.164 210.832 122.758 c 211.23 122.348 211.43 121.781 211.43 
121.055 c 211.43 120.465 211.344 119.996 211.168 119.656 c 210.992 
119.324 210.734 119.066 210.395 118.883 c 210.059 118.699 209.699 
118.605 209.305 118.605 c 208.664 118.605 208.145 118.809 207.742 
119.219 c 207.352 119.629 207.156 120.219 207.156 120.992 c h
207.957 120.992 m 207.957 120.402 208.082 119.961 208.332 119.668 c 
208.59 119.387 208.914 119.242 209.305 119.242 c 209.688 119.242 
210.004 119.391 210.254 119.68 c 210.516 119.973 210.645 120.418 
210.645 121.02 c 210.645 121.578 210.516 122.004 210.254 122.293 c 
209.996 122.586 209.68 122.73 209.305 122.73 c 208.914 122.73 208.59 
122.586 208.332 122.293 c 208.082 122.012 207.957 121.578 207.957 
120.992 c h
212.184 118.707 m 212.184 123.27 l 212.871 123.27 l 212.871 122.582 l 
213.055 122.906 213.223 123.117 213.371 123.219 c 213.523 123.32 
213.684 123.367 213.859 123.367 c 214.125 123.367 214.395 123.285 
214.66 123.117 c 214.398 122.406 l 214.207 122.516 214.012 122.57 
213.82 122.57 c 213.656 122.57 213.504 122.52 213.371 122.418 c 213.238 
122.32 213.145 122.176 213.086 121.992 c 213 121.719 212.961 121.418 
212.961 121.094 c 212.961 118.707 l 212.184 118.707 l h
212.184 118.707 m f
0.956863 0.8 0.8 rg
257.91 130.996 m 287.941 130.996 l 297.242 121.699 l 287.941 112.402 l 
257.91 112.402 l h
257.91 130.996 m f
0 g
q 1 0 0 -1 0 299 cm
257.91 168.004 m 287.941 168.004 l 297.242 177.301 l 287.941 186.598 l 
257.91 186.598 l h
257.91 168.004 m S Q
265.098 117.859 m 267.957 125.309 l 269.008 125.309 l 272.059 117.859 l 
270.934 117.859 l 270.07 120.109 l 266.957 120.109 l 266.133 117.859 l 
265.098 117.859 l h
267.246 120.922 m 269.77 120.922 l 268.984 122.984 l 268.75 123.609 
268.574 124.121 268.457 124.52 c 268.367 124.047 268.234 123.57 268.059 
123.094 c 267.246 120.922 l h
273.02 117.859 m 273.02 125.309 l 275.832 125.309 l 276.324 125.309 
276.699 125.281 276.957 125.234 c 277.324 125.176 277.633 125.059 
277.883 124.883 c 278.133 124.715 278.332 124.48 278.484 124.172 c 
278.633 123.863 278.707 123.52 278.707 123.145 c 278.707 122.512 
278.504 121.977 278.094 121.531 c 277.695 121.102 276.969 120.883 
275.922 120.883 c 274.008 120.883 l 274.008 117.859 l 273.02 117.859 l 
h
274.008 121.758 m 275.934 121.758 l 276.566 121.758 277.016 121.875 
277.281 122.109 c 277.559 122.352 277.695 122.688 277.695 123.121 c 
277.695 123.43 277.617 123.691 277.457 123.906 c 277.301 124.133 277.09 
124.281 276.832 124.359 c 276.668 124.398 276.359 124.422 275.906 
124.422 c 274.008 124.422 l 274.008 121.758 l h
274.008 121.758 m f
93.273 241.469 m 93.273 250.629 l 94.484 250.629 l 94.484 241.469 l 
93.273 241.469 l h
102.078 242.555 m 102.078 241.469 l 96.016 241.469 l 96.008 241.742 
96.055 242.004 96.156 242.254 c 96.305 242.664 96.551 243.066 96.891 
243.469 c 97.234 243.867 97.727 244.328 98.367 244.855 c 99.359 245.672 
100.031 246.316 100.379 246.793 c 100.73 247.273 100.906 247.73 100.906 
248.156 c 100.906 248.598 100.746 248.973 100.43 249.281 c 100.113 
249.586 99.695 249.742 99.18 249.742 c 98.637 249.742 98.203 249.578 
97.879 249.254 c 97.555 248.93 97.391 248.48 97.391 247.906 c 96.23 
248.016 l 96.312 248.883 96.613 249.543 97.129 249.992 c 97.645 250.441 
98.34 250.668 99.203 250.668 c 100.09 250.668 100.785 250.422 101.293 
249.93 c 101.809 249.445 102.066 248.848 102.066 248.129 c 102.066 
247.762 101.992 247.398 101.844 247.043 c 101.691 246.691 101.441 
246.32 101.094 245.93 c 100.742 245.539 100.164 245 99.355 244.316 c 
98.68 243.75 98.246 243.363 98.055 243.156 c 97.863 242.953 97.703 
242.754 97.578 242.555 c 102.078 242.555 l h
110.273 244.68 m 111.484 244.379 l 111.234 243.379 110.777 242.617 
110.109 242.094 c 109.453 241.566 108.648 241.305 107.699 241.305 c 
106.707 241.305 105.902 241.504 105.285 241.906 c 104.668 242.312 
104.199 242.895 103.875 243.656 c 103.547 244.422 103.387 245.242 
103.387 246.117 c 103.387 247.074 103.57 247.91 103.938 248.617 c 
104.301 249.324 104.82 249.863 105.484 250.23 c 106.16 250.605 106.902 
250.793 107.711 250.793 c 108.629 250.793 109.398 250.559 110.023 
250.094 c 110.648 249.625 111.086 248.969 111.336 248.117 c 110.137 
247.844 l 109.926 248.508 109.621 248.992 109.211 249.293 c 108.812 
249.602 108.301 249.754 107.688 249.754 c 106.984 249.754 106.398 
249.582 105.922 249.242 c 105.449 248.91 105.113 248.453 104.922 
247.879 c 104.73 247.312 104.637 246.73 104.637 246.129 c 104.637 
245.348 104.75 244.664 104.973 244.078 c 105.207 243.504 105.562 243.07 
106.035 242.781 c 106.52 242.496 107.039 242.355 107.598 242.355 c 
108.273 242.355 108.844 242.551 109.312 242.941 c 109.785 243.332 
110.105 243.914 110.273 244.68 c h
116.5 241.469 m 116.5 250.629 l 118.324 250.629 l 120.5 244.141 l 
120.699 243.543 120.844 243.094 120.938 242.793 c 121.035 243.125 
121.199 243.613 121.422 244.254 c 123.609 250.629 l 125.25 250.629 l 
125.25 241.469 l 124.074 241.469 l 124.074 249.141 l 121.41 241.469 l 
120.324 241.469 l 117.672 249.266 l 117.672 241.469 l 116.5 241.469 l h
126.188 241.469 m 129.711 250.629 l 131.023 250.629 l 134.773 241.469 l 
133.387 241.469 l 132.324 244.242 l 128.484 244.242 l 127.484 241.469 l 
126.188 241.469 l h
128.836 245.23 m 131.949 245.23 l 130.984 247.766 l 130.695 248.543 
130.477 249.176 130.336 249.668 c 130.219 249.082 130.059 248.5 129.848 
247.918 c 128.836 245.23 l h
135.324 244.418 m 136.473 244.516 l 136.523 244.059 136.648 243.68 
136.848 243.379 c 137.047 243.086 137.355 242.852 137.773 242.668 c 
138.191 242.492 138.656 242.406 139.172 242.406 c 139.641 242.406 
140.047 242.473 140.398 242.605 c 140.758 242.746 141.02 242.934 
141.188 243.168 c 141.359 243.41 141.449 243.672 141.449 243.953 c 
141.449 244.246 141.363 244.496 141.199 244.703 c 141.031 244.922 
140.758 245.105 140.375 245.254 c 140.133 245.348 139.59 245.492 138.75 
245.691 c 137.906 245.898 137.316 246.094 136.973 246.266 c 136.539 
246.5 136.215 246.785 136 247.117 c 135.781 247.457 135.672 247.844 
135.672 248.266 c 135.672 248.727 135.801 249.156 136.062 249.555 c 
136.328 249.961 136.711 250.27 137.211 250.48 c 137.719 250.688 138.281 
250.793 138.898 250.793 c 139.582 250.793 140.184 250.68 140.699 
250.453 c 141.215 250.238 141.609 249.918 141.887 249.492 c 142.168 
249.066 142.324 248.586 142.348 248.055 c 141.188 247.969 l 141.121 
248.543 140.906 248.977 140.547 249.266 c 140.191 249.566 139.656 
249.719 138.949 249.719 c 138.215 249.719 137.684 249.582 137.348 
249.316 c 137.016 249.051 136.848 248.727 136.848 248.344 c 136.848 
248.016 136.965 247.746 137.199 247.531 c 137.434 247.32 138.039 
247.105 139.023 246.879 c 140.016 246.656 140.695 246.457 141.062 
246.293 c 141.594 246.051 141.984 245.738 142.234 245.355 c 142.496 
244.98 142.625 244.547 142.625 244.055 c 142.625 243.57 142.48 243.113 
142.199 242.68 c 141.922 242.246 141.523 241.91 141 241.668 c 140.473 
241.426 139.887 241.305 139.234 241.305 c 138.402 241.305 137.707 
241.426 137.148 241.668 c 136.59 241.918 136.148 242.285 135.824 
242.766 c 135.508 243.25 135.34 243.801 135.324 244.418 c h
146.609 241.469 m 146.609 249.555 l 143.586 249.555 l 143.586 250.629 l 
150.848 250.629 l 150.848 249.555 l 147.824 249.555 l 147.824 241.469 l 
146.609 241.469 l h
152.117 241.469 m 152.117 250.629 l 158.742 250.629 l 158.742 249.555 l 
153.328 249.555 l 153.328 246.742 l 158.406 246.742 l 158.406 245.668 l 
153.328 245.668 l 153.328 242.555 l 158.953 242.555 l 158.953 241.469 l 
152.117 241.469 l h
160.656 241.469 m 160.656 250.629 l 164.719 250.629 l 165.535 250.629 
166.156 250.547 166.578 250.379 c 167.004 250.223 167.344 249.934 
167.594 249.516 c 167.852 249.102 167.98 248.637 167.98 248.129 c 
167.98 247.48 167.766 246.93 167.344 246.48 c 166.926 246.039 166.277 
245.758 165.391 245.641 c 165.719 245.484 165.965 245.328 166.129 
245.18 c 166.48 244.855 166.812 244.449 167.129 243.969 c 168.73 
241.469 l 167.203 241.469 l 165.992 243.379 l 165.633 243.93 165.34 
244.352 165.105 244.641 c 164.879 244.934 164.676 245.137 164.492 
245.254 c 164.316 245.371 164.133 245.449 163.941 245.492 c 163.809 
245.523 163.582 245.543 163.266 245.543 c 161.867 245.543 l 161.867 
241.469 l 160.656 241.469 l h
161.867 246.594 m 164.469 246.594 l 165.027 246.594 165.457 246.645 
165.766 246.754 c 166.082 246.871 166.32 247.055 166.48 247.305 c 
166.645 247.562 166.73 247.836 166.73 248.129 c 166.73 248.562 166.57 
248.918 166.254 249.191 c 165.938 249.477 165.441 249.617 164.766 
249.617 c 161.867 249.617 l 161.867 246.594 l h
172.418 241.469 m 175.941 250.629 l 177.254 250.629 l 181.004 241.469 l 
179.617 241.469 l 178.555 244.242 l 174.719 244.242 l 173.719 241.469 l 
172.418 241.469 l h
175.066 245.23 m 178.18 245.23 l 177.219 247.766 l 176.926 248.543 
176.707 249.176 176.566 249.668 c 176.449 249.082 176.289 248.5 176.078 
247.918 c 175.066 245.23 l h
186.254 245.066 m 186.254 246.141 l 190.141 246.141 l 190.141 242.742 l 
189.543 242.266 188.926 241.91 188.293 241.668 c 187.66 241.426 187.008 
241.305 186.344 241.305 c 185.441 241.305 184.625 241.496 183.891 
241.879 c 183.16 242.27 182.605 242.828 182.23 243.555 c 181.855 
244.289 181.668 245.105 181.668 246.004 c 181.668 246.895 181.852 
247.73 182.219 248.504 c 182.594 249.281 183.129 249.855 183.828 250.23 
c 184.531 250.605 185.34 250.793 186.254 250.793 c 186.914 250.793 
187.508 250.684 188.043 250.469 c 188.582 250.25 189.004 249.949 
189.305 249.566 c 189.613 249.184 189.848 248.684 190.004 248.066 c 
188.906 247.766 l 188.77 248.234 188.602 248.602 188.391 248.867 c 
188.191 249.133 187.902 249.348 187.516 249.504 c 187.141 249.672 
186.723 249.754 186.254 249.754 c 185.703 249.754 185.227 249.668 
184.816 249.492 c 184.418 249.324 184.094 249.105 183.844 248.828 c 
183.594 248.555 183.402 248.254 183.266 247.93 c 183.035 247.363 
182.918 246.746 182.918 246.078 c 182.918 245.262 183.055 244.578 
183.328 244.031 c 183.613 243.48 184.02 243.07 184.555 242.805 c 
185.098 242.539 185.672 242.406 186.281 242.406 c 186.805 242.406 
187.316 242.504 187.816 242.703 c 188.316 242.914 188.695 243.129 
188.953 243.355 c 188.953 245.066 l 186.254 245.066 l h
191.949 241.469 m 191.949 250.629 l 198.574 250.629 l 198.574 249.555 l 
193.16 249.555 l 193.16 246.742 l 198.234 246.742 l 198.234 245.668 l 
193.16 245.668 l 193.16 242.555 l 198.785 242.555 l 198.785 241.469 l 
191.949 241.469 l h
200.449 241.469 m 200.449 250.629 l 201.699 250.629 l 206.512 243.441 l 
206.512 250.629 l 207.672 250.629 l 207.672 241.469 l 206.422 241.469 l 
201.609 248.668 l 201.609 241.469 l 200.449 241.469 l h
212.043 241.469 m 212.043 249.555 l 209.016 249.555 l 209.016 250.629 l 
216.281 250.629 l 216.281 249.555 l 213.254 249.555 l 213.254 241.469 l 
212.043 241.469 l h
212.043 241.469 m f
20.754 270.023 m 20.754 280.898 l 22.203 280.898 l 22.203 270.023 l 
20.754 270.023 l h
31.137 271.309 m 31.137 270.023 l 23.949 270.023 l 23.941 270.348 
23.992 270.656 24.102 270.949 c 24.281 271.438 24.574 271.922 24.977 
272.398 c 25.383 272.871 25.965 273.422 26.727 274.047 c 27.906 275.016 
28.707 275.781 29.125 276.348 c 29.543 276.914 29.75 277.453 29.75 
277.961 c 29.75 278.484 29.559 278.93 29.176 279.297 c 28.801 279.664 
28.309 279.848 27.699 279.848 c 27.059 279.848 26.543 279.652 26.148 
279.262 c 25.766 278.875 25.574 278.344 25.574 277.66 c 24.199 277.797 
l 24.293 278.824 24.645 279.602 25.262 280.137 c 25.879 280.676 26.703 
280.949 27.738 280.949 c 28.777 280.949 29.605 280.656 30.211 280.074 c 
30.82 279.496 31.125 278.781 31.125 277.922 c 31.125 277.488 31.031 
277.059 30.852 276.637 c 30.676 276.219 30.379 275.777 29.961 275.309 c 
29.555 274.852 28.871 274.215 27.914 273.398 c 27.113 272.723 26.594 
272.266 26.363 272.023 c 26.137 271.789 25.949 271.551 25.801 271.309 c 
31.137 271.309 l h
40.727 273.836 m 42.164 273.473 l 41.863 272.289 41.32 271.387 40.539 
270.762 c 39.754 270.145 38.797 269.836 37.664 269.836 c 36.488 269.836 
35.535 270.074 34.801 270.547 c 34.066 271.031 33.508 271.723 33.125 
272.621 c 32.742 273.531 32.551 274.508 32.551 275.547 c 32.551 276.68 
32.762 277.668 33.188 278.512 c 33.621 279.352 34.238 279.988 35.039 
280.422 c 35.84 280.863 36.719 281.086 37.676 281.086 c 38.766 281.086 
39.684 280.805 40.426 280.246 c 41.168 279.699 41.684 278.922 41.977 
277.922 c 40.562 277.586 l 40.312 278.375 39.945 278.953 39.465 279.309 
c 38.98 279.676 38.375 279.859 37.652 279.859 c 36.816 279.859 36.117 
279.66 35.551 279.262 c 34.992 278.859 34.598 278.32 34.363 277.637 c 
34.137 276.961 34.027 276.266 34.027 275.547 c 34.027 274.621 34.16 
273.812 34.426 273.121 c 34.699 272.438 35.121 271.926 35.688 271.586 c 
36.262 271.242 36.879 271.074 37.539 271.074 c 38.348 271.074 39.031 
271.301 39.59 271.762 c 40.145 272.227 40.527 272.918 40.727 273.836 c 
h
55.027 280.898 m 56.465 280.898 l 56.465 274.621 l 56.465 273.523 56.34 
272.652 56.09 272.012 c 55.848 271.367 55.402 270.844 54.75 270.434 c 
54.109 270.035 53.262 269.836 52.215 269.836 c 51.195 269.836 50.363 
270.012 49.715 270.359 c 49.062 270.711 48.602 271.219 48.324 271.887 c 
48.051 272.551 47.914 273.465 47.914 274.621 c 47.914 280.898 l 49.352 
280.898 l 49.352 274.621 l 49.352 273.68 49.438 272.984 49.613 272.535 
c 49.789 272.086 50.09 271.738 50.512 271.496 c 50.945 271.258 51.473 
271.137 52.09 271.137 c 53.145 271.137 53.902 271.371 54.352 271.848 c 
54.801 272.332 55.027 273.258 55.027 274.621 c 55.027 280.898 l h
61.777 270.023 m 57.555 280.898 l 59.117 280.898 l 61.941 272.996 l 
62.176 272.363 62.367 271.773 62.516 271.223 c 62.684 271.812 62.879 
272.406 63.105 272.996 c 66.043 280.898 l 67.516 280.898 l 63.254 
270.023 l 61.777 270.023 l h
76.383 273.836 m 77.82 273.473 l 77.52 272.289 76.98 271.387 76.195 
270.762 c 75.414 270.145 74.453 269.836 73.32 269.836 c 72.145 269.836 
71.191 270.074 70.457 270.547 c 69.727 271.031 69.168 271.723 68.785 
272.621 c 68.398 273.531 68.207 274.508 68.207 275.547 c 68.207 276.68 
68.422 277.668 68.848 278.512 c 69.281 279.352 69.895 279.988 70.695 
280.422 c 71.496 280.863 72.375 281.086 73.332 281.086 c 74.426 281.086 
75.344 280.805 76.082 280.246 c 76.824 279.699 77.344 278.922 77.633 
277.922 c 76.223 277.586 l 75.973 278.375 75.605 278.953 75.121 279.309 
c 74.637 279.676 74.035 279.859 73.309 279.859 c 72.477 279.859 71.773 
279.66 71.207 279.262 c 70.648 278.859 70.254 278.32 70.02 277.637 c 
69.797 276.961 69.684 276.266 69.684 275.547 c 69.684 274.621 69.816 
273.812 70.082 273.121 c 70.359 272.438 70.781 271.926 71.348 271.586 c 
71.922 271.242 72.539 271.074 73.195 271.074 c 74.004 271.074 74.688 
271.301 75.246 271.762 c 75.805 272.227 76.184 272.918 76.383 273.836 c 
h
76.383 273.836 m f
1 g
118.203 174 m 118.203 174 l 118.203 176.246 120.027 178.07 122.273 
178.07 c 122.273 178.07 l 123.352 178.07 124.387 177.641 125.152 
176.879 c 125.914 176.113 126.344 175.078 126.344 174 c 126.344 174 l 
126.344 171.754 124.52 169.93 122.273 169.93 c 122.273 169.93 l 120.027 
169.93 118.203 171.754 118.203 174 c h
118.203 174 m f
0 g
q 1 0 0 -1 0 299 cm
118.203 125 m 118.203 122.754 120.027 120.93 122.273 120.93 c 122.273 
120.93 l 123.352 120.93 124.387 121.359 125.152 122.121 c 125.914 
122.887 126.344 123.922 126.344 125 c 126.344 125 l 126.344 127.246 
124.52 129.07 122.273 129.07 c 122.273 129.07 l 120.027 129.07 118.203 
127.246 118.203 125 c h
118.203 125 m S Q
1 g
118.203 140.297 8.141 -8.137 re f
0 g
q 1 0 0 -1 0 299 cm
118.203 158.703 8.141 8.137 re S Q
q 1 0 0 -1 0 299 cm
122.273 166.84 m S Q
q 1 0 0 -1 0 299 cm
122.273 166.84 m S Q
1 g
217.992 120.652 m 224.266 126.926 l 230.539 120.652 l 224.266 114.375 l 
h
217.992 120.652 m f
0 g
q 1 0 0 -1 0 299 cm
217.992 178.348 m 224.266 172.074 l 230.539 178.348 l 224.266 184.625 l 
h
217.992 178.348 m S Q
1 g
241.844 120.652 m 248.117 126.926 l 254.391 120.652 l 248.117 114.375 l 
h
241.844 120.652 m f
0 g
q 1 0 0 -1 0 299 cm
241.844 178.348 m 248.117 172.074 l 254.391 178.348 l 248.117 184.625 l 
h
241.844 178.348 m S Q
q 1 0 0 -1 0 299 cm
230.531 178.348 m 241.844 178.348 l S Q
q 1 0 0 -1 0 299 cm
122.273 129.07 m 122.273 158.699 l S Q
118.203 110.648 8.141 -8.137 re f
q 1 0 0 -1 0 299 cm
118.203 188.352 8.141 8.137 re S Q
188.637 110.648 8.137 -8.137 re f
q 1 0 0 -1 0 299 cm
188.637 188.352 8.137 8.137 re S Q
1 0.898039 0.6 rg
122.273 16.215 m 99.949 38.539 l 111.109 38.539 l 111.109 78.578 l 
99.949 78.578 l 122.273 100.902 l 144.598 78.578 l 133.434 78.578 l 
133.434 38.539 l 144.598 38.539 l h
122.273 16.215 m f
0 g
q 1 0 0 -1 0 299 cm
122.273 282.785 m 99.949 260.461 l 111.109 260.461 l 111.109 220.422 l 
99.949 220.422 l 122.273 198.098 l 144.598 220.422 l 133.434 220.422 l 
133.434 260.461 l 144.598 260.461 l h
122.273 282.785 m S Q
q 1 0 0 -1 0 299 cm
129.262 204.629 m 187.613 204.629 l S Q
189.855 92.969 m 191.465 100.527 l 185.375 95.773 l h
189.855 92.969 m f*
0 j
q 1 0 0 -1 0 299 cm
189.855 206.031 m 191.465 198.473 l 185.375 203.227 l h
189.855 206.031 m S Q
1 0.85098 0.4 rg
148.824 76.352 110.262 -12.551 re f
0 g
1 j
q 1 0 0 -1 0 299 cm
148.824 222.648 110.262 12.551 re S Q
160.195 72.625 m 160.195 73.688 l 161.109 73.688 l 161.109 72.625 l 
160.195 72.625 l h
160.195 66.234 m 160.195 71.625 l 161.109 71.625 l 161.109 66.234 l 
160.195 66.234 l h
167.113 67.109 m 167.113 66.234 l 162.188 66.234 l 162.18 66.453 
162.219 66.664 162.301 66.875 c 162.426 67.207 162.625 67.535 162.902 
67.859 c 163.176 68.188 163.578 68.562 164.102 68.984 c 164.91 69.652 
165.457 70.18 165.738 70.562 c 166.023 70.953 166.164 71.32 166.164 
71.66 c 166.164 72.027 166.035 72.332 165.777 72.574 c 165.52 72.824 
165.18 72.949 164.766 72.949 c 164.324 72.949 163.969 72.816 163.703 
72.547 c 163.441 72.289 163.309 71.93 163.301 71.461 c 162.363 71.562 l 
162.43 72.262 162.672 72.793 163.09 73.16 c 163.504 73.527 164.066 
73.711 164.777 73.711 c 165.492 73.711 166.059 73.512 166.477 73.109 c 
166.895 72.719 167.102 72.23 167.102 71.648 c 167.102 71.348 167.039 
71.055 166.914 70.762 c 166.797 70.477 166.598 70.172 166.312 69.848 c 
166.031 69.531 165.559 69.098 164.902 68.547 c 164.352 68.09 163.996 
67.777 163.84 67.609 c 163.688 67.445 163.562 67.277 163.465 67.109 c 
167.113 67.109 l h
172.008 68.211 m 172.906 68.098 l 172.816 67.473 172.566 66.984 172.156 
66.637 c 171.75 66.285 171.254 66.109 170.668 66.109 c 169.926 66.109 
169.332 66.352 168.883 66.836 c 168.441 67.32 168.219 68.012 168.219 
68.91 c 168.219 69.496 168.316 70.004 168.508 70.438 c 168.699 70.879 
168.988 71.207 169.383 71.422 c 169.773 71.641 170.203 71.75 170.668 
71.75 c 171.254 71.75 171.73 71.598 172.105 71.297 c 172.48 71.008 
172.719 70.59 172.82 70.047 c 171.93 69.91 l 171.848 70.27 171.699 
70.539 171.48 70.723 c 171.273 70.906 171.016 71 170.707 71 c 170.25 71 
169.875 70.832 169.582 70.5 c 169.297 70.172 169.156 69.652 169.156 
68.938 c 169.156 68.211 169.293 67.684 169.57 67.348 c 169.844 67.023 
170.207 66.859 170.656 66.859 c 171.016 66.859 171.316 66.969 171.555 
67.188 c 171.797 67.41 171.949 67.754 172.008 68.211 c h
178.289 66.234 m 176.238 71.625 l 177.199 71.625 l 178.352 68.398 l 
178.477 68.047 178.59 67.688 178.699 67.312 c 178.785 67.594 178.895 
67.938 179.039 68.336 c 180.238 71.625 l 181.176 71.625 l 179.137 
66.234 l 178.289 66.234 l h
182.117 72.625 m 182.117 73.688 l 183.031 73.688 l 183.031 72.625 l 
182.117 72.625 l h
182.117 66.234 m 182.117 71.625 l 183.031 71.625 l 183.031 66.234 l 
182.117 66.234 l h
184.477 66.234 m 184.477 71.625 l 185.301 71.625 l 185.301 70.812 l 
185.508 71.195 185.699 71.445 185.875 71.562 c 186.059 71.688 186.254 
71.75 186.461 71.75 c 186.77 71.75 187.082 71.652 187.398 71.461 c 
187.086 70.609 l 186.863 70.746 186.641 70.812 186.426 70.812 c 186.227 
70.812 186.043 70.75 185.875 70.625 c 185.719 70.508 185.605 70.34 
185.539 70.125 c 185.438 69.797 185.387 69.445 185.387 69.062 c 185.387 
66.234 l 184.477 66.234 l h
190.039 67.047 m 190.164 66.25 l 189.906 66.191 189.676 66.16 189.477 
66.16 c 189.141 66.16 188.883 66.215 188.699 66.324 c 188.516 66.434 
188.387 66.57 188.312 66.734 c 188.238 66.91 188.199 67.27 188.199 
67.812 c 188.199 70.922 l 187.539 70.922 l 187.539 71.625 l 188.199 
71.625 l 188.199 72.961 l 189.113 73.512 l 189.113 71.625 l 190.039 
71.625 l 190.039 70.922 l 189.113 70.922 l 189.113 67.762 l 189.113 
67.504 189.129 67.336 189.164 67.262 c 189.195 67.188 189.246 67.129 
189.312 67.086 c 189.387 67.043 189.492 67.023 189.625 67.023 c 189.734 
67.023 189.871 67.031 190.039 67.047 c h
194.539 66.234 m 194.539 67.023 l 194.113 66.414 193.543 66.109 192.824 
66.109 c 192.508 66.109 192.211 66.172 191.926 66.297 c 191.652 66.422 
191.445 66.578 191.312 66.762 c 191.18 66.945 191.09 67.168 191.039 
67.438 c 190.996 67.609 190.977 67.895 190.977 68.285 c 190.977 71.625 
l 191.887 71.625 l 191.887 68.637 l 191.887 68.16 191.91 67.84 191.949 
67.672 c 192.008 67.434 192.129 67.242 192.312 67.098 c 192.496 66.965 
192.727 66.898 193 66.898 c 193.277 66.898 193.535 66.969 193.777 
67.109 c 194.016 67.254 194.188 67.445 194.289 67.688 c 194.387 67.93 
194.438 68.277 194.438 68.734 c 194.438 71.625 l 195.352 71.625 l 
195.352 66.234 l 194.539 66.234 l h
200.441 66.898 m 200.109 66.617 199.785 66.41 199.469 66.285 c 199.16 
66.168 198.828 66.109 198.469 66.109 c 197.867 66.109 197.41 66.258 
197.094 66.547 c 196.777 66.84 196.617 67.211 196.617 67.66 c 196.617 
67.918 196.676 68.156 196.793 68.375 c 196.918 68.598 197.078 68.777 
197.27 68.91 c 197.469 69.043 197.688 69.145 197.93 69.211 c 198.105 
69.254 198.375 69.297 198.742 69.348 c 199.477 69.434 200.02 69.535 
200.367 69.66 c 200.375 69.785 200.379 69.867 200.379 69.898 c 200.379 
70.273 200.293 70.535 200.117 70.688 c 199.887 70.895 199.539 71 
199.082 71 c 198.648 71 198.328 70.922 198.117 70.773 c 197.918 70.625 
197.77 70.355 197.668 69.973 c 196.781 70.086 l 196.855 70.469 196.984 
70.777 197.168 71.012 c 197.359 71.254 197.629 71.438 197.98 71.562 c 
198.34 71.688 198.746 71.75 199.207 71.75 c 199.672 71.75 200.047 
71.695 200.332 71.586 c 200.621 71.477 200.836 71.34 200.969 71.172 c 
201.102 71.016 201.199 70.812 201.254 70.562 c 201.281 70.402 201.293 
70.121 201.293 69.711 c 201.293 68.5 l 201.293 67.648 201.312 67.109 
201.355 66.887 c 201.398 66.66 201.473 66.445 201.582 66.234 c 200.629 
66.234 l 200.539 66.43 200.477 66.648 200.441 66.898 c h
200.367 68.949 m 200.035 68.809 199.539 68.691 198.879 68.598 c 198.504 
68.539 198.238 68.477 198.082 68.41 c 197.922 68.344 197.801 68.246 
197.719 68.109 c 197.637 67.984 197.594 67.844 197.594 67.688 c 197.594 
67.445 197.684 67.242 197.867 67.074 c 198.051 66.914 198.324 66.836 
198.68 66.836 c 199.031 66.836 199.344 66.91 199.617 67.062 c 199.895 
67.219 200.098 67.434 200.23 67.699 c 200.324 67.898 200.367 68.203 
200.367 68.609 c 200.367 68.949 l h
202.836 66.234 m 202.836 73.688 l 203.75 73.688 l 203.75 66.234 l 
202.836 66.234 l h
208.191 72.625 m 208.191 73.688 l 209.105 73.688 l 209.105 72.625 l 
208.191 72.625 l h
208.191 66.234 m 208.191 71.625 l 209.105 71.625 l 209.105 66.234 l 
208.191 66.234 l h
210.562 66.234 m 210.562 71.625 l 211.387 71.625 l 211.387 70.859 l 
211.777 71.453 212.348 71.75 213.098 71.75 c 213.422 71.75 213.719 
71.691 213.984 71.574 c 214.262 71.457 214.465 71.305 214.598 71.109 c 
214.738 70.93 214.836 70.703 214.887 70.438 c 214.918 70.27 214.938 
69.973 214.938 69.547 c 214.938 66.234 l 214.023 66.234 l 214.023 
69.512 l 214.023 69.887 213.984 70.164 213.91 70.348 c 213.844 70.531 
213.719 70.68 213.535 70.785 c 213.359 70.902 213.152 70.961 212.91 
70.961 c 212.52 70.961 212.184 70.836 211.898 70.586 c 211.613 70.344 
211.473 69.879 211.473 69.188 c 211.473 66.234 l 210.562 66.234 l h
218.492 67.047 m 218.617 66.25 l 218.359 66.191 218.129 66.16 217.93 
66.16 c 217.594 66.16 217.336 66.215 217.152 66.324 c 216.969 66.434 
216.84 66.57 216.766 66.734 c 216.691 66.91 216.652 67.27 216.652 
67.812 c 216.652 70.922 l 215.992 70.922 l 215.992 71.625 l 216.652 
71.625 l 216.652 72.961 l 217.566 73.512 l 217.566 71.625 l 218.492 
71.625 l 218.492 70.922 l 217.566 70.922 l 217.566 67.762 l 217.566 
67.504 217.582 67.336 217.617 67.262 c 217.648 67.188 217.699 67.129 
217.766 67.086 c 217.84 67.043 217.945 67.023 218.078 67.023 c 218.188 
67.023 218.324 67.031 218.492 67.047 c h
223.141 67.973 m 224.09 67.859 l 223.941 67.305 223.66 66.871 223.254 
66.562 c 222.852 66.262 222.34 66.109 221.715 66.109 c 220.926 66.109 
220.293 66.352 219.828 66.836 c 219.371 67.328 219.141 68.012 219.141 
68.887 c 219.141 69.793 219.375 70.5 219.84 71 c 220.316 71.5 220.926 
71.75 221.664 71.75 c 222.391 71.75 222.977 71.504 223.43 71.012 c 
223.887 70.52 224.117 69.832 224.117 68.949 c 224.117 68.699 l 220.09 
68.699 l 220.125 68.105 220.289 67.652 220.59 67.336 c 220.891 67.02 
221.266 66.859 221.715 66.859 c 222.059 66.859 222.344 66.949 222.578 
67.125 c 222.82 67.309 223.008 67.59 223.141 67.973 c h
220.141 69.449 m 223.152 69.449 l 223.113 69.906 222.996 70.25 222.805 
70.473 c 222.512 70.824 222.137 71 221.68 71 c 221.254 71 220.898 
70.855 220.617 70.574 c 220.332 70.297 220.176 69.922 220.141 69.449 c 
h
225.371 66.234 m 225.371 71.625 l 226.195 71.625 l 226.195 70.812 l 
226.402 71.195 226.598 71.445 226.77 71.562 c 226.953 71.688 227.148 
71.75 227.359 71.75 c 227.668 71.75 227.98 71.652 228.297 71.461 c 
227.984 70.609 l 227.758 70.746 227.539 70.812 227.32 70.812 c 227.121 
70.812 226.938 70.75 226.77 70.625 c 226.613 70.508 226.5 70.34 226.434 
70.125 c 226.332 69.797 226.285 69.445 226.285 69.062 c 226.285 66.234 
l 225.371 66.234 l h
229.145 66.234 m 229.145 70.922 l 228.348 70.922 l 228.348 71.625 l 
229.145 71.625 l 229.145 72.199 l 229.145 72.566 229.18 72.836 229.246 
73.012 c 229.34 73.246 229.492 73.438 229.707 73.586 c 229.934 73.734 
230.246 73.812 230.645 73.812 c 230.906 73.812 231.188 73.777 231.496 
73.711 c 231.359 72.922 l 231.168 72.957 230.988 72.973 230.82 72.973 c 
230.547 72.973 230.352 72.91 230.234 72.785 c 230.117 72.668 230.059 
72.449 230.059 72.125 c 230.059 71.625 l 231.109 71.625 l 231.109 
70.922 l 230.059 70.922 l 230.059 66.234 l 229.145 66.234 l h
235.41 66.898 m 235.074 66.617 234.75 66.41 234.434 66.285 c 234.125 
66.168 233.793 66.109 233.434 66.109 c 232.832 66.109 232.375 66.258 
232.059 66.547 c 231.742 66.84 231.582 67.211 231.582 67.66 c 231.582 
67.918 231.641 68.156 231.758 68.375 c 231.883 68.598 232.043 68.777 
232.234 68.91 c 232.434 69.043 232.656 69.145 232.895 69.211 c 233.07 
69.254 233.344 69.297 233.707 69.348 c 234.441 69.434 234.984 69.535 
235.332 69.66 c 235.344 69.785 235.348 69.867 235.348 69.898 c 235.348 
70.273 235.258 70.535 235.082 70.688 c 234.852 70.895 234.504 71 
234.047 71 c 233.613 71 233.293 70.922 233.082 70.773 c 232.883 70.625 
232.734 70.355 232.633 69.973 c 231.746 70.086 l 231.82 70.469 231.949 
70.777 232.133 71.012 c 232.324 71.254 232.598 71.438 232.945 71.562 c 
233.305 71.688 233.715 71.75 234.172 71.75 c 234.637 71.75 235.012 
71.695 235.297 71.586 c 235.59 71.477 235.801 71.34 235.934 71.172 c 
236.066 71.016 236.164 70.812 236.223 70.562 c 236.246 70.402 236.258 
70.121 236.258 69.711 c 236.258 68.5 l 236.258 67.648 236.281 67.109 
236.32 66.887 c 236.363 66.66 236.438 66.445 236.547 66.234 c 235.598 
66.234 l 235.504 66.43 235.441 66.648 235.41 66.898 c h
235.332 68.949 m 235 68.809 234.504 68.691 233.848 68.598 c 233.473 
68.539 233.203 68.477 233.047 68.41 c 232.887 68.344 232.766 68.246 
232.684 68.109 c 232.602 67.984 232.559 67.844 232.559 67.688 c 232.559 
67.445 232.652 67.242 232.832 67.074 c 233.016 66.914 233.289 66.836 
233.645 66.836 c 233.996 66.836 234.309 66.91 234.582 67.062 c 234.859 
67.219 235.062 67.434 235.195 67.699 c 235.289 67.898 235.332 68.203 
235.332 68.609 c 235.332 68.949 l h
241.34 68.211 m 242.238 68.098 l 242.148 67.473 241.898 66.984 241.488 
66.637 c 241.082 66.285 240.586 66.109 240 66.109 c 239.258 66.109 
238.664 66.352 238.215 66.836 c 237.773 67.32 237.551 68.012 237.551 
68.91 c 237.551 69.496 237.648 70.004 237.84 70.438 c 238.031 70.879 
238.32 71.207 238.715 71.422 c 239.105 71.641 239.535 71.75 240 71.75 c 
240.586 71.75 241.062 71.598 241.438 71.297 c 241.812 71.008 242.051 
70.59 242.152 70.047 c 241.266 69.91 l 241.18 70.27 241.031 70.539 
240.812 70.723 c 240.605 70.906 240.348 71 240.039 71 c 239.582 71 
239.207 70.832 238.914 70.5 c 238.629 70.172 238.488 69.652 238.488 
68.938 c 238.488 68.211 238.625 67.684 238.902 67.348 c 239.176 67.023 
239.539 66.859 239.988 66.859 c 240.348 66.859 240.648 66.969 240.891 
67.188 c 241.129 67.41 241.281 67.754 241.34 68.211 c h
246.844 67.973 m 247.797 67.859 l 247.645 67.305 247.367 66.871 246.957 
66.562 c 246.559 66.262 246.047 66.109 245.422 66.109 c 244.629 66.109 
244 66.352 243.531 66.836 c 243.074 67.328 242.844 68.012 242.844 
68.887 c 242.844 69.793 243.078 70.5 243.547 71 c 244.02 71.5 244.629 
71.75 245.371 71.75 c 246.094 71.75 246.684 71.504 247.133 71.012 c 
247.59 70.52 247.82 69.832 247.82 68.949 c 247.82 68.699 l 243.797 
68.699 l 243.828 68.105 243.996 67.652 244.297 67.336 c 244.594 67.02 
244.969 66.859 245.422 66.859 c 245.762 66.859 246.051 66.949 246.281 
67.125 c 246.523 67.309 246.711 67.59 246.844 67.973 c h
243.844 69.449 m 246.859 69.449 l 246.816 69.906 246.699 70.25 246.508 
70.473 c 246.215 70.824 245.84 71 245.383 71 c 244.957 71 244.602 
70.855 244.32 70.574 c 244.035 70.297 243.879 69.922 243.844 69.449 c h
243.844 69.449 m f
1 0.94902 0.8 rg
148.824 63.801 110.262 -12.547 re f
0 g
q 1 0 0 -1 0 299 cm
148.824 235.199 110.262 12.547 re S Q
197.762 55.301 m 198.664 55.438 l 198.715 55.078 198.855 54.801 199.09 
54.602 c 199.32 54.41 199.645 54.312 200.062 54.312 c 200.48 54.312 
200.789 54.395 200.988 54.562 c 201.195 54.738 201.301 54.941 201.301 
55.176 c 201.301 55.383 201.207 55.547 201.027 55.664 c 200.902 55.746 
200.59 55.852 200.09 55.977 c 199.422 56.141 198.957 56.289 198.699 
56.414 c 198.441 56.539 198.246 56.707 198.113 56.926 c 197.98 57.141 
197.914 57.383 197.914 57.652 c 197.914 57.891 197.969 58.113 198.074 
58.312 c 198.184 58.52 198.332 58.691 198.527 58.824 c 198.668 58.934 
198.859 59.02 199.102 59.09 c 199.352 59.164 199.617 59.199 199.902 
59.199 c 200.316 59.199 200.684 59.137 201 59.012 c 201.324 58.895 
201.562 58.734 201.715 58.527 c 201.871 58.316 201.98 58.039 202.039 
57.688 c 201.137 57.562 l 201.098 57.848 200.98 58.062 200.789 58.215 c 
200.598 58.371 200.32 58.449 199.965 58.449 c 199.547 58.449 199.246 
58.379 199.062 58.238 c 198.879 58.105 198.789 57.941 198.789 57.75 c 
198.789 57.633 198.824 57.531 198.902 57.438 c 198.977 57.34 199.094 
57.254 199.25 57.188 c 199.344 57.156 199.613 57.078 200.062 56.965 c 
200.715 56.789 201.164 56.645 201.414 56.539 c 201.672 56.43 201.871 
56.266 202.012 56.051 c 202.164 55.844 202.238 55.582 202.238 55.277 c 
202.238 54.969 202.145 54.68 201.965 54.414 c 201.789 54.145 201.535 
53.938 201.199 53.789 c 200.867 53.637 200.488 53.562 200.062 53.562 c 
199.363 53.562 198.828 53.707 198.465 54 c 198.098 54.293 197.863 
54.727 197.762 55.301 c h
206.969 55.664 m 207.871 55.551 l 207.777 54.926 207.527 54.438 207.121 
54.09 c 206.711 53.738 206.215 53.562 205.633 53.562 c 204.891 53.562 
204.293 53.805 203.844 54.289 c 203.402 54.77 203.184 55.465 203.184 
56.363 c 203.184 56.945 203.277 57.453 203.469 57.887 c 203.66 58.328 
203.953 58.66 204.344 58.875 c 204.734 59.094 205.164 59.199 205.633 
59.199 c 206.215 59.199 206.695 59.051 207.07 58.75 c 207.445 58.457 
207.684 58.043 207.781 57.5 c 206.895 57.363 l 206.812 57.723 206.66 
57.992 206.445 58.176 c 206.234 58.359 205.977 58.449 205.668 58.449 c 
205.211 58.449 204.836 58.285 204.543 57.949 c 204.262 57.625 204.121 
57.105 204.121 56.387 c 204.121 55.664 204.258 55.133 204.531 54.801 c 
204.809 54.477 205.168 54.312 205.621 54.312 c 205.977 54.312 206.277 
54.422 206.52 54.637 c 206.762 54.863 206.91 55.203 206.969 55.664 c h
208.762 53.688 m 208.762 61.137 l 209.676 61.137 l 209.676 53.688 l 
208.762 53.688 l h
208.762 53.688 m f
1 0.94902 0.8 rg
148.824 51.254 110.262 -12.547 re f
0 g
q 1 0 0 -1 0 299 cm
148.824 247.746 110.262 12.547 re S Q
195.684 42.754 m 196.582 42.891 l 196.633 42.531 196.773 42.254 197.008 
42.051 c 197.242 41.859 197.566 41.766 197.984 41.766 c 198.398 41.766 
198.707 41.848 198.906 42.016 c 199.117 42.191 199.219 42.395 199.219 
42.629 c 199.219 42.836 199.129 43 198.945 43.113 c 198.82 43.199 
198.508 43.301 198.008 43.426 c 197.34 43.594 196.879 43.738 196.621 
43.863 c 196.363 43.988 196.168 44.16 196.031 44.379 c 195.898 44.594 
195.832 44.836 195.832 45.102 c 195.832 45.344 195.887 45.566 195.996 
45.766 c 196.105 45.973 196.254 46.145 196.445 46.277 c 196.586 46.387 
196.777 46.473 197.02 46.539 c 197.27 46.613 197.539 46.652 197.82 
46.652 c 198.238 46.652 198.605 46.59 198.922 46.465 c 199.246 46.348 
199.484 46.188 199.633 45.977 c 199.793 45.77 199.898 45.488 199.957 
45.141 c 199.059 45.016 l 199.016 45.297 198.898 45.516 198.707 45.664 
c 198.516 45.824 198.242 45.902 197.883 45.902 c 197.465 45.902 197.168 
45.832 196.984 45.691 c 196.801 45.559 196.707 45.395 196.707 45.203 c 
196.707 45.086 196.746 44.98 196.82 44.891 c 196.895 44.789 197.012 
44.707 197.172 44.641 c 197.262 44.605 197.531 44.531 197.984 44.414 c 
198.633 44.238 199.082 44.098 199.332 43.988 c 199.59 43.883 199.793 
43.719 199.934 43.504 c 200.082 43.293 200.156 43.035 200.156 42.727 c 
200.156 42.418 200.066 42.133 199.883 41.863 c 199.707 41.598 199.453 
41.391 199.121 41.238 c 198.789 41.09 198.406 41.016 197.984 41.016 c 
197.281 41.016 196.75 41.16 196.383 41.453 c 196.016 41.746 195.781 
42.176 195.684 42.754 c h
204.875 41.141 m 204.875 41.816 l 204.535 41.281 204.031 41.016 203.363 
41.016 c 202.938 41.016 202.543 41.133 202.176 41.363 c 201.82 41.605 
201.539 41.941 201.34 42.363 c 201.141 42.789 201.039 43.277 201.039 
43.828 c 201.039 44.371 201.133 44.855 201.312 45.289 c 201.496 45.73 
201.77 46.07 202.125 46.301 c 202.484 46.535 202.887 46.652 203.328 
46.652 c 203.652 46.652 203.938 46.582 204.188 46.441 c 204.449 46.309 
204.656 46.133 204.812 45.914 c 204.812 48.59 l 205.727 48.59 l 205.727 
41.141 l 204.875 41.141 l h
201.988 43.828 m 201.988 43.137 202.133 42.621 202.414 42.277 c 202.707 
41.938 203.051 41.766 203.453 41.766 c 203.852 41.766 204.188 41.926 
204.465 42.254 c 204.746 42.586 204.891 43.086 204.891 43.754 c 204.891 
44.496 204.746 45.035 204.465 45.379 c 204.18 45.727 203.832 45.902 
203.414 45.902 c 203.008 45.902 202.664 45.734 202.391 45.402 c 202.121 
45.07 201.988 44.543 201.988 43.828 c h
210.82 41.801 m 210.484 41.52 210.16 41.316 209.844 41.191 c 209.535 
41.074 209.203 41.016 208.844 41.016 c 208.246 41.016 207.785 41.16 
207.469 41.453 c 207.152 41.746 206.996 42.113 206.996 42.566 c 206.996 
42.824 207.055 43.062 207.168 43.277 c 207.293 43.504 207.453 43.684 
207.645 43.816 c 207.844 43.949 208.066 44.047 208.309 44.113 c 208.48 
44.156 208.754 44.203 209.121 44.254 c 209.852 44.336 210.395 44.441 
210.746 44.566 c 210.754 44.691 210.758 44.77 210.758 44.801 c 210.758 
45.176 210.668 45.441 210.496 45.59 c 210.262 45.797 209.914 45.902 
209.457 45.902 c 209.023 45.902 208.703 45.828 208.496 45.676 c 208.293 
45.527 208.145 45.262 208.043 44.879 c 207.156 44.988 l 207.23 45.375 
207.359 45.684 207.543 45.914 c 207.734 46.156 208.008 46.34 208.355 
46.465 c 208.715 46.59 209.125 46.652 209.582 46.652 c 210.047 46.652 
210.422 46.598 210.707 46.488 c 211 46.383 211.211 46.246 211.344 
46.078 c 211.477 45.918 211.574 45.715 211.633 45.465 c 211.656 45.309 
211.668 45.023 211.668 44.613 c 211.668 43.402 l 211.668 42.551 211.691 
42.016 211.73 41.789 c 211.773 41.566 211.848 41.348 211.957 41.141 c 
211.008 41.141 l 210.914 41.332 210.852 41.551 210.82 41.801 c h
210.746 43.852 m 210.41 43.711 209.914 43.594 209.258 43.504 c 208.883 
43.445 208.617 43.383 208.457 43.316 c 208.297 43.25 208.18 43.148 
208.094 43.016 c 208.012 42.891 207.969 42.75 207.969 42.59 c 207.969 
42.348 208.062 42.145 208.246 41.977 c 208.43 41.82 208.699 41.738 
209.059 41.738 c 209.406 41.738 209.719 41.816 209.996 41.965 c 210.27 
42.125 210.473 42.336 210.605 42.602 c 210.699 42.801 210.746 43.105 
210.746 43.516 c 210.746 43.852 l h
210.746 43.852 m f
0.878431 0.4 0.4 rg
3.184 171.711 63.949 -12.551 re f
0 g
q 1 0 0 -1 0 299 cm
3.184 127.289 63.949 12.551 re S Q
16.727 167.23 m 16.727 167.879 l 17.289 167.879 l 17.289 167.23 l 
16.727 167.23 l h
16.727 163.293 m 16.727 166.617 l 17.289 166.617 l 17.289 163.293 l 
16.727 163.293 l h
20.949 163.828 m 20.949 163.293 l 17.926 163.293 l 17.918 163.426 
17.938 163.555 17.988 163.68 c 18.062 163.887 18.184 164.09 18.352 
164.293 c 18.523 164.492 18.77 164.727 19.086 164.992 c 19.586 165.398 
19.926 165.723 20.102 165.953 c 20.273 166.195 20.363 166.422 20.363 
166.629 c 20.363 166.855 20.285 167.043 20.125 167.191 c 19.969 167.352 
19.758 167.43 19.5 167.43 c 19.234 167.43 19.016 167.348 18.852 167.18 
c 18.691 167.02 18.609 166.797 18.602 166.504 c 18.023 166.566 l 18.066 
167 18.219 167.328 18.477 167.555 c 18.734 167.777 19.078 167.891 
19.512 167.891 c 19.953 167.891 20.301 167.77 20.551 167.527 c 20.809 
167.289 20.938 166.984 20.938 166.617 c 20.938 166.434 20.898 166.254 
20.824 166.078 c 20.75 165.902 20.625 165.715 20.449 165.516 c 20.285 
165.324 19.996 165.059 19.586 164.715 c 19.254 164.434 19.039 164.242 
18.938 164.141 c 18.848 164.043 18.766 163.938 18.699 163.828 c 20.949 
163.828 l h
23.871 164.504 m 24.422 164.441 l 24.363 164.059 24.211 163.758 23.961 
163.543 c 23.711 163.324 23.406 163.215 23.047 163.215 c 22.59 163.215 
22.223 163.363 21.945 163.652 c 21.672 163.953 21.535 164.383 21.535 
164.941 c 21.535 165.301 21.594 165.613 21.711 165.879 c 21.836 166.145 
22.02 166.348 22.258 166.48 c 22.5 166.621 22.766 166.691 23.047 
166.691 c 23.406 166.691 23.695 166.602 23.922 166.418 c 24.156 166.234 
24.305 165.977 24.371 165.641 c 23.82 165.555 l 23.773 165.777 23.68 
165.945 23.547 166.055 c 23.414 166.172 23.254 166.23 23.07 166.23 c 
22.789 166.23 22.555 166.125 22.371 165.918 c 22.195 165.715 22.109 
165.395 22.109 164.953 c 22.109 164.512 22.191 164.188 22.359 163.98 c 
22.535 163.777 22.758 163.68 23.035 163.68 c 23.258 163.68 23.441 
163.746 23.586 163.879 c 23.734 164.02 23.832 164.23 23.871 164.504 c h
24.383 162.016 m 24.383 162.43 l 28.121 162.43 l 28.121 162.016 l 
24.383 162.016 l h
28.242 164.277 m 28.793 164.367 l 28.828 164.148 28.914 163.98 29.055 
163.855 c 29.199 163.738 29.398 163.68 29.656 163.68 c 29.914 163.68 
30.105 163.73 30.23 163.828 c 30.355 163.938 30.418 164.062 30.418 
164.203 c 30.418 164.336 30.363 164.438 30.258 164.504 c 30.18 164.555 
29.988 164.621 29.68 164.703 c 29.266 164.805 28.977 164.891 28.82 
164.965 c 28.66 165.043 28.539 165.145 28.457 165.277 c 28.375 165.422 
28.332 165.57 28.332 165.73 c 28.332 165.879 28.363 166.016 28.43 
166.141 c 28.508 166.266 28.602 166.371 28.719 166.453 c 28.801 166.52 
28.918 166.574 29.07 166.617 c 29.219 166.668 29.383 166.691 29.555 
166.691 c 29.816 166.691 30.043 166.652 30.242 166.578 c 30.445 166.504 
30.59 166.398 30.68 166.266 c 30.773 166.141 30.836 165.973 30.867 
165.754 c 30.32 165.68 l 30.293 165.855 30.223 165.988 30.105 166.078 c 
29.988 166.18 29.82 166.23 29.594 166.23 c 29.336 166.23 29.152 166.184 
29.043 166.09 c 28.938 166.008 28.883 165.91 28.883 165.793 c 28.883 
165.727 28.902 165.664 28.945 165.605 c 28.992 165.539 29.07 165.488 
29.168 165.453 c 29.219 165.43 29.383 165.379 29.656 165.305 c 30.055 
165.195 30.336 165.109 30.492 165.043 c 30.652 164.977 30.773 164.875 
30.855 164.742 c 30.949 164.617 30.992 164.457 30.992 164.266 c 30.992 
164.082 30.941 163.91 30.832 163.742 c 30.723 163.574 30.566 163.445 
30.355 163.355 c 30.156 163.262 29.922 163.215 29.656 163.215 c 29.23 
163.215 28.902 163.305 28.668 163.48 c 28.445 163.664 28.301 163.93 
28.242 164.277 c h
33.945 164.367 m 34.52 164.293 l 34.426 163.949 34.258 163.684 34.008 
163.492 c 33.766 163.309 33.449 163.215 33.055 163.215 c 32.574 163.215 
32.191 163.367 31.906 163.668 c 31.625 163.965 31.48 164.387 31.48 
164.93 c 31.48 165.488 31.625 165.922 31.906 166.23 c 32.199 166.539 
32.574 166.691 33.031 166.691 c 33.473 166.691 33.836 166.539 34.117 
166.23 c 34.402 165.93 34.543 165.504 34.543 164.953 c 34.543 164.922 
34.539 164.871 34.531 164.805 c 32.055 164.805 l 32.082 164.445 32.188 
164.168 32.367 163.965 c 32.551 163.773 32.785 163.68 33.07 163.68 c 
33.27 163.68 33.441 163.734 33.582 163.84 c 33.73 163.949 33.852 
164.125 33.945 164.367 c h
32.094 165.266 m 33.945 165.266 l 33.918 165.551 33.848 165.762 33.73 
165.902 c 33.555 166.121 33.324 166.23 33.031 166.23 c 32.773 166.23 
32.555 166.141 32.383 165.965 c 32.207 165.793 32.109 165.559 32.094 
165.266 c h
37.34 162.016 m 37.34 163.641 l 37.258 163.523 37.137 163.426 36.977 
163.34 c 36.82 163.258 36.652 163.215 36.477 163.215 c 36.078 163.215 
35.738 163.375 35.453 163.691 c 35.172 164.008 35.027 164.438 35.027 
164.98 c 35.027 165.312 35.086 165.613 35.203 165.879 c 35.32 166.145 
35.488 166.348 35.703 166.48 c 35.93 166.621 36.172 166.691 36.43 
166.691 c 36.836 166.691 37.16 166.516 37.402 166.168 c 37.402 166.617 
l 37.902 166.617 l 37.902 162.016 l 37.34 162.016 l h
35.602 164.965 m 35.602 164.535 35.691 164.207 35.867 163.992 c 36.051 
163.785 36.266 163.68 36.516 163.68 c 36.758 163.68 36.965 163.777 
37.141 163.98 c 37.316 164.188 37.402 164.5 37.402 164.918 c 37.402 
165.359 37.312 165.688 37.129 165.902 c 36.945 166.129 36.727 166.242 
36.477 166.242 c 36.238 166.242 36.027 166.137 35.852 165.93 c 35.688 
165.723 35.602 165.398 35.602 164.965 c h
38.262 162.016 m 38.262 162.43 l 42 162.43 l 42 162.016 l 38.262 
162.016 l h
42.348 167.23 m 42.348 167.879 l 42.91 167.879 l 42.91 167.23 l 42.348 
167.23 l h
42.348 163.293 m 42.348 166.617 l 42.91 166.617 l 42.91 163.293 l 
42.348 163.293 l h
44.992 163.793 m 45.082 163.305 l 44.922 163.262 44.781 163.242 44.656 
163.242 c 44.449 163.242 44.285 163.273 44.168 163.34 c 44.062 163.41 
43.98 163.492 43.93 163.59 c 43.891 163.699 43.867 163.926 43.867 
164.266 c 43.867 166.18 l 43.457 166.18 l 43.457 166.617 l 43.867 
166.617 l 43.867 167.43 l 44.43 167.766 l 44.43 166.617 l 44.992 
166.617 l 44.992 166.18 l 44.43 166.18 l 44.43 164.23 l 44.43 164.07 
44.441 163.965 44.457 163.918 c 44.48 163.875 44.516 163.84 44.555 
163.816 c 44.598 163.793 44.66 163.777 44.742 163.777 c 44.812 163.777 
44.895 163.785 44.992 163.793 c h
47.82 164.367 m 48.398 164.293 l 48.305 163.949 48.133 163.684 47.883 
163.492 c 47.645 163.309 47.328 163.215 46.934 163.215 c 46.453 163.215 
46.066 163.367 45.785 163.668 c 45.5 163.965 45.359 164.387 45.359 
164.93 c 45.359 165.488 45.5 165.922 45.785 166.23 c 46.078 166.539 
46.453 166.691 46.91 166.691 c 47.352 166.691 47.715 166.539 47.996 
166.23 c 48.281 165.93 48.422 165.504 48.422 164.953 c 48.422 164.922 
48.418 164.871 48.41 164.805 c 45.934 164.805 l 45.961 164.445 46.062 
164.168 46.246 163.965 c 46.43 163.773 46.664 163.68 46.945 163.68 c 
47.148 163.68 47.316 163.734 47.461 163.84 c 47.609 163.949 47.73 
164.125 47.82 164.367 c h
45.973 165.266 m 47.82 165.266 l 47.797 165.551 47.727 165.762 47.609 
165.902 c 47.434 166.121 47.203 166.23 46.91 166.23 c 46.652 166.23 
46.434 166.141 46.258 165.965 c 46.086 165.793 45.988 165.559 45.973 
165.266 c h
49.105 163.293 m 49.105 166.617 l 49.605 166.617 l 49.605 166.141 l 
49.715 166.309 49.852 166.441 50.02 166.543 c 50.195 166.641 50.395 
166.691 50.617 166.691 c 50.859 166.691 51.062 166.637 51.219 166.527 c 
51.379 166.43 51.488 166.289 51.555 166.105 c 51.816 166.496 52.156 
166.691 52.582 166.691 c 52.906 166.691 53.156 166.602 53.332 166.418 c 
53.516 166.234 53.605 165.949 53.605 165.566 c 53.605 163.293 l 53.043 
163.293 l 53.043 165.379 l 53.043 165.605 53.023 165.766 52.98 165.867 
c 52.949 165.965 52.883 166.047 52.781 166.105 c 52.691 166.172 52.582 
166.203 52.457 166.203 c 52.223 166.203 52.027 166.125 51.867 165.965 c 
51.719 165.809 51.645 165.559 51.645 165.215 c 51.645 163.293 l 51.082 
163.293 l 51.082 165.453 l 51.082 165.703 51.035 165.891 50.945 166.016 
c 50.852 166.141 50.703 166.203 50.492 166.203 c 50.336 166.203 50.188 
166.164 50.043 166.078 c 49.91 165.996 49.816 165.871 49.758 165.703 c 
49.699 165.547 49.668 165.316 49.668 165.016 c 49.668 163.293 l 49.105 
163.293 l h
49.105 163.293 m f
0.956863 0.8 0.8 rg
3.184 159.16 63.949 -12.547 re f
0 g
q 1 0 0 -1 0 299 cm
3.184 139.84 63.949 12.547 re S Q
19.703 151.73 m 20.254 151.82 l 20.285 151.602 20.375 151.43 20.516 
151.305 c 20.656 151.191 20.859 151.133 21.117 151.133 c 21.375 151.133 
21.566 151.18 21.691 151.281 c 21.816 151.391 21.879 151.516 21.879 
151.656 c 21.879 151.789 21.824 151.891 21.715 151.957 c 21.641 152.008 
21.449 152.074 21.141 152.156 c 20.723 152.258 20.438 152.344 20.277 
152.418 c 20.121 152.492 20 152.598 19.914 152.73 c 19.832 152.871 
19.789 153.023 19.789 153.18 c 19.789 153.332 19.824 153.469 19.891 
153.594 c 19.965 153.719 20.062 153.824 20.18 153.906 c 20.262 153.973 
20.379 154.027 20.527 154.07 c 20.68 154.117 20.84 154.145 21.016 
154.145 c 21.273 154.145 21.504 154.105 21.703 154.031 c 21.902 153.957 
22.051 153.852 22.141 153.719 c 22.234 153.594 22.297 153.422 22.328 
153.207 c 21.777 153.133 l 21.754 153.305 21.684 153.441 21.566 153.531 
c 21.449 153.633 21.277 153.68 21.055 153.68 c 20.797 153.68 20.613 
153.637 20.504 153.543 c 20.395 153.461 20.34 153.359 20.34 153.242 c 
20.34 153.176 20.363 153.113 20.402 153.055 c 20.453 152.988 20.527 
152.941 20.629 152.906 c 20.68 152.883 20.84 152.832 21.117 152.758 c 
21.516 152.648 21.797 152.559 21.953 152.492 c 22.113 152.426 22.234 
152.328 22.316 152.195 c 22.406 152.07 22.453 151.91 22.453 151.719 c 
22.453 151.535 22.398 151.359 22.289 151.195 c 22.184 151.027 22.023 
150.898 21.816 150.805 c 21.617 150.715 21.383 150.668 21.117 150.668 c 
20.691 150.668 20.363 150.758 20.129 150.93 c 19.902 151.113 19.762 
151.383 19.703 151.73 c h
23.117 150.742 m 23.117 155.332 l 23.68 155.332 l 23.68 150.742 l 
23.117 150.742 l h
26.711 151.156 m 26.504 150.98 26.305 150.855 26.113 150.781 c 25.922 
150.707 25.711 150.668 25.488 150.668 c 25.129 150.668 24.852 150.758 
24.648 150.93 c 24.457 151.113 24.363 151.344 24.363 151.617 c 24.363 
151.785 24.395 151.934 24.461 152.07 c 24.539 152.203 24.633 152.305 
24.75 152.383 c 24.875 152.465 25.012 152.527 25.164 152.57 c 25.27 
152.602 25.438 152.633 25.664 152.656 c 26.121 152.715 26.453 152.781 
26.664 152.855 c 26.672 152.93 26.676 152.977 26.676 152.992 c 26.676 
153.227 26.621 153.391 26.512 153.48 c 26.371 153.605 26.16 153.668 
25.875 153.668 c 25.609 153.668 25.414 153.621 25.289 153.531 c 25.164 
153.441 25.066 153.277 25 153.043 c 24.449 153.117 l 24.5 153.352 
24.582 153.539 24.699 153.68 c 24.816 153.832 24.984 153.945 25.199 
154.02 c 25.418 154.102 25.668 154.145 25.949 154.145 c 26.234 154.145 
26.461 154.109 26.637 154.043 c 26.82 153.977 26.953 153.891 27.039 
153.781 c 27.121 153.68 27.18 153.555 27.211 153.406 c 27.23 153.305 
27.238 153.133 27.238 152.883 c 27.238 152.133 l 27.238 151.613 27.25 
151.285 27.273 151.145 c 27.301 151.004 27.348 150.867 27.414 150.742 c 
26.824 150.742 l 26.766 150.859 26.73 150.996 26.711 151.156 c h
26.664 152.406 m 26.461 152.324 26.16 152.254 25.75 152.195 c 25.516 
152.16 25.352 152.121 25.25 152.082 c 25.16 152.039 25.086 151.977 
25.039 151.895 c 24.988 151.82 24.961 151.73 24.961 151.633 c 24.961 
151.48 25.016 151.355 25.125 151.258 c 25.242 151.156 25.41 151.105 
25.625 151.105 c 25.844 151.105 26.035 151.152 26.199 151.242 c 26.375 
151.344 26.5 151.477 26.574 151.645 c 26.633 151.77 26.664 151.957 
26.664 152.207 c 26.664 152.406 l h
29.035 150.742 m 27.773 154.07 l 28.359 154.07 l 29.07 152.082 l 29.148 
151.863 29.219 151.641 29.285 151.406 c 29.336 151.582 29.406 151.793 
29.496 152.043 c 30.234 154.07 l 30.809 154.07 l 29.559 150.742 l 
29.035 150.742 l h
33.586 151.82 m 34.16 151.742 l 34.066 151.402 33.898 151.137 33.648 
150.945 c 33.406 150.762 33.09 150.668 32.695 150.668 c 32.215 150.668 
31.832 150.82 31.547 151.117 c 31.266 151.418 31.121 151.84 31.121 
152.383 c 31.121 152.941 31.266 153.371 31.547 153.68 c 31.84 153.988 
32.215 154.145 32.672 154.145 c 33.113 154.145 33.477 153.988 33.758 
153.68 c 34.043 153.383 34.184 152.957 34.184 152.406 c 34.184 152.371 
34.18 152.324 34.172 152.258 c 31.695 152.258 l 31.723 151.898 31.828 
151.617 32.008 151.418 c 32.191 151.227 32.426 151.133 32.711 151.133 c 
32.91 151.133 33.082 151.184 33.223 151.293 c 33.371 151.402 33.492 
151.578 33.586 151.82 c h
31.734 152.719 m 33.586 152.719 l 33.559 153.004 33.488 153.215 33.371 
153.355 c 33.195 153.574 32.965 153.68 32.672 153.68 c 32.414 153.68 
32.195 153.594 32.023 153.418 c 31.848 153.242 31.75 153.012 31.734 
152.719 c h
34.344 149.469 m 34.344 149.883 l 38.082 149.883 l 38.082 149.469 l 
34.344 149.469 l h
40.59 151.156 m 40.383 150.98 40.184 150.855 39.992 150.781 c 39.801 
150.707 39.59 150.668 39.367 150.668 c 39.008 150.668 38.727 150.758 
38.527 150.93 c 38.336 151.113 38.242 151.344 38.242 151.617 c 38.242 
151.785 38.273 151.934 38.34 152.07 c 38.414 152.203 38.512 152.305 
38.629 152.383 c 38.754 152.465 38.891 152.527 39.039 152.57 c 39.148 
152.602 39.316 152.633 39.539 152.656 c 40 152.715 40.332 152.781 
40.539 152.855 c 40.551 152.93 40.555 152.977 40.555 152.992 c 40.555 
153.227 40.5 153.391 40.391 153.48 c 40.25 153.605 40.035 153.668 
39.754 153.668 c 39.488 153.668 39.289 153.621 39.164 153.531 c 39.039 
153.441 38.945 153.277 38.879 153.043 c 38.328 153.117 l 38.379 153.352 
38.461 153.539 38.578 153.68 c 38.695 153.832 38.863 153.945 39.078 
154.02 c 39.297 154.102 39.547 154.145 39.828 154.145 c 40.113 154.145 
40.34 154.109 40.516 154.043 c 40.699 153.977 40.832 153.891 40.914 
153.781 c 41 153.68 41.059 153.555 41.09 153.406 c 41.109 153.305 
41.117 153.133 41.117 152.883 c 41.117 152.133 l 41.117 151.613 41.129 
151.285 41.152 151.145 c 41.18 151.004 41.223 150.867 41.289 150.742 c 
40.703 150.742 l 40.645 150.859 40.609 150.996 40.59 151.156 c h
40.539 152.406 m 40.34 152.324 40.035 152.254 39.629 152.195 c 39.395 
152.16 39.227 152.121 39.129 152.082 c 39.035 152.039 38.965 151.977 
38.914 151.895 c 38.867 151.82 38.84 151.73 38.84 151.633 c 38.84 
151.48 38.895 151.355 39.004 151.258 c 39.121 151.156 39.285 151.105 
39.504 151.105 c 39.719 151.105 39.91 151.152 40.078 151.242 c 40.254 
151.344 40.379 151.477 40.453 151.645 c 40.512 151.77 40.539 151.957 
40.539 152.207 c 40.539 152.406 l h
44.137 150.742 m 44.137 151.168 l 43.93 150.836 43.621 150.668 43.211 
150.668 c 42.945 150.668 42.699 150.738 42.477 150.883 c 42.258 151.031 
42.086 151.234 41.961 151.492 c 41.848 151.762 41.789 152.066 41.789 
152.406 c 41.789 152.73 41.844 153.027 41.949 153.293 c 42.059 153.57 
42.223 153.777 42.438 153.918 c 42.664 154.07 42.914 154.145 43.188 
154.145 c 43.387 154.145 43.562 154.098 43.711 154.008 c 43.871 153.922 
44 153.816 44.102 153.68 c 44.102 155.332 l 44.664 155.332 l 44.664 
150.742 l 44.137 150.742 l h
42.363 152.406 m 42.363 151.98 42.449 151.66 42.625 151.445 c 42.809 
151.234 43.02 151.133 43.262 151.133 c 43.512 151.133 43.723 151.23 
43.887 151.43 c 44.062 151.633 44.148 151.941 44.148 152.355 c 44.148 
152.805 44.062 153.137 43.887 153.344 c 43.711 153.559 43.496 153.668 
43.238 153.668 c 42.988 153.668 42.781 153.566 42.613 153.355 c 42.445 
153.156 42.363 152.84 42.363 152.406 c h
47.695 150.742 m 47.695 151.168 l 47.488 150.836 47.18 150.668 46.773 
150.668 c 46.504 150.668 46.258 150.738 46.035 150.883 c 45.816 151.031 
45.648 151.234 45.523 151.492 c 45.406 151.762 45.348 152.066 45.348 
152.406 c 45.348 152.73 45.402 153.027 45.508 153.293 c 45.617 153.57 
45.781 153.777 45.996 153.918 c 46.223 154.07 46.473 154.145 46.746 
154.145 c 46.945 154.145 47.121 154.098 47.273 154.008 c 47.43 153.922 
47.559 153.816 47.66 153.68 c 47.66 155.332 l 48.223 155.332 l 48.223 
150.742 l 47.695 150.742 l h
45.922 152.406 m 45.922 151.98 46.008 151.66 46.184 151.445 c 46.367 
151.234 46.582 151.133 46.82 151.133 c 47.07 151.133 47.281 151.23 
47.445 151.43 c 47.621 151.633 47.711 151.941 47.711 152.355 c 47.711 
152.805 47.621 153.137 47.445 153.344 c 47.273 153.559 47.055 153.668 
46.797 153.668 c 46.547 153.668 46.34 153.566 46.172 153.355 c 46.004 
153.156 45.922 152.84 45.922 152.406 c h
49.094 150.742 m 49.094 154.07 l 49.605 154.07 l 49.605 153.555 l 49.73 
153.797 49.848 153.957 49.957 154.031 c 50.074 154.105 50.195 154.145 
50.32 154.145 c 50.512 154.145 50.707 154.082 50.906 153.957 c 50.707 
153.43 l 50.574 153.516 50.438 153.555 50.293 153.555 c 50.168 153.555 
50.055 153.52 49.957 153.445 c 49.863 153.367 49.797 153.27 49.758 
153.145 c 49.691 152.945 49.656 152.723 49.656 152.48 c 49.656 150.742 
l 49.094 150.742 l h
49.094 150.742 m f
0.956863 0.8 0.8 rg
3.184 146.613 63.949 -12.547 re f
0 g
q 1 0 0 -1 0 299 cm
3.184 152.387 63.949 12.547 re S Q
31.34 138.609 m 31.133 138.434 30.934 138.309 30.742 138.234 c 30.551 
138.156 30.34 138.121 30.117 138.121 c 29.758 138.121 29.477 138.207 
29.277 138.383 c 29.086 138.566 28.992 138.797 28.992 139.07 c 28.992 
139.238 29.023 139.387 29.09 139.52 c 29.164 139.652 29.262 139.758 
29.379 139.832 c 29.504 139.918 29.641 139.98 29.789 140.02 c 29.898 
140.055 30.066 140.082 30.289 140.109 c 30.75 140.168 31.082 140.234 
31.289 140.309 c 31.301 140.383 31.305 140.43 31.305 140.445 c 31.305 
140.68 31.25 140.84 31.141 140.934 c 31 141.059 30.785 141.121 30.504 
141.121 c 30.238 141.121 30.039 141.074 29.914 140.984 c 29.789 140.891 
29.695 140.73 29.629 140.496 c 29.078 140.57 l 29.129 140.805 29.211 
140.992 29.328 141.133 c 29.445 141.281 29.613 141.395 29.828 141.469 c 
30.047 141.555 30.297 141.594 30.578 141.594 c 30.863 141.594 31.09 
141.562 31.266 141.496 c 31.449 141.43 31.582 141.34 31.664 141.234 c 
31.75 141.133 31.809 141.008 31.84 140.859 c 31.859 140.758 31.867 
140.582 31.867 140.332 c 31.867 139.582 l 31.867 139.066 31.879 138.738 
31.902 138.594 c 31.93 138.453 31.973 138.32 32.039 138.195 c 31.453 
138.195 l 31.395 138.312 31.359 138.449 31.34 138.609 c h
31.289 139.859 m 31.09 139.773 30.785 139.703 30.379 139.645 c 30.145 
139.613 29.977 139.574 29.879 139.531 c 29.785 139.492 29.715 139.43 
29.664 139.344 c 29.617 139.27 29.59 139.184 29.59 139.082 c 29.59 
138.934 29.645 138.809 29.754 138.707 c 29.871 138.609 30.035 138.559 
30.254 138.559 c 30.469 138.559 30.66 138.605 30.828 138.695 c 31.004 
138.797 31.129 138.93 31.203 139.094 c 31.262 139.219 31.289 139.406 
31.289 139.656 c 31.289 139.859 l h
34.887 138.195 m 34.887 138.621 l 34.68 138.289 34.371 138.121 33.961 
138.121 c 33.695 138.121 33.449 138.191 33.227 138.332 c 33.008 138.484 
32.836 138.688 32.711 138.945 c 32.598 139.211 32.539 139.516 32.539 
139.859 c 32.539 140.184 32.594 140.48 32.699 140.746 c 32.809 141.02 
32.973 141.23 33.188 141.371 c 33.414 141.52 33.664 141.594 33.938 
141.594 c 34.137 141.594 34.312 141.551 34.461 141.457 c 34.621 141.375 
34.75 141.266 34.852 141.133 c 34.852 142.781 l 35.414 142.781 l 35.414 
138.195 l 34.887 138.195 l h
33.113 139.859 m 33.113 139.434 33.199 139.113 33.375 138.895 c 33.559 
138.688 33.77 138.582 34.012 138.582 c 34.262 138.582 34.473 138.684 
34.637 138.883 c 34.812 139.082 34.898 139.391 34.898 139.809 c 34.898 
140.258 34.812 140.586 34.637 140.797 c 34.461 141.012 34.246 141.121 
33.988 141.121 c 33.738 141.121 33.531 141.016 33.363 140.809 c 33.195 
140.609 33.113 140.293 33.113 139.859 c h
38.445 138.195 m 38.445 138.621 l 38.238 138.289 37.93 138.121 37.523 
138.121 c 37.254 138.121 37.008 138.191 36.785 138.332 c 36.566 138.484 
36.398 138.688 36.273 138.945 c 36.156 139.211 36.098 139.516 36.098 
139.859 c 36.098 140.184 36.152 140.48 36.258 140.746 c 36.367 141.02 
36.531 141.23 36.746 141.371 c 36.973 141.52 37.223 141.594 37.496 
141.594 c 37.695 141.594 37.871 141.551 38.023 141.457 c 38.18 141.375 
38.309 141.266 38.41 141.133 c 38.41 142.781 l 38.973 142.781 l 38.973 
138.195 l 38.445 138.195 l h
36.672 139.859 m 36.672 139.434 36.758 139.113 36.934 138.895 c 37.117 
138.688 37.332 138.582 37.57 138.582 c 37.82 138.582 38.031 138.684 
38.195 138.883 c 38.371 139.082 38.461 139.391 38.461 139.809 c 38.461 
140.258 38.371 140.586 38.195 140.797 c 38.023 141.012 37.805 141.121 
37.547 141.121 c 37.297 141.121 37.09 141.016 36.922 140.809 c 36.754 
140.609 36.672 140.293 36.672 139.859 c h
39.844 138.195 m 39.844 141.52 l 40.355 141.52 l 40.355 141.008 l 40.48 
141.25 40.598 141.406 40.707 141.484 c 40.824 141.559 40.945 141.594 
41.07 141.594 c 41.262 141.594 41.457 141.531 41.656 141.406 c 41.457 
140.883 l 41.324 140.965 41.188 141.008 41.043 141.008 c 40.918 141.008 
40.805 140.969 40.707 140.895 c 40.613 140.82 40.547 140.719 40.508 
140.594 c 40.441 140.395 40.406 140.176 40.406 139.934 c 40.406 138.195 
l 39.844 138.195 l h
39.844 138.195 m f
0.956863 0.8 0.8 rg
3.184 134.066 63.949 -12.547 re f
0 g
q 1 0 0 -1 0 299 cm
3.184 164.934 63.949 12.547 re S Q
31.504 125.648 m 31.504 126.074 l 31.297 125.738 30.988 125.574 30.578 
125.574 c 30.312 125.574 30.066 125.645 29.844 125.785 c 29.625 125.934 
29.453 126.141 29.328 126.398 c 29.215 126.664 29.156 126.969 29.156 
127.309 c 29.156 127.637 29.211 127.93 29.316 128.199 c 29.426 128.473 
29.59 128.68 29.805 128.824 c 30.031 128.973 30.281 129.047 30.555 
129.047 c 30.754 129.047 30.93 129 31.078 128.91 c 31.238 128.828 
31.367 128.719 31.469 128.586 c 31.469 130.234 l 32.031 130.234 l 
32.031 125.648 l 31.504 125.648 l h
29.73 127.309 m 29.73 126.887 29.816 126.562 29.992 126.348 c 30.176 
126.141 30.387 126.035 30.629 126.035 c 30.879 126.035 31.09 126.137 
31.254 126.336 c 31.43 126.535 31.516 126.844 31.516 127.262 c 31.516 
127.711 31.43 128.039 31.254 128.246 c 31.078 128.465 30.863 128.574 
30.605 128.574 c 30.355 128.574 30.148 128.469 29.98 128.262 c 29.812 
128.059 29.73 127.742 29.73 127.309 c h
35.078 126.059 m 34.867 125.887 34.668 125.762 34.477 125.684 c 34.285 
125.609 34.078 125.574 33.852 125.574 c 33.492 125.574 33.215 125.66 
33.016 125.836 c 32.824 126.02 32.727 126.246 32.727 126.523 c 32.727 
126.688 32.762 126.84 32.828 126.973 c 32.902 127.105 32.996 127.211 
33.113 127.285 c 33.238 127.367 33.375 127.43 33.527 127.473 c 33.637 
127.508 33.801 127.535 34.027 127.559 c 34.484 127.617 34.82 127.684 
35.027 127.762 c 35.035 127.836 35.039 127.883 35.039 127.898 c 35.039 
128.133 34.984 128.293 34.875 128.387 c 34.734 128.512 34.523 128.574 
34.238 128.574 c 33.973 128.574 33.777 128.527 33.652 128.434 c 33.527 
128.344 33.43 128.18 33.363 127.949 c 32.812 128.023 l 32.863 128.258 
32.949 128.445 33.062 128.586 c 33.18 128.734 33.348 128.848 33.562 
128.922 c 33.781 129.008 34.031 129.047 34.312 129.047 c 34.598 129.047 
34.828 129.016 35 128.949 c 35.184 128.883 35.32 128.793 35.402 128.684 
c 35.484 128.586 35.543 128.461 35.578 128.309 c 35.594 128.211 35.602 
128.035 35.602 127.785 c 35.602 127.035 l 35.602 126.52 35.613 126.188 
35.641 126.047 c 35.664 125.906 35.711 125.773 35.777 125.648 c 35.188 
125.648 l 35.133 125.766 35.094 125.902 35.078 126.059 c h
35.027 127.309 m 34.828 127.227 34.523 127.156 34.113 127.098 c 33.883 
127.062 33.715 127.027 33.613 126.984 c 33.523 126.945 33.453 126.883 
33.402 126.797 c 33.352 126.723 33.328 126.637 33.328 126.535 c 33.328 
126.387 33.383 126.262 33.488 126.16 c 33.605 126.059 33.773 126.012 
33.988 126.012 c 34.207 126.012 34.398 126.055 34.562 126.148 c 34.738 
126.246 34.863 126.383 34.938 126.547 c 34.996 126.672 35.027 126.859 
35.027 127.109 c 35.027 127.309 l h
37.699 126.148 m 37.785 125.66 l 37.629 125.617 37.484 125.598 37.359 
125.598 c 37.152 125.598 36.992 125.633 36.875 125.699 c 36.766 125.766 
36.688 125.848 36.637 125.949 c 36.594 126.055 36.574 126.281 36.574 
126.621 c 36.574 128.535 l 36.16 128.535 l 36.16 128.973 l 36.574 
128.973 l 36.574 129.785 l 37.137 130.121 l 37.137 128.973 l 37.699 
128.973 l 37.699 128.535 l 37.137 128.535 l 37.137 126.586 l 37.137 
126.426 37.145 126.324 37.16 126.273 c 37.188 126.23 37.219 126.199 
37.262 126.172 c 37.305 126.148 37.367 126.137 37.449 126.137 c 37.516 
126.137 37.598 126.141 37.699 126.148 c h
40.414 126.059 m 40.207 125.887 40.008 125.762 39.812 125.684 c 39.621 
125.609 39.414 125.574 39.188 125.574 c 38.832 125.574 38.551 125.66 
38.352 125.836 c 38.16 126.02 38.062 126.246 38.062 126.523 c 38.062 
126.688 38.098 126.84 38.164 126.973 c 38.238 127.105 38.336 127.211 
38.453 127.285 c 38.578 127.367 38.715 127.43 38.863 127.473 c 38.973 
127.508 39.141 127.535 39.363 127.559 c 39.824 127.617 40.156 127.684 
40.363 127.762 c 40.371 127.836 40.375 127.883 40.375 127.898 c 40.375 
128.133 40.324 128.293 40.215 128.387 c 40.074 128.512 39.859 128.574 
39.578 128.574 c 39.309 128.574 39.113 128.527 38.988 128.434 c 38.863 
128.344 38.77 128.18 38.703 127.949 c 38.152 128.023 l 38.203 128.258 
38.285 128.445 38.402 128.586 c 38.52 128.734 38.684 128.848 38.902 
128.922 c 39.117 129.008 39.367 129.047 39.652 129.047 c 39.934 129.047 
40.164 129.016 40.34 128.949 c 40.523 128.883 40.656 128.793 40.738 
128.684 c 40.824 128.586 40.883 128.461 40.914 128.309 c 40.93 128.211 
40.938 128.035 40.938 127.785 c 40.938 127.035 l 40.938 126.52 40.953 
126.188 40.977 126.047 c 41 125.906 41.047 125.773 41.113 125.648 c 
40.527 125.648 l 40.469 125.766 40.43 125.902 40.414 126.059 c h
40.363 127.309 m 40.164 127.227 39.859 127.156 39.453 127.098 c 39.219 
127.062 39.051 127.027 38.953 126.984 c 38.859 126.945 38.789 126.883 
38.738 126.797 c 38.688 126.723 38.664 126.637 38.664 126.535 c 38.664 
126.387 38.719 126.262 38.828 126.16 c 38.945 126.059 39.109 126.012 
39.328 126.012 c 39.543 126.012 39.734 126.055 39.902 126.148 c 40.078 
126.246 40.203 126.383 40.277 126.547 c 40.336 126.672 40.363 126.859 
40.363 127.109 c 40.363 127.309 l h
40.363 127.309 m f
0.956863 0.8 0.8 rg
3.184 121.52 63.949 -12.551 re f
0 g
q 1 0 0 -1 0 299 cm
3.184 177.48 63.949 12.551 re S Q
29.438 113.098 m 28.426 116.426 l 29 116.426 l 29.527 114.5 l 29.727 
113.785 l 29.734 113.828 29.793 114.059 29.902 114.473 c 30.426 116.426 
l 31 116.426 l 31.5 114.5 l 31.664 113.863 l 31.863 114.5 l 32.426 
116.426 l 32.977 116.426 l 31.938 113.098 l 31.352 113.098 l 30.828 
115.086 l 30.703 115.648 l 30.027 113.098 l 29.438 113.098 l h
33.438 113.098 m 33.438 116.426 l 33.949 116.426 l 33.949 115.91 l 
34.074 116.152 34.191 116.312 34.297 116.387 c 34.414 116.461 34.535 
116.5 34.66 116.5 c 34.852 116.5 35.047 116.438 35.25 116.312 c 35.047 
115.785 l 34.914 115.871 34.777 115.91 34.637 115.91 c 34.512 115.91 
34.398 115.875 34.297 115.801 c 34.207 115.723 34.141 115.625 34.098 
115.5 c 34.031 115.301 34 115.078 34 114.836 c 34 113.098 l 33.438 
113.098 l h
35.578 117.035 m 35.578 117.688 l 36.141 117.688 l 36.141 117.035 l 
35.578 117.035 l h
35.578 113.098 m 35.578 116.426 l 36.141 116.426 l 36.141 113.098 l 
35.578 113.098 l h
38.227 113.598 m 38.312 113.113 l 38.156 113.07 38.016 113.051 37.891 
113.051 c 37.68 113.051 37.52 113.082 37.402 113.148 c 37.293 113.215 
37.215 113.301 37.164 113.398 c 37.121 113.508 37.102 113.734 37.102 
114.074 c 37.102 115.988 l 36.688 115.988 l 36.688 116.426 l 37.102 
116.426 l 37.102 117.238 l 37.664 117.574 l 37.664 116.426 l 38.227 
116.426 l 38.227 115.988 l 37.664 115.988 l 37.664 114.035 l 37.664 
113.879 37.672 113.773 37.688 113.723 c 37.715 113.684 37.746 113.648 
37.789 113.625 c 37.832 113.598 37.895 113.586 37.977 113.586 c 38.043 
113.586 38.125 113.59 38.227 113.598 c h
41.055 114.176 m 41.629 114.098 l 41.539 113.758 41.367 113.492 41.117 
113.301 c 40.875 113.117 40.559 113.023 40.168 113.023 c 39.684 113.023 
39.301 113.176 39.016 113.473 c 38.734 113.773 38.594 114.195 38.594 
114.738 c 38.594 115.297 38.734 115.73 39.016 116.035 c 39.309 116.344 
39.684 116.5 40.141 116.5 c 40.586 116.5 40.945 116.344 41.23 116.035 c 
41.512 115.738 41.656 115.312 41.656 114.762 c 41.656 114.73 41.652 
114.68 41.641 114.613 c 39.168 114.613 l 39.191 114.254 39.297 113.973 
39.48 113.773 c 39.664 113.582 39.898 113.488 40.18 113.488 c 40.379 
113.488 40.551 113.543 40.691 113.648 c 40.844 113.758 40.965 113.934 
41.055 114.176 c h
39.203 115.074 m 41.055 115.074 l 41.031 115.359 40.961 115.57 40.844 
115.711 c 40.668 115.93 40.434 116.035 40.141 116.035 c 39.883 116.035 
39.668 115.949 39.492 115.773 c 39.316 115.598 39.223 115.367 39.203 
115.074 c h
39.203 115.074 m f
[ 1.6 4.8] 0 d
q 1 0 0 -1 0 299 cm
67.133 158.66 m 122.793 143.668 l S Q
Q q
0 299 m 320.801 299 l 320.801 0.602 l 0 0.602 l 0 299 l h
0 299 m W n
  Q
Q
Q q
Q
showpage
%%Trailer
count op_count sub {pop} repeat
countdictstack dict_count sub {end} repeat
cairo_eps_state restore
%%EOF
