%!PS-Adobe-3.0 EPSF-3.0
%%Creator: cairo 1.8.8 (http://cairographics.org)
%%CreationDate: Mon Apr 27 14:29:20 2015
%%Pages: 1
%%BoundingBox: 0 0 754 333
%%DocumentData: Clean7Bit
%%LanguageLevel: 2
%%EndComments
%%BeginProlog
/cairo_eps_state save def
/dict_count countdictstack def
/op_count count 1 sub def
userdict begin
/q { gsave } bind def
/Q { grestore } bind def
/cm { 6 array astore concat } bind def
/w { setlinewidth } bind def
/J { setlinecap } bind def
/j { setlinejoin } bind def
/M { setmiterlimit } bind def
/d { setdash } bind def
/m { moveto } bind def
/l { lineto } bind def
/c { curveto } bind def
/h { closepath } bind def
/re { exch dup neg 3 1 roll 5 3 roll moveto 0 rlineto
      0 exch rlineto 0 rlineto closepath } bind def
/S { stroke } bind def
/f { fill } bind def
/f* { eofill } bind def
/B { fill stroke } bind def
/B* { eofill stroke } bind def
/n { newpath } bind def
/W { clip } bind def
/W* { eoclip } bind def
/BT { } bind def
/ET { } bind def
/pdfmark where { pop globaldict /?pdfmark /exec load put }
    { globaldict begin /?pdfmark /pop load def /pdfmark
    /cleartomark load def end } ifelse
/BDC { mark 3 1 roll /BDC pdfmark } bind def
/EMC { mark /EMC pdfmark } bind def
/cairo_store_point { /cairo_point_y exch def /cairo_point_x exch def } def
/Tj { show currentpoint cairo_store_point } bind def
/TJ {
  {
    dup
    type /stringtype eq
    { show } { -0.001 mul 0 cairo_font_matrix dtransform rmoveto } ifelse
  } forall
  currentpoint cairo_store_point
} bind def
/cairo_selectfont { cairo_font_matrix aload pop pop pop 0 0 6 array astore
    cairo_font exch selectfont cairo_point_x cairo_point_y moveto } bind def
/Tf { pop /cairo_font exch def /cairo_font_matrix where
      { pop cairo_selectfont } if } bind def
/Td { matrix translate cairo_font_matrix matrix concatmatrix dup
      /cairo_font_matrix exch def dup 4 get exch 5 get cairo_store_point
      /cairo_font where { pop cairo_selectfont } if } bind def
/Tm { 2 copy 8 2 roll 6 array astore /cairo_font_matrix exch def
      cairo_store_point /cairo_font where { pop cairo_selectfont } if } bind def
/g { setgray } bind def
/rg { setrgbcolor } bind def
/d1 { setcachedevice } bind def
%%EndProlog
%%Page: 1 1
%%BeginPageSetup
%%PageBoundingBox: 0 0 754 333
%%EndPageSetup
q
Q q
0 332.8 m 754.398 332.8 l 754.398 -0.001 l 0 -0.001 l 0 332.8 l h
0 332.8 m W n
q 0 0 755 333 rectclip
[ 1 0 0 1 0 -0.200012 ] concat
  q
  0 0 755 333 rectclip
Q q
0.815686 0.878431 0.890196 rg
31.836 313.301 531.906 -298.277 re f
0 g
1.6 w
0 J
1 j
[] 0.0 d
10 M q 1 0 0 -1 0 333 cm
31.836 19.699 531.906 298.277 re S Q
39.723 295.266 m 41.074 295.379 l 41.141 294.836 41.289 294.391 41.523 
294.043 c 41.758 293.691 42.121 293.406 42.609 293.191 c 43.109 292.977 
43.668 292.867 44.285 292.867 c 44.836 292.867 45.32 292.949 45.734 
293.117 c 46.16 293.281 46.477 293.508 46.688 293.793 c 46.895 294.074 
47 294.383 47 294.715 c 47 295.059 46.898 295.355 46.699 295.605 c 46.5 
295.863 46.168 296.078 45.711 296.254 c 45.418 296.371 44.773 296.547 
43.773 296.777 c 42.773 297.02 42.074 297.25 41.672 297.465 c 41.156 
297.742 40.77 298.078 40.512 298.48 c 40.262 298.879 40.137 299.328 
40.137 299.828 c 40.137 300.379 40.289 300.891 40.598 301.367 c 40.914 
301.852 41.371 302.211 41.961 302.453 c 42.562 302.703 43.227 302.828 
43.961 302.828 c 44.77 302.828 45.48 302.699 46.098 302.441 c 46.715 
302.184 47.188 301.801 47.512 301.293 c 47.844 300.793 48.023 300.219 
48.047 299.578 c 46.672 299.48 l 46.598 300.164 46.344 300.68 45.91 
301.027 c 45.484 301.387 44.855 301.566 44.023 301.566 c 43.156 301.566 
42.523 301.402 42.125 301.078 c 41.723 300.762 41.523 300.379 41.523 
299.93 c 41.523 299.539 41.664 299.215 41.949 298.965 c 42.223 298.715 
42.945 298.457 44.109 298.191 c 45.285 297.926 46.09 297.691 46.523 
297.492 c 47.156 297.199 47.625 296.828 47.922 296.379 c 48.23 295.938 
48.387 295.426 48.387 294.84 c 48.387 294.258 48.219 293.707 47.887 
293.191 c 47.555 292.684 47.074 292.289 46.449 292.004 c 45.832 291.719 
45.137 291.578 44.359 291.578 c 43.379 291.578 42.555 291.719 41.887 
292.004 c 41.219 292.297 40.695 292.73 40.312 293.305 c 39.938 293.879 
39.742 294.531 39.723 295.266 c h
49.992 291.766 m 49.992 299.652 l 51.191 299.652 l 51.191 298.543 l 
51.434 298.926 51.758 299.234 52.168 299.465 c 52.582 299.707 53.055 
299.828 53.578 299.828 c 54.16 299.828 54.641 299.707 55.016 299.465 c 
55.391 299.227 55.652 298.883 55.805 298.441 c 56.43 299.367 57.242 
299.828 58.242 299.828 c 59.023 299.828 59.625 299.613 60.043 299.18 c 
60.465 298.746 60.68 298.078 60.68 297.18 c 60.68 291.766 l 59.34 
291.766 l 59.34 296.73 l 59.34 297.262 59.301 297.645 59.215 297.879 c 
59.133 298.121 58.973 298.312 58.742 298.453 c 58.516 298.594 58.25 
298.668 57.941 298.668 c 57.391 298.668 56.934 298.484 56.566 298.117 c 
56.199 297.75 56.016 297.156 56.016 296.34 c 56.016 291.766 l 54.68 
291.766 l 54.68 296.891 l 54.68 297.484 54.57 297.926 54.355 298.215 c 
54.137 298.516 53.777 298.668 53.277 298.668 c 52.902 298.668 52.555 
298.566 52.23 298.367 c 51.91 298.176 51.684 297.887 51.543 297.504 c 
51.398 297.121 51.328 296.57 51.328 295.855 c 51.328 291.766 l 49.992 
291.766 l h
67.574 292.742 m 67.074 292.316 66.594 292.016 66.137 291.84 c 65.68 
291.676 65.188 291.59 64.66 291.59 c 63.805 291.59 63.141 291.801 
62.672 292.215 c 62.207 292.641 61.973 293.184 61.973 293.84 c 61.973 
294.234 62.062 294.586 62.234 294.902 c 62.41 295.219 62.641 295.477 
62.922 295.668 c 63.207 295.859 63.527 296.004 63.887 296.105 c 64.152 
296.18 64.547 296.246 65.074 296.305 c 66.156 296.438 66.953 296.59 
67.461 296.766 c 67.461 297.117 l 67.461 297.656 67.336 298.043 67.086 
298.266 c 66.746 298.566 66.234 298.715 65.562 298.715 c 64.938 298.715 
64.473 298.609 64.172 298.391 c 63.875 298.176 63.652 297.781 63.512 
297.215 c 62.199 297.402 l 62.324 297.961 62.52 298.414 62.785 298.754 
c 63.062 299.094 63.453 299.359 63.961 299.543 c 64.477 299.734 65.078 
299.828 65.762 299.828 c 66.438 299.828 66.98 299.75 67.398 299.59 c 
67.816 299.434 68.125 299.234 68.324 298.992 c 68.523 298.75 68.66 
298.445 68.734 298.078 c 68.785 297.855 68.812 297.445 68.812 296.855 c 
68.812 295.066 l 68.812 293.824 68.836 293.039 68.887 292.703 c 68.945 
292.379 69.062 292.066 69.234 291.766 c 67.836 291.766 l 67.695 292.043 
67.605 292.367 67.574 292.742 c h
67.461 295.715 m 66.977 295.523 66.25 295.359 65.273 295.215 c 64.723 
295.141 64.336 295.055 64.109 294.953 c 63.887 294.855 63.711 294.707 
63.586 294.516 c 63.461 294.324 63.398 294.113 63.398 293.879 c 63.398 
293.52 63.531 293.219 63.797 292.98 c 64.074 292.746 64.469 292.629 
64.984 292.629 c 65.504 292.629 65.961 292.742 66.359 292.965 c 66.762 
293.199 67.059 293.508 67.25 293.891 c 67.391 294.199 67.461 294.645 
67.461 295.23 c 67.461 295.715 l h
70.711 291.766 m 70.711 299.652 l 71.91 299.652 l 71.91 298.453 l 
72.219 299.012 72.504 299.379 72.762 299.555 c 73.02 299.738 73.309 
299.828 73.625 299.828 c 74.074 299.828 74.531 299.684 75 299.391 c 
74.535 298.152 l 74.211 298.344 73.883 298.441 73.551 298.441 c 73.258 
298.441 72.996 298.355 72.762 298.18 c 72.535 298.004 72.375 297.762 
72.273 297.453 c 72.125 296.98 72.051 296.457 72.051 295.891 c 72.051 
291.766 l 70.711 291.766 l h
78.621 292.965 m 78.809 291.777 l 78.434 291.703 78.094 291.668 77.793 
291.668 c 77.312 291.668 76.938 291.742 76.668 291.891 c 76.402 292.051 
76.215 292.25 76.105 292.492 c 76 292.742 75.945 293.27 75.945 294.078 
c 75.945 298.605 l 74.957 298.605 l 74.957 299.652 l 75.945 299.652 l 
75.945 301.605 l 77.27 302.402 l 77.27 299.652 l 78.621 299.652 l 
78.621 298.605 l 77.27 298.605 l 77.27 294.004 l 77.27 293.621 77.289 
293.375 77.332 293.266 c 77.383 293.156 77.461 293.07 77.57 293.004 c 
77.68 292.938 77.832 292.902 78.031 292.902 c 78.172 292.902 78.371 
292.926 78.621 292.965 c h
83.449 294.117 m 84.773 294.328 l 84.852 293.797 85.055 293.387 85.387 
293.105 c 85.73 292.828 86.203 292.691 86.812 292.691 c 87.43 292.691 
87.883 292.816 88.176 293.066 c 88.477 293.316 88.625 293.609 88.625 
293.941 c 88.625 294.242 88.496 294.48 88.238 294.652 c 88.055 294.77 
87.602 294.922 86.875 295.105 c 85.891 295.355 85.207 295.566 84.824 
295.742 c 84.449 295.926 84.164 296.176 83.961 296.492 c 83.77 296.816 
83.676 297.172 83.676 297.555 c 83.676 297.902 83.754 298.23 83.914 
298.527 c 84.078 298.828 84.301 299.078 84.574 299.277 c 84.785 299.43 
85.066 299.559 85.426 299.668 c 85.785 299.773 86.168 299.828 86.574 
299.828 c 87.199 299.828 87.746 299.738 88.211 299.555 c 88.68 299.379 
89.02 299.137 89.238 298.828 c 89.461 298.527 89.617 298.125 89.699 
297.617 c 88.398 297.441 l 88.344 297.84 88.168 298.152 87.875 298.379 
c 87.594 298.613 87.191 298.73 86.676 298.73 c 86.059 298.73 85.621 
298.625 85.363 298.418 c 85.105 298.215 84.977 297.984 84.977 297.715 c 
84.977 297.543 85.031 297.383 85.137 297.242 c 85.246 297.102 85.418 
296.984 85.648 296.891 c 85.785 296.84 86.176 296.727 86.824 296.543 c 
87.766 296.293 88.426 296.086 88.801 295.93 c 89.176 295.77 89.469 
295.539 89.676 295.23 c 89.891 294.922 90 294.539 90 294.078 c 90 
293.637 89.871 293.215 89.613 292.816 c 89.355 292.426 88.98 292.121 
88.488 291.902 c 87.996 291.695 87.441 291.59 86.824 291.59 c 85.801 
291.59 85.016 291.805 84.477 292.23 c 83.941 292.652 83.602 293.281 
83.449 294.117 c h
96.852 294.305 m 98.227 294.129 l 98.008 293.328 97.605 292.703 97.012 
292.254 c 96.43 291.812 95.68 291.59 94.762 291.59 c 93.613 291.59 
92.699 291.945 92.023 292.652 c 91.352 293.363 91.012 294.359 91.012 
295.641 c 91.012 296.965 91.352 297.996 92.023 298.73 c 92.707 299.461 
93.598 299.828 94.688 299.828 c 95.746 299.828 96.609 299.469 97.273 
298.754 c 97.941 298.039 98.273 297.023 98.273 295.715 c 98.273 295.641 
98.27 295.523 98.262 295.367 c 92.387 295.367 l 92.438 294.5 92.684 
293.836 93.125 293.379 c 93.566 292.922 94.117 292.691 94.773 292.691 c 
95.258 292.691 95.672 292.816 96.012 293.066 c 96.363 293.324 96.641 
293.738 96.852 294.305 c h
92.461 296.465 m 96.863 296.465 l 96.805 297.125 96.637 297.621 96.363 
297.953 c 95.938 298.469 95.383 298.73 94.699 298.73 c 94.094 298.73 
93.574 298.52 93.148 298.105 c 92.734 297.695 92.504 297.148 92.461 
296.465 c h
99.75 291.766 m 99.75 299.652 l 100.949 299.652 l 100.949 298.527 l 
101.535 299.395 102.371 299.828 103.465 299.828 c 103.938 299.828 
104.375 299.742 104.777 299.566 c 105.176 299.398 105.473 299.176 
105.664 298.891 c 105.863 298.617 106.004 298.293 106.09 297.918 c 
106.137 297.668 106.164 297.234 106.164 296.617 c 106.164 291.766 l 
104.824 291.766 l 104.824 296.566 l 104.824 297.109 104.773 297.512 
104.664 297.777 c 104.562 298.055 104.379 298.27 104.113 298.43 c 
103.848 298.586 103.535 298.668 103.176 298.668 c 102.609 298.668 
102.117 298.488 101.699 298.129 c 101.293 297.77 101.09 297.082 101.09 
296.066 c 101.09 291.766 l 99.75 291.766 l h
107.516 294.117 m 108.84 294.328 l 108.914 293.797 109.117 293.387 
109.453 293.105 c 109.793 292.828 110.27 292.691 110.875 292.691 c 
111.492 292.691 111.945 292.816 112.238 293.066 c 112.539 293.316 
112.688 293.609 112.688 293.941 c 112.688 294.242 112.559 294.48 
112.301 294.652 c 112.117 294.77 111.664 294.922 110.938 295.105 c 
109.957 295.355 109.273 295.566 108.891 295.742 c 108.516 295.926 
108.227 296.176 108.027 296.492 c 107.836 296.816 107.738 297.172 
107.738 297.555 c 107.738 297.902 107.816 298.23 107.977 298.527 c 
108.145 298.828 108.363 299.078 108.641 299.277 c 108.848 299.43 
109.129 299.559 109.488 299.668 c 109.848 299.773 110.23 299.828 
110.641 299.828 c 111.266 299.828 111.809 299.738 112.277 299.555 c 
112.742 299.379 113.086 299.137 113.301 298.828 c 113.527 298.527 
113.68 298.125 113.766 297.617 c 112.465 297.441 l 112.406 297.84 
112.23 298.152 111.938 298.379 c 111.656 298.613 111.254 298.73 110.738 
298.73 c 110.121 298.73 109.684 298.625 109.426 298.418 c 109.168 
298.215 109.039 297.984 109.039 297.715 c 109.039 297.543 109.094 
297.383 109.203 297.242 c 109.309 297.102 109.48 296.984 109.715 
296.891 c 109.848 296.84 110.238 296.727 110.891 296.543 c 111.832 
296.293 112.488 296.086 112.863 295.93 c 113.238 295.77 113.531 295.539 
113.738 295.23 c 113.957 294.922 114.062 294.539 114.062 294.078 c 
114.062 293.637 113.934 293.215 113.676 292.816 c 113.418 292.426 
113.043 292.121 112.551 291.902 c 112.059 291.695 111.504 291.59 
110.891 291.59 c 109.863 291.59 109.082 291.805 108.539 292.23 c 
108.004 292.652 107.664 293.281 107.516 294.117 c h
115.016 295.703 m 115.016 297.164 115.422 298.246 116.238 298.953 c 
116.914 299.539 117.738 299.828 118.715 299.828 c 119.797 299.828 
120.68 299.469 121.363 298.754 c 122.055 298.047 122.402 297.066 
122.402 295.816 c 122.402 294.801 122.246 294 121.938 293.418 c 121.641 
292.84 121.195 292.391 120.613 292.066 c 120.039 291.75 119.406 291.59 
118.715 291.59 c 117.613 291.59 116.723 291.945 116.039 292.652 c 
115.355 293.363 115.016 294.379 115.016 295.703 c h
116.391 295.703 m 116.391 294.695 116.609 293.941 117.051 293.441 c 
117.492 292.941 118.047 292.691 118.715 292.691 c 119.379 292.691 
119.93 292.941 120.363 293.441 c 120.805 293.949 121.027 294.719 
121.027 295.754 c 121.027 296.73 120.805 297.465 120.363 297.965 c 
119.922 298.465 119.371 298.715 118.715 298.715 c 118.047 298.715 
117.492 298.465 117.051 297.965 c 116.609 297.465 116.391 296.711 
116.391 295.703 c h
123.801 291.766 m 123.801 299.652 l 125 299.652 l 125 298.453 l 125.309 
299.012 125.594 299.379 125.852 299.555 c 126.109 299.738 126.398 
299.828 126.715 299.828 c 127.164 299.828 127.621 299.684 128.09 
299.391 c 127.625 298.152 l 127.301 298.344 126.973 298.441 126.641 
298.441 c 126.348 298.441 126.086 298.355 125.852 298.18 c 125.625 
298.004 125.465 297.762 125.363 297.453 c 125.215 296.98 125.141 
296.457 125.141 295.891 c 125.141 291.766 l 123.801 291.766 l h
132.93 291.766 m 132.93 299.652 l 134.133 299.652 l 134.133 298.543 l 
134.371 298.926 134.699 299.234 135.105 299.465 c 135.523 299.707 
135.992 299.828 136.52 299.828 c 137.102 299.828 137.582 299.707 
137.957 299.465 c 138.332 299.227 138.594 298.883 138.742 298.441 c 
139.367 299.367 140.18 299.828 141.18 299.828 c 141.965 299.828 142.566 
299.613 142.98 299.18 c 143.406 298.746 143.617 298.078 143.617 297.18 
c 143.617 291.766 l 142.281 291.766 l 142.281 296.73 l 142.281 297.262 
142.238 297.645 142.156 297.879 c 142.074 298.121 141.914 298.312 
141.68 298.453 c 141.457 298.594 141.191 298.668 140.883 298.668 c 
140.332 298.668 139.871 298.484 139.508 298.117 c 139.141 297.75 
138.957 297.156 138.957 296.34 c 138.957 291.766 l 137.617 291.766 l 
137.617 296.891 l 137.617 297.484 137.512 297.926 137.293 298.215 c 
137.078 298.516 136.719 298.668 136.219 298.668 c 135.844 298.668 
135.492 298.566 135.168 298.367 c 134.852 298.176 134.621 297.887 
134.48 297.504 c 134.34 297.121 134.27 296.57 134.27 295.855 c 134.27 
291.766 l 132.93 291.766 l h
144.863 295.703 m 144.863 297.164 145.273 298.246 146.09 298.953 c 
146.766 299.539 147.59 299.828 148.562 299.828 c 149.648 299.828 
150.531 299.469 151.215 298.754 c 151.906 298.047 152.25 297.066 152.25 
295.816 c 152.25 294.801 152.098 294 151.789 293.418 c 151.488 292.84 
151.047 292.391 150.465 292.066 c 149.891 291.75 149.254 291.59 148.562 
291.59 c 147.465 291.59 146.57 291.945 145.891 292.652 c 145.207 
293.363 144.863 294.379 144.863 295.703 c h
146.238 295.703 m 146.238 294.695 146.461 293.941 146.902 293.441 c 
147.344 292.941 147.898 292.691 148.562 292.691 c 149.23 292.691 
149.781 292.941 150.215 293.441 c 150.656 293.949 150.875 294.719 
150.875 295.754 c 150.875 296.73 150.656 297.465 150.215 297.965 c 
149.773 298.465 149.223 298.715 148.562 298.715 c 147.898 298.715 
147.344 298.465 146.902 297.965 c 146.461 297.465 146.238 296.711 
146.238 295.703 c h
158.777 291.766 m 158.777 292.766 l 158.277 291.984 157.543 291.59 
156.578 291.59 c 155.953 291.59 155.371 291.762 154.84 292.105 c 
154.312 292.453 153.906 292.938 153.613 293.555 c 153.332 294.18 
153.188 294.895 153.188 295.703 c 153.188 296.488 153.32 297.199 
153.578 297.84 c 153.844 298.484 154.234 298.977 154.75 299.316 c 
155.277 299.656 155.863 299.828 156.516 299.828 c 156.988 299.828 
157.41 299.73 157.777 299.527 c 158.152 299.328 158.457 299.066 158.688 
298.742 c 158.688 302.641 l 160.016 302.641 l 160.016 291.766 l 158.777 
291.766 l h
154.551 295.703 m 154.551 294.695 154.766 293.941 155.188 293.441 c 
155.621 292.941 156.125 292.691 156.703 292.691 c 157.285 292.691 
157.781 292.93 158.188 293.402 c 158.598 293.879 158.801 294.609 
158.801 295.59 c 158.801 296.668 158.594 297.453 158.176 297.953 c 
157.762 298.461 157.246 298.715 156.641 298.715 c 156.047 298.715 
155.551 298.477 155.152 297.992 c 154.75 297.508 154.551 296.746 
154.551 295.703 c h
167.363 294.305 m 168.738 294.129 l 168.523 293.328 168.121 292.703 
167.527 292.254 c 166.945 291.812 166.195 291.59 165.277 291.59 c 
164.129 291.59 163.215 291.945 162.539 292.652 c 161.863 293.363 
161.527 294.359 161.527 295.641 c 161.527 296.965 161.863 297.996 
162.539 298.73 c 163.223 299.461 164.109 299.828 165.203 299.828 c 
166.262 299.828 167.125 299.469 167.789 298.754 c 168.457 298.039 
168.789 297.023 168.789 295.715 c 168.789 295.641 168.785 295.523 
168.777 295.367 c 162.902 295.367 l 162.953 294.5 163.199 293.836 
163.641 293.379 c 164.082 292.922 164.633 292.691 165.289 292.691 c 
165.773 292.691 166.188 292.816 166.527 293.066 c 166.879 293.324 
167.156 293.738 167.363 294.305 c h
162.977 296.465 m 167.379 296.465 l 167.32 297.125 167.152 297.621 
166.879 297.953 c 166.453 298.469 165.898 298.73 165.215 298.73 c 
164.605 298.73 164.09 298.52 163.664 298.105 c 163.25 297.695 163.02 
297.148 162.977 296.465 c h
170.242 291.766 m 170.242 302.641 l 171.578 302.641 l 171.578 291.766 l 
170.242 291.766 l h
170.242 291.766 m f
1 g
51.109 263.039 193.035 -80.375 re f
0 g
q 1 0 0 -1 0 333 cm
51.109 69.961 193.035 80.375 re S Q
140.809 221.129 m 142.246 220.766 l 141.945 219.582 141.402 218.68 
140.621 218.055 c 139.836 217.438 138.879 217.129 137.746 217.129 c 
136.57 217.129 135.617 217.367 134.883 217.84 c 134.148 218.324 133.59 
219.016 133.207 219.914 c 132.824 220.824 132.633 221.801 132.633 
222.84 c 132.633 223.973 132.844 224.961 133.27 225.805 c 133.703 
226.645 134.32 227.281 135.121 227.715 c 135.922 228.156 136.801 
228.379 137.758 228.379 c 138.852 228.379 139.766 228.098 140.508 
227.539 c 141.25 226.992 141.766 226.215 142.059 225.215 c 140.645 
224.879 l 140.395 225.672 140.027 226.246 139.547 226.602 c 139.062 
226.969 138.457 227.152 137.734 227.152 c 136.898 227.152 136.199 
226.953 135.633 226.555 c 135.074 226.152 134.68 225.613 134.445 224.93 
c 134.219 224.254 134.109 223.559 134.109 222.84 c 134.109 221.914 
134.242 221.109 134.508 220.414 c 134.781 219.734 135.203 219.219 
135.77 218.879 c 136.344 218.535 136.961 218.367 137.621 218.367 c 
138.43 218.367 139.113 218.594 139.672 219.055 c 140.23 219.52 140.609 
220.211 140.809 221.129 c h
143.824 217.316 m 143.824 228.191 l 147.922 228.191 l 148.648 228.191 
149.203 228.156 149.586 228.09 c 150.121 228 150.566 227.828 150.922 
227.578 c 151.281 227.328 151.57 226.977 151.785 226.527 c 152.012 
226.078 152.125 225.586 152.125 225.055 c 152.125 224.129 151.828 
223.344 151.234 222.703 c 150.652 222.062 149.59 221.742 148.047 
221.742 c 145.262 221.742 l 145.262 217.316 l 143.824 217.316 l h
145.262 223.027 m 148.074 223.027 l 149.008 223.027 149.664 223.199 
150.047 223.539 c 150.441 223.891 150.637 224.379 150.637 225.004 c 
150.637 225.461 150.52 225.852 150.285 226.18 c 150.062 226.504 149.762 
226.715 149.387 226.816 c 149.145 226.883 148.699 226.914 148.047 
226.914 c 145.262 226.914 l 145.262 223.027 l h
160.918 228.191 m 162.355 228.191 l 162.355 221.914 l 162.355 220.816 
162.23 219.945 161.98 219.305 c 161.738 218.66 161.293 218.137 160.641 
217.727 c 160 217.328 159.152 217.129 158.105 217.129 c 157.086 217.129 
156.254 217.305 155.605 217.652 c 154.953 218.004 154.492 218.512 
154.215 219.18 c 153.941 219.844 153.805 220.758 153.805 221.914 c 
153.805 228.191 l 155.242 228.191 l 155.242 221.914 l 155.242 220.973 
155.328 220.277 155.504 219.828 c 155.68 219.379 155.98 219.031 156.402 
218.789 c 156.836 218.551 157.363 218.43 157.98 218.43 c 159.035 218.43 
159.793 218.664 160.242 219.141 c 160.691 219.625 160.918 220.551 
160.918 221.914 c 160.918 228.191 l h
160.918 228.191 m f
1 g
402.465 193.883 147.301 -44.449 re f
0 g
q 1 0 0 -1 0 333 cm
402.465 139.117 147.301 44.449 re S Q
446.418 166.121 m 446.418 176.996 l 447.867 176.996 l 447.867 166.121 l 
446.418 166.121 l h
456.805 167.41 m 456.805 166.121 l 449.617 166.121 l 449.605 166.445 
449.656 166.754 449.766 167.047 c 449.949 167.539 450.242 168.023 
450.641 168.496 c 451.047 168.973 451.633 169.523 452.391 170.148 c 
453.574 171.113 454.375 171.879 454.789 172.445 c 455.207 173.016 
455.414 173.551 455.414 174.059 c 455.414 174.586 455.223 175.031 
454.84 175.398 c 454.465 175.766 453.973 175.945 453.367 175.945 c 
452.723 175.945 452.207 175.75 451.816 175.359 c 451.434 174.977 
451.242 174.441 451.242 173.758 c 449.867 173.898 l 449.957 174.922 
450.312 175.703 450.93 176.234 c 451.543 176.777 452.371 177.047 
453.402 177.047 c 454.445 177.047 455.27 176.754 455.879 176.172 c 
456.484 175.598 456.789 174.879 456.789 174.023 c 456.789 173.59 
456.699 173.16 456.516 172.734 c 456.34 172.316 456.043 171.875 455.629 
171.41 c 455.219 170.953 454.535 170.312 453.578 169.496 c 452.777 
168.82 452.262 168.363 452.027 168.121 c 451.805 167.891 451.617 
167.652 451.465 167.41 c 456.805 167.41 l h
466.391 169.934 m 467.828 169.57 l 467.527 168.391 466.988 167.484 
466.203 166.859 c 465.422 166.242 464.461 165.934 463.328 165.934 c 
462.152 165.934 461.199 166.172 460.465 166.648 c 459.734 167.129 
459.176 167.82 458.789 168.723 c 458.406 169.629 458.215 170.605 
458.215 171.648 c 458.215 172.781 458.43 173.77 458.852 174.609 c 
459.285 175.453 459.902 176.09 460.703 176.523 c 461.504 176.965 
462.383 177.184 463.34 177.184 c 464.434 177.184 465.348 176.906 466.09 
176.348 c 466.832 175.797 467.348 175.023 467.641 174.023 c 466.227 
173.684 l 465.977 174.477 465.613 175.051 465.129 175.41 c 464.645 
175.777 464.039 175.961 463.316 175.961 c 462.484 175.961 461.781 
175.758 461.215 175.359 c 460.656 174.961 460.262 174.418 460.027 
173.734 c 459.805 173.059 459.691 172.363 459.691 171.648 c 459.691 
170.723 459.824 169.914 460.09 169.223 c 460.367 168.539 460.785 
168.027 461.352 167.684 c 461.93 167.344 462.547 167.172 463.203 
167.172 c 464.012 167.172 464.695 167.402 465.254 167.859 c 465.812 
168.328 466.191 169.02 466.391 169.934 c h
472.84 168.473 m 474.164 168.684 l 474.242 168.152 474.445 167.742 
474.777 167.461 c 475.121 167.184 475.594 167.047 476.203 167.047 c 
476.82 167.047 477.273 167.172 477.566 167.422 c 477.867 167.672 
478.016 167.965 478.016 168.297 c 478.016 168.598 477.887 168.836 
477.629 169.008 c 477.445 169.125 476.992 169.277 476.266 169.461 c 
475.281 169.711 474.598 169.922 474.215 170.098 c 473.84 170.281 
473.555 170.531 473.352 170.848 c 473.16 171.172 473.066 171.527 
473.066 171.91 c 473.066 172.258 473.145 172.586 473.305 172.883 c 
473.469 173.184 473.691 173.434 473.965 173.633 c 474.176 173.785 
474.457 173.914 474.816 174.023 c 475.176 174.129 475.559 174.184 
475.965 174.184 c 476.59 174.184 477.137 174.094 477.602 173.91 c 
478.07 173.734 478.41 173.492 478.629 173.184 c 478.852 172.883 479.008 
172.48 479.09 171.973 c 477.789 171.797 l 477.734 172.195 477.559 
172.508 477.266 172.734 c 476.984 172.969 476.582 173.086 476.066 
173.086 c 475.449 173.086 475.012 172.98 474.754 172.773 c 474.496 
172.57 474.367 172.34 474.367 172.07 c 474.367 171.898 474.422 171.738 
474.527 171.598 c 474.637 171.457 474.809 171.34 475.039 171.246 c 
475.176 171.195 475.566 171.082 476.215 170.898 c 477.156 170.648 
477.816 170.441 478.191 170.285 c 478.566 170.125 478.859 169.895 
479.066 169.586 c 479.281 169.277 479.391 168.895 479.391 168.434 c 
479.391 167.992 479.262 167.57 479.004 167.172 c 478.746 166.781 
478.371 166.477 477.879 166.258 c 477.387 166.051 476.832 165.945 
476.215 165.945 c 475.191 165.945 474.406 166.16 473.867 166.586 c 
473.332 167.008 472.992 167.641 472.84 168.473 c h
480.816 166.121 m 480.816 176.996 l 482.152 176.996 l 482.152 166.121 l 
480.816 166.121 l h
489.309 167.098 m 488.809 166.672 488.328 166.371 487.871 166.195 c 
487.41 166.031 486.918 165.945 486.395 165.945 c 485.535 165.945 
484.875 166.156 484.406 166.57 c 483.941 166.996 483.707 167.539 
483.707 168.195 c 483.707 168.59 483.793 168.941 483.969 169.258 c 
484.145 169.578 484.375 169.832 484.656 170.023 c 484.941 170.215 
485.262 170.359 485.621 170.461 c 485.887 170.535 486.281 170.602 
486.809 170.66 c 487.891 170.793 488.688 170.945 489.195 171.121 c 
489.195 171.473 l 489.195 172.016 489.07 172.398 488.82 172.621 c 
488.477 172.922 487.969 173.07 487.293 173.07 c 486.668 173.07 486.207 
172.965 485.906 172.746 c 485.605 172.531 485.387 172.141 485.246 
171.57 c 483.934 171.758 l 484.059 172.316 484.254 172.77 484.52 
173.109 c 484.793 173.453 485.188 173.715 485.695 173.898 c 486.211 
174.09 486.812 174.184 487.496 174.184 c 488.168 174.184 488.715 
174.105 489.133 173.945 c 489.547 173.789 489.855 173.59 490.059 
173.348 c 490.258 173.105 490.395 172.801 490.469 172.434 c 490.52 
172.211 490.543 171.801 490.543 171.211 c 490.543 169.422 l 490.543 
168.18 490.57 167.395 490.621 167.059 c 490.676 166.734 490.793 166.422 
490.969 166.121 c 489.57 166.121 l 489.426 166.398 489.34 166.723 
489.309 167.098 c h
489.195 170.07 m 488.711 169.879 487.98 169.715 487.008 169.57 c 
486.457 169.496 486.07 169.41 485.844 169.309 c 485.621 169.211 485.445 
169.062 485.32 168.871 c 485.195 168.68 485.133 168.469 485.133 168.234 
c 485.133 167.875 485.266 167.578 485.531 167.336 c 485.809 167.102 
486.203 166.984 486.719 166.984 c 487.234 166.984 487.695 167.098 
488.094 167.32 c 488.496 167.555 488.789 167.863 488.98 168.246 c 
489.125 168.555 489.195 169 489.195 169.586 c 489.195 170.07 l h
494.645 166.121 m 491.645 174.008 l 493.059 174.008 l 494.758 169.285 l 
494.941 168.777 495.109 168.246 495.258 167.695 c 495.375 168.113 
495.539 168.613 495.758 169.195 c 497.508 174.008 l 498.883 174.008 l 
495.895 166.121 l 494.645 166.121 l h
505.32 168.66 m 506.695 168.484 l 506.477 167.684 506.074 167.059 
505.484 166.609 c 504.898 166.168 504.148 165.945 503.234 165.945 c 
502.082 165.945 501.172 166.301 500.496 167.008 c 499.82 167.719 
499.484 168.715 499.484 169.996 c 499.484 171.32 499.82 172.352 500.496 
173.086 c 501.18 173.816 502.066 174.184 503.156 174.184 c 504.215 
174.184 505.078 173.828 505.746 173.109 c 506.41 172.395 506.746 
171.379 506.746 170.07 c 506.746 169.996 506.742 169.879 506.734 
169.723 c 500.859 169.723 l 500.906 168.855 501.152 168.191 501.594 
167.734 c 502.035 167.277 502.586 167.047 503.246 167.047 c 503.727 
167.047 504.141 167.172 504.484 167.422 c 504.832 167.68 505.113 
168.094 505.32 168.66 c h
500.934 170.82 m 505.332 170.82 l 505.273 171.48 505.109 171.977 
504.832 172.309 c 504.406 172.828 503.852 173.086 503.172 173.086 c 
502.562 173.086 502.047 172.875 501.621 172.461 c 501.203 172.051 
500.973 171.504 500.934 170.82 c h
500.934 170.82 m f
1 g
402.465 251.07 147.301 -44.445 re f
0 g
q 1 0 0 -1 0 333 cm
402.465 81.93 147.301 44.445 re S Q
464.773 235.609 m 466.121 235.723 l 466.188 235.18 466.34 234.734 
466.574 234.387 c 466.805 234.035 467.168 233.754 467.66 233.535 c 
468.16 233.32 468.719 233.211 469.336 233.211 c 469.887 233.211 470.367 
233.293 470.785 233.461 c 471.211 233.629 471.527 233.852 471.734 
234.137 c 471.945 234.418 472.047 234.727 472.047 235.062 c 472.047 
235.402 471.949 235.699 471.746 235.949 c 471.547 236.207 471.219 
236.422 470.762 236.598 c 470.469 236.715 469.824 236.891 468.824 
237.125 c 467.824 237.363 467.121 237.594 466.723 237.812 c 466.207 
238.086 465.82 238.422 465.559 238.824 c 465.309 239.223 465.184 
239.672 465.184 240.172 c 465.184 240.723 465.34 241.234 465.648 
241.711 c 465.965 242.195 466.418 242.555 467.012 242.797 c 467.609 
243.047 468.277 243.172 469.012 243.172 c 469.82 243.172 470.531 
243.043 471.148 242.785 c 471.766 242.527 472.234 242.145 472.559 
241.637 c 472.895 241.137 473.074 240.566 473.098 239.922 c 471.723 
239.824 l 471.648 240.508 471.395 241.023 470.961 241.375 c 470.535 
241.73 469.906 241.91 469.074 241.91 c 468.207 241.91 467.574 241.75 
467.172 241.422 c 466.773 241.105 466.574 240.723 466.574 240.273 c 
466.574 239.883 466.715 239.562 466.996 239.312 c 467.273 239.062 
467.992 238.801 469.16 238.535 c 470.336 238.27 471.141 238.035 471.574 
237.836 c 472.207 237.543 472.672 237.172 472.973 236.723 c 473.281 
236.281 473.434 235.77 473.434 235.188 c 473.434 234.602 473.27 234.051 
472.934 233.535 c 472.602 233.027 472.121 232.633 471.496 232.348 c 
470.883 232.066 470.184 231.922 469.41 231.922 c 468.426 231.922 
467.602 232.066 466.934 232.348 c 466.27 232.641 465.742 233.074 
465.359 233.648 c 464.984 234.223 464.789 234.879 464.773 235.609 c h
475.215 232.109 m 475.215 242.984 l 479.316 242.984 l 480.039 242.984 
480.594 242.953 480.977 242.887 c 481.512 242.793 481.957 242.625 
482.316 242.375 c 482.672 242.125 482.961 241.773 483.176 241.324 c 
483.402 240.875 483.516 240.383 483.516 239.848 c 483.516 238.922 
483.219 238.141 482.629 237.5 c 482.043 236.855 480.98 236.535 479.441 
236.535 c 476.652 236.535 l 476.652 232.109 l 475.215 232.109 l h
476.652 237.824 m 479.465 237.824 l 480.398 237.824 481.059 237.992 
481.441 238.336 c 481.832 238.688 482.027 239.172 482.027 239.797 c 
482.027 240.258 481.91 240.648 481.676 240.973 c 481.453 241.297 
481.152 241.512 480.777 241.609 c 480.535 241.676 480.09 241.711 
479.441 241.711 c 476.652 241.711 l 476.652 237.824 l h
485.406 232.109 m 485.406 242.984 l 486.859 242.984 l 486.859 232.109 l 
485.406 232.109 l h
485.406 232.109 m f
459.156 216.859 m 460.48 217.074 l 460.555 216.539 460.758 216.133 
461.094 215.848 c 461.434 215.574 461.91 215.438 462.516 215.438 c 
463.133 215.438 463.59 215.562 463.879 215.812 c 464.18 216.062 464.328 
216.352 464.328 216.688 c 464.328 216.984 464.199 217.223 463.941 
217.398 c 463.758 217.516 463.305 217.664 462.578 217.848 c 461.598 
218.098 460.914 218.312 460.531 218.484 c 460.156 218.668 459.867 
218.918 459.668 219.234 c 459.477 219.562 459.379 219.914 459.379 
220.297 c 459.379 220.648 459.461 220.973 459.617 221.273 c 459.785 
221.574 460.004 221.824 460.281 222.023 c 460.488 222.172 460.773 
222.301 461.129 222.41 c 461.488 222.52 461.871 222.574 462.281 222.574 
c 462.906 222.574 463.449 222.48 463.918 222.297 c 464.383 222.125 
464.727 221.883 464.941 221.574 c 465.168 221.273 465.32 220.867 
465.406 220.359 c 464.105 220.188 l 464.047 220.586 463.871 220.898 
463.578 221.125 c 463.297 221.355 462.898 221.473 462.379 221.473 c 
461.762 221.473 461.324 221.367 461.066 221.16 c 460.809 220.961 460.68 
220.727 460.68 220.461 c 460.68 220.285 460.734 220.129 460.844 219.984 
c 460.949 219.844 461.121 219.727 461.355 219.637 c 461.488 219.586 
461.879 219.469 462.531 219.285 c 463.473 219.035 464.129 218.832 
464.504 218.672 c 464.879 218.516 465.172 218.281 465.379 217.973 c 
465.598 217.664 465.703 217.281 465.703 216.824 c 465.703 216.383 
465.574 215.961 465.316 215.562 c 465.059 215.168 464.684 214.863 
464.191 214.648 c 463.699 214.441 463.148 214.336 462.531 214.336 c 
461.504 214.336 460.723 214.547 460.18 214.973 c 459.648 215.398 
459.305 216.027 459.156 216.859 c h
467.129 214.512 m 467.129 225.387 l 468.469 225.387 l 468.469 214.512 l 
467.129 214.512 l h
475.621 215.484 m 475.121 215.062 474.641 214.762 474.184 214.586 c 
473.727 214.418 473.234 214.336 472.707 214.336 c 471.852 214.336 
471.188 214.543 470.723 214.961 c 470.254 215.387 470.02 215.926 470.02 
216.586 c 470.02 216.977 470.109 217.332 470.285 217.648 c 470.457 
217.965 470.688 218.219 470.973 218.41 c 471.254 218.602 471.574 218.75 
471.934 218.848 c 472.199 218.922 472.598 218.988 473.121 219.047 c 
474.203 219.18 475 219.336 475.508 219.512 c 475.508 219.859 l 475.508 
220.402 475.383 220.785 475.133 221.012 c 474.793 221.312 474.285 
221.461 473.609 221.461 c 472.984 221.461 472.52 221.352 472.223 
221.137 c 471.922 220.918 471.699 220.527 471.559 219.961 c 470.246 
220.148 l 470.371 220.707 470.566 221.156 470.832 221.5 c 471.109 
221.84 471.5 222.102 472.008 222.285 c 472.523 222.477 473.125 222.574 
473.809 222.574 c 474.484 222.574 475.027 222.492 475.445 222.336 c 
475.863 222.176 476.172 221.977 476.371 221.734 c 476.57 221.492 
476.707 221.191 476.785 220.824 c 476.832 220.598 476.859 220.191 
476.859 219.598 c 476.859 217.812 l 476.859 216.57 476.883 215.781 
476.934 215.449 c 476.992 215.125 477.109 214.812 477.285 214.512 c 
475.883 214.512 l 475.742 214.785 475.652 215.109 475.621 215.484 c h
475.508 218.461 m 475.023 218.27 474.297 218.102 473.32 217.961 c 
472.77 217.887 472.383 217.797 472.16 217.699 c 471.934 217.598 471.758 
217.453 471.633 217.262 c 471.508 217.07 471.445 216.855 471.445 
216.625 c 471.445 216.266 471.578 215.965 471.848 215.723 c 472.121 
215.488 472.516 215.375 473.035 215.375 c 473.551 215.375 474.008 
215.484 474.41 215.711 c 474.809 215.945 475.105 216.254 475.297 
216.637 c 475.438 216.945 475.508 217.391 475.508 217.973 c 475.508 
218.461 l h
480.957 214.512 m 477.957 222.398 l 479.371 222.398 l 481.07 217.672 l 
481.254 217.164 481.422 216.637 481.57 216.086 c 481.688 216.504 
481.855 217.004 482.07 217.586 c 483.82 222.398 l 485.195 222.398 l 
482.207 214.512 l 480.957 214.512 l h
491.633 217.047 m 493.008 216.875 l 492.793 216.074 492.387 215.449 
491.797 215 c 491.215 214.555 490.465 214.336 489.547 214.336 c 488.395 
214.336 487.484 214.691 486.809 215.398 c 486.133 216.105 485.797 
217.102 485.797 218.387 c 485.797 219.711 486.133 220.738 486.809 
221.473 c 487.492 222.207 488.379 222.574 489.473 222.574 c 490.531 
222.574 491.391 222.215 492.059 221.5 c 492.727 220.781 493.059 219.77 
493.059 218.461 c 493.059 218.387 493.055 218.27 493.047 218.109 c 
487.172 218.109 l 487.223 217.242 487.469 216.582 487.91 216.125 c 
488.352 215.664 488.902 215.438 489.559 215.438 c 490.043 215.438 
490.453 215.562 490.797 215.812 c 491.145 216.07 491.426 216.48 491.633 
217.047 c h
487.246 219.211 m 491.645 219.211 l 491.59 219.867 491.422 220.363 
491.145 220.699 c 490.723 221.215 490.168 221.473 489.484 221.473 c 
488.875 221.473 488.359 221.266 487.934 220.848 c 487.516 220.441 
487.289 219.895 487.246 219.211 c h
487.246 219.211 m f
1 g
51.109 100.578 193.035 -57.02 re f
0 g
q 1 0 0 -1 0 333 cm
51.109 232.422 193.035 57.02 re S Q
120.84 72.309 m 120.84 83.219 l 122.062 83.219 l 122.062 82.195 l 
122.348 82.594 122.668 82.895 123.027 83.094 c 123.395 83.293 123.832 
83.395 124.34 83.395 c 125.012 83.395 125.609 83.219 126.125 82.871 c 
126.645 82.527 127.031 82.039 127.289 81.406 c 127.555 80.773 127.688 
80.082 127.688 79.332 c 127.688 78.523 127.543 77.793 127.25 77.145 c 
126.961 76.504 126.539 76.012 125.988 75.668 c 125.438 75.328 124.859 
75.156 124.25 75.156 c 123.801 75.156 123.398 75.25 123.039 75.434 c 
122.688 75.625 122.402 75.859 122.176 76.145 c 122.176 72.309 l 120.84 
72.309 l h
122.051 79.23 m 122.051 78.215 122.254 77.465 122.664 76.98 c 123.082 
76.5 123.582 76.258 124.164 76.258 c 124.754 76.258 125.258 76.508 
125.676 77.008 c 126.102 77.508 126.312 78.285 126.312 79.344 c 126.312 
80.344 126.105 81.094 125.688 81.594 c 125.281 82.094 124.789 82.344 
124.215 82.344 c 123.648 82.344 123.145 82.078 122.699 81.543 c 122.27 
81.012 122.051 80.238 122.051 79.23 c h
129.125 75.332 m 129.125 83.219 l 130.328 83.219 l 130.328 82.02 l 
130.637 82.578 130.918 82.945 131.176 83.121 c 131.434 83.301 131.723 
83.395 132.039 83.395 c 132.488 83.395 132.949 83.25 133.414 82.957 c 
132.953 81.719 l 132.625 81.91 132.297 82.008 131.965 82.008 c 131.672 
82.008 131.41 81.918 131.176 81.746 c 130.953 81.57 130.789 81.328 
130.688 81.02 c 130.539 80.543 130.465 80.023 130.465 79.457 c 130.465 
75.332 l 129.125 75.332 l h
133.609 79.27 m 133.609 80.727 134.02 81.812 134.836 82.52 c 135.508 
83.102 136.336 83.395 137.309 83.395 c 138.395 83.395 139.277 83.035 
139.961 82.32 c 140.652 81.609 140.996 80.633 140.996 79.383 c 140.996 
78.363 140.844 77.566 140.535 76.98 c 140.234 76.406 139.793 75.957 
139.211 75.633 c 138.633 75.316 138 75.156 137.309 75.156 c 136.211 
75.156 135.316 75.512 134.633 76.219 c 133.949 76.926 133.609 77.945 
133.609 79.27 c h
134.984 79.27 m 134.984 78.262 135.207 77.508 135.648 77.008 c 136.09 
76.508 136.645 76.258 137.309 76.258 c 137.977 76.258 138.527 76.508 
138.961 77.008 c 139.402 77.516 139.621 78.285 139.621 79.32 c 139.621 
80.293 139.402 81.031 138.961 81.531 c 138.52 82.031 137.969 82.281 
137.309 82.281 c 136.645 82.281 136.09 82.031 135.648 81.531 c 135.207 
81.031 134.984 80.277 134.984 79.27 c h
142.172 74.684 m 143.461 74.48 l 143.52 74.082 143.672 73.789 143.922 
73.605 c 144.246 73.363 144.699 73.246 145.273 73.246 c 145.898 73.246 
146.375 73.371 146.711 73.621 c 147.043 73.859 147.273 74.203 147.398 
74.645 c 147.465 74.918 147.492 75.496 147.484 76.371 c 146.902 75.676 
146.176 75.332 145.309 75.332 c 144.227 75.332 143.387 75.723 142.785 
76.508 c 142.191 77.289 141.898 78.227 141.898 79.32 c 141.898 80.07 
142.035 80.762 142.309 81.395 c 142.586 82.035 142.98 82.527 143.496 
82.871 c 144.016 83.219 144.617 83.395 145.309 83.395 c 146.242 83.395 
147.012 83.02 147.609 82.27 c 147.609 83.219 l 148.848 83.219 l 148.848 
76.406 l 148.848 75.172 148.723 74.301 148.473 73.793 c 148.223 73.277 
147.828 72.875 147.285 72.582 c 146.742 72.281 146.078 72.133 145.285 
72.133 c 144.344 72.133 143.582 72.344 142.996 72.77 c 142.422 73.195 
142.148 73.832 142.172 74.684 c h
143.273 79.418 m 143.273 78.379 143.477 77.621 143.887 77.145 c 144.301 
76.668 144.816 76.434 145.434 76.434 c 146.043 76.434 146.555 76.668 
146.973 77.145 c 147.391 77.621 147.598 78.359 147.598 79.371 c 147.598 
80.336 147.379 81.062 146.949 81.543 c 146.523 82.035 146.012 82.281 
145.41 82.281 c 144.816 82.281 144.312 82.039 143.898 81.559 c 143.48 
81.082 143.273 80.371 143.273 79.418 c h
150.699 75.332 m 150.699 83.219 l 151.898 83.219 l 151.898 82.02 l 
152.207 82.578 152.488 82.945 152.746 83.121 c 153.008 83.301 153.293 
83.395 153.609 83.395 c 154.059 83.395 154.52 83.25 154.984 82.957 c 
154.523 81.719 l 154.199 81.91 153.867 82.008 153.535 82.008 c 153.242 
82.008 152.98 81.918 152.746 81.746 c 152.523 81.57 152.359 81.328 
152.262 81.02 c 152.109 80.543 152.035 80.023 152.035 79.457 c 152.035 
75.332 l 150.699 75.332 l h
160.832 76.309 m 160.332 75.883 159.852 75.582 159.395 75.406 c 158.934 
75.238 158.441 75.156 157.918 75.156 c 157.059 75.156 156.398 75.363 
155.93 75.781 c 155.465 76.207 155.23 76.75 155.23 77.406 c 155.23 
77.797 155.316 78.152 155.492 78.469 c 155.668 78.785 155.898 79.039 
156.18 79.23 c 156.465 79.422 156.785 79.57 157.145 79.668 c 157.41 
79.746 157.805 79.812 158.332 79.871 c 159.414 80.004 160.211 80.156 
160.719 80.332 c 160.719 80.684 l 160.719 81.223 160.594 81.605 160.344 
81.832 c 160 82.133 159.492 82.281 158.816 82.281 c 158.191 82.281 
157.73 82.172 157.43 81.957 c 157.129 81.738 156.91 81.348 156.77 
80.781 c 155.457 80.969 l 155.582 81.527 155.777 81.977 156.043 82.32 c 
156.316 82.66 156.711 82.922 157.219 83.105 c 157.734 83.297 158.336 
83.395 159.02 83.395 c 159.691 83.395 160.238 83.316 160.656 83.156 c 
161.074 83 161.379 82.797 161.582 82.559 c 161.781 82.316 161.918 
82.012 161.992 81.645 c 162.043 81.418 162.066 81.012 162.066 80.418 c 
162.066 78.633 l 162.066 77.391 162.094 76.602 162.145 76.27 c 162.203 
75.945 162.316 75.633 162.492 75.332 c 161.094 75.332 l 160.953 75.605 
160.863 75.934 160.832 76.309 c h
160.719 79.281 m 160.234 79.09 159.504 78.922 158.531 78.781 c 157.98 
78.707 157.594 78.621 157.367 78.52 c 157.145 78.418 156.969 78.273 
156.844 78.082 c 156.719 77.891 156.656 77.676 156.656 77.445 c 156.656 
77.086 156.789 76.785 157.055 76.543 c 157.332 76.312 157.727 76.195 
158.242 76.195 c 158.762 76.195 159.219 76.309 159.617 76.531 c 160.02 
76.766 160.312 77.074 160.504 77.457 c 160.648 77.766 160.719 78.211 
160.719 78.793 c 160.719 79.281 l h
163.98 75.332 m 163.98 83.219 l 165.18 83.219 l 165.18 82.105 l 165.422 
82.488 165.746 82.797 166.156 83.031 c 166.574 83.273 167.043 83.395 
167.57 83.395 c 168.152 83.395 168.633 83.273 169.008 83.031 c 169.383 
82.789 169.645 82.449 169.793 82.008 c 170.418 82.934 171.23 83.395 
172.23 83.395 c 173.016 83.395 173.613 83.176 174.031 82.746 c 174.457 
82.312 174.668 81.645 174.668 80.746 c 174.668 75.332 l 173.332 75.332 
l 173.332 80.293 l 173.332 80.828 173.289 81.211 173.207 81.445 c 
173.121 81.688 172.965 81.879 172.73 82.02 c 172.508 82.16 172.238 
82.23 171.93 82.23 c 171.383 82.23 170.922 82.047 170.555 81.684 c 
170.191 81.316 170.008 80.723 170.008 79.906 c 170.008 75.332 l 168.668 
75.332 l 168.668 80.457 l 168.668 81.047 168.559 81.488 168.344 81.781 
c 168.129 82.082 167.77 82.23 167.27 82.23 c 166.895 82.23 166.543 
82.133 166.219 81.934 c 165.902 81.738 165.672 81.453 165.531 81.07 c 
165.391 80.688 165.32 80.137 165.32 79.418 c 165.32 75.332 l 163.98 
75.332 l h
163.98 75.332 m f
121.676 57.73 m 121.676 65.621 l 122.875 65.621 l 122.875 64.508 l 
123.117 64.891 123.445 65.199 123.852 65.434 c 124.27 65.672 124.738 
65.793 125.266 65.793 c 125.848 65.793 126.328 65.672 126.703 65.434 c 
127.078 65.191 127.34 64.848 127.488 64.406 c 128.113 65.332 128.926 
65.793 129.926 65.793 c 130.711 65.793 131.309 65.578 131.727 65.145 c 
132.152 64.711 132.363 64.043 132.363 63.145 c 132.363 57.73 l 131.027 
57.73 l 131.027 62.695 l 131.027 63.227 130.984 63.609 130.902 63.844 c 
130.82 64.086 130.66 64.277 130.426 64.418 c 130.203 64.562 129.934 
64.633 129.625 64.633 c 129.078 64.633 128.617 64.449 128.25 64.082 c 
127.887 63.715 127.703 63.125 127.703 62.309 c 127.703 57.73 l 126.363 
57.73 l 126.363 62.855 l 126.363 63.449 126.258 63.891 126.039 64.184 c 
125.824 64.48 125.465 64.633 124.965 64.633 c 124.59 64.633 124.238 
64.531 123.914 64.332 c 123.598 64.141 123.367 63.852 123.227 63.469 c 
123.086 63.086 123.016 62.535 123.016 61.82 c 123.016 57.73 l 121.676 
57.73 l h
139.508 60.27 m 140.883 60.094 l 140.668 59.293 140.262 58.668 139.672 
58.219 c 139.09 57.777 138.34 57.559 137.422 57.559 c 136.273 57.559 
135.359 57.91 134.684 58.621 c 134.008 59.328 133.672 60.324 133.672 
61.605 c 133.672 62.934 134.008 63.961 134.684 64.695 c 135.367 65.426 
136.254 65.793 137.348 65.793 c 138.406 65.793 139.27 65.438 139.934 
64.719 c 140.602 64.004 140.934 62.988 140.934 61.684 c 140.934 61.605 
140.93 61.488 140.922 61.332 c 135.047 61.332 l 135.098 60.465 135.344 
59.801 135.785 59.344 c 136.227 58.887 136.777 58.656 137.434 58.656 c 
137.918 58.656 138.332 58.781 138.672 59.031 c 139.023 59.289 139.301 
59.703 139.508 60.27 c h
135.121 62.434 m 139.523 62.434 l 139.465 63.09 139.297 63.586 139.023 
63.918 c 138.598 64.438 138.043 64.695 137.359 64.695 c 136.75 64.695 
136.234 64.484 135.809 64.07 c 135.395 63.66 135.164 63.113 135.121 
62.434 c h
142.41 57.73 m 142.41 65.621 l 143.609 65.621 l 143.609 64.508 l 
143.852 64.891 144.176 65.199 144.586 65.434 c 145 65.672 145.473 
65.793 145.996 65.793 c 146.582 65.793 147.059 65.672 147.434 65.434 c 
147.809 65.191 148.074 64.848 148.223 64.406 c 148.848 65.332 149.66 
65.793 150.66 65.793 c 151.441 65.793 152.043 65.578 152.461 65.145 c 
152.887 64.711 153.098 64.043 153.098 63.145 c 153.098 57.73 l 151.762 
57.73 l 151.762 62.695 l 151.762 63.227 151.719 63.609 151.637 63.844 c 
151.551 64.086 151.395 64.277 151.16 64.418 c 150.934 64.562 150.668 
64.633 150.359 64.633 c 149.809 64.633 149.352 64.449 148.984 64.082 c 
148.617 63.715 148.434 63.125 148.434 62.309 c 148.434 57.73 l 147.098 
57.73 l 147.098 62.855 l 147.098 63.449 146.988 63.891 146.773 64.184 c 
146.555 64.48 146.199 64.633 145.699 64.633 c 145.324 64.633 144.973 
64.531 144.648 64.332 c 144.332 64.141 144.102 63.852 143.961 63.469 c 
143.816 63.086 143.746 62.535 143.746 61.82 c 143.746 57.73 l 142.41 
57.73 l h
154.344 61.668 m 154.344 63.129 154.75 64.211 155.566 64.918 c 156.242 
65.504 157.066 65.793 158.043 65.793 c 159.125 65.793 160.008 65.438 
160.691 64.719 c 161.383 64.012 161.73 63.031 161.73 61.781 c 161.73 
60.766 161.574 59.965 161.27 59.383 c 160.969 58.809 160.527 58.355 
159.941 58.031 c 159.367 57.715 158.734 57.559 158.043 57.559 c 156.941 
57.559 156.051 57.91 155.367 58.621 c 154.684 59.328 154.344 60.344 
154.344 61.668 c h
155.719 61.668 m 155.719 60.66 155.938 59.906 156.379 59.406 c 156.82 
58.906 157.375 58.656 158.043 58.656 c 158.711 58.656 159.258 58.906 
159.691 59.406 c 160.133 59.914 160.355 60.688 160.355 61.719 c 160.355 
62.695 160.133 63.434 159.691 63.934 c 159.25 64.434 158.699 64.684 
158.043 64.684 c 157.375 64.684 156.82 64.434 156.379 63.934 c 155.938 
63.434 155.719 62.676 155.719 61.668 c h
163.129 57.73 m 163.129 65.621 l 164.332 65.621 l 164.332 64.418 l 
164.641 64.977 164.922 65.344 165.18 65.52 c 165.438 65.703 165.727 
65.793 166.043 65.793 c 166.492 65.793 166.953 65.648 167.418 65.355 c 
166.957 64.121 l 166.629 64.312 166.301 64.406 165.969 64.406 c 165.676 
64.406 165.414 64.32 165.18 64.145 c 164.957 63.969 164.793 63.727 
164.691 63.418 c 164.543 62.945 164.469 62.422 164.469 61.855 c 164.469 
57.73 l 163.129 57.73 l h
168.051 54.695 m 167.914 55.945 l 168.203 55.871 168.461 55.832 168.676 
55.832 c 168.969 55.832 169.199 55.883 169.375 55.98 c 169.559 56.082 
169.711 56.219 169.824 56.395 c 169.91 56.527 170.043 56.859 170.227 
57.395 c 170.25 57.469 170.293 57.578 170.352 57.719 c 167.363 65.621 l 
168.801 65.621 l 170.438 61.043 l 170.656 60.469 170.848 59.859 171.012 
59.219 c 171.164 59.836 171.348 60.438 171.562 61.02 c 173.238 65.621 l 
174.574 65.621 l 171.574 57.594 l 171.258 56.727 171.008 56.133 170.824 
55.809 c 170.594 55.363 170.32 55.043 170.012 54.844 c 169.703 54.637 
169.34 54.531 168.914 54.531 c 168.656 54.531 168.367 54.586 168.051 
54.695 c h
168.051 54.695 m f
1 g
402.465 133.809 147.301 -44.449 re f
0 g
q 1 0 0 -1 0 333 cm
402.465 199.191 147.301 44.449 re S Q
460.332 106.047 m 464.52 116.922 l 466.07 116.922 l 470.52 106.047 l 
468.883 106.047 l 467.609 109.348 l 463.059 109.348 l 461.871 106.047 l 
460.332 106.047 l h
463.469 110.512 m 467.156 110.512 l 466.031 113.535 l 465.684 114.445 
465.426 115.195 465.258 115.785 c 465.117 115.086 464.922 114.395 
464.672 113.711 c 463.469 110.512 l h
471.488 106.047 m 471.488 116.922 l 475.238 116.922 l 476.078 116.922 
476.727 116.875 477.176 116.773 c 477.793 116.633 478.32 116.375 
478.762 116 c 479.336 115.508 479.766 114.883 480.051 114.125 c 480.332 
113.375 480.477 112.516 480.477 111.547 c 480.477 110.723 480.379 
109.992 480.188 109.348 c 479.996 108.715 479.75 108.188 479.449 
107.762 c 479.148 107.344 478.82 107.016 478.461 106.773 c 478.105 
106.539 477.672 106.359 477.164 106.234 c 476.652 106.109 476.07 
106.047 475.414 106.047 c 471.488 106.047 l h
472.926 107.336 m 475.25 107.336 l 475.965 107.336 476.527 107.402 
476.938 107.535 c 477.348 107.668 477.672 107.855 477.914 108.098 c 
478.254 108.441 478.52 108.898 478.711 109.473 c 478.902 110.047 479 
110.75 479 111.574 c 479 112.707 478.812 113.578 478.438 114.188 c 
478.062 114.805 477.609 115.215 477.074 115.422 c 476.691 115.574 
476.07 115.648 475.211 115.648 c 472.926 115.648 l 472.926 107.336 l h
490.027 109.859 m 491.465 109.5 l 491.164 108.316 490.625 107.41 489.84 
106.785 c 489.059 106.168 488.098 105.859 486.965 105.859 c 485.789 
105.859 484.836 106.098 484.102 106.574 c 483.371 107.059 482.812 
107.75 482.43 108.648 c 482.047 109.559 481.852 110.531 481.852 111.574 
c 481.852 112.707 482.066 113.695 482.492 114.535 c 482.926 115.379 
483.539 116.016 484.34 116.449 c 485.141 116.891 486.02 117.109 486.977 
117.109 c 488.07 117.109 488.988 116.832 489.727 116.273 c 490.469 
115.723 490.988 114.949 491.277 113.949 c 489.867 113.609 l 489.617 
114.402 489.25 114.977 488.766 115.336 c 488.281 115.703 487.68 115.887 
486.953 115.887 c 486.121 115.887 485.422 115.688 484.852 115.285 c 
484.297 114.887 483.898 114.344 483.664 113.66 c 483.441 112.984 
483.328 112.289 483.328 111.574 c 483.328 110.648 483.461 109.84 
483.727 109.148 c 484.004 108.465 484.426 107.953 484.992 107.609 c 
485.566 107.27 486.184 107.098 486.84 107.098 c 487.648 107.098 488.332 
107.328 488.891 107.785 c 489.449 108.254 489.828 108.945 490.027 
109.859 c h
490.027 109.859 m f
q 1 0 0 -1 0 333 cm
244.145 260.934 m 273.926 260.934 l S Q
q 1 0 0 -1 0 333 cm
402.465 104.152 m 364.742 104.152 l S Q
q 1 0 0 -1 0 333 cm
402.465 161.34 m 365.223 161.34 l S Q
q 1 0 0 -1 0 333 cm
402.465 221.414 m 364.266 221.414 l S Q
3.2 w
q 1 0 0 -1 0 333 cm
568.965 104.152 m 620.996 104.152 l S Q
568.965 234.133 m 554.441 228.848 l 568.965 223.562 l h
568.965 234.133 m f*
0 j
q 1 0 0 -1 0 333 cm
568.965 98.867 m 554.441 104.152 l 568.965 109.438 l h
568.965 98.867 m S Q
620.996 223.562 m 635.516 228.848 l 620.996 234.133 l h
620.996 223.562 m f*
q 1 0 0 -1 0 333 cm
620.996 109.438 m 635.516 104.152 l 620.996 98.867 l h
620.996 109.438 m S Q
1 j
q 1 0 0 -1 0 333 cm
568.965 161.34 m 620.996 161.34 l S Q
568.965 176.945 m 554.441 171.66 l 568.965 166.371 l h
568.965 176.945 m f*
0 j
q 1 0 0 -1 0 333 cm
568.965 156.055 m 554.441 161.34 l 568.965 166.629 l h
568.965 156.055 m S Q
620.996 166.371 m 635.516 171.66 l 620.996 176.945 l h
620.996 166.371 m f*
q 1 0 0 -1 0 333 cm
620.996 166.629 m 635.516 161.34 l 620.996 156.055 l h
620.996 166.629 m S Q
1 j
q 1 0 0 -1 0 333 cm
568.965 221.414 m 640.195 221.414 l S Q
568.965 116.871 m 554.441 111.586 l 568.965 106.301 l h
568.965 116.871 m f*
0 j
q 1 0 0 -1 0 333 cm
568.965 216.129 m 554.441 221.414 l 568.965 226.699 l h
568.965 216.129 m S Q
0.956863 0.8 0.8 rg
591.039 278.992 139.566 -35.199 re f
0 g
1.6 w
1 j
q 1 0 0 -1 0 333 cm
591.039 54.008 139.566 35.199 re S Q
618.785 259.355 m 620.137 259.469 l 620.203 258.926 620.355 258.48 
620.586 258.133 c 620.82 257.781 621.184 257.5 621.676 257.281 c 
622.176 257.066 622.734 256.957 623.348 256.957 c 623.898 256.957 
624.383 257.039 624.801 257.207 c 625.223 257.375 625.543 257.598 
625.75 257.883 c 625.957 258.164 626.062 258.473 626.062 258.809 c 
626.062 259.148 625.961 259.445 625.762 259.695 c 625.562 259.953 
625.234 260.168 624.773 260.344 c 624.484 260.461 623.836 260.637 
622.836 260.871 c 621.836 261.109 621.137 261.34 620.738 261.559 c 
620.219 261.832 619.832 262.168 619.574 262.57 c 619.324 262.969 
619.199 263.418 619.199 263.918 c 619.199 264.469 619.355 264.98 619.66 
265.457 c 619.98 265.941 620.434 266.301 621.023 266.543 c 621.625 
266.793 622.293 266.918 623.023 266.918 c 623.832 266.918 624.547 
266.789 625.16 266.531 c 625.777 266.273 626.25 265.891 626.574 265.383 
c 626.906 264.883 627.086 264.312 627.113 263.668 c 625.738 263.57 l 
625.66 264.254 625.406 264.77 624.973 265.121 c 624.551 265.477 623.922 
265.656 623.086 265.656 c 622.219 265.656 621.586 265.496 621.188 
265.168 c 620.785 264.852 620.586 264.469 620.586 264.02 c 620.586 
263.629 620.73 263.309 621.012 263.059 c 621.285 262.809 622.008 
262.547 623.176 262.281 c 624.348 262.016 625.152 261.781 625.586 
261.582 c 626.219 261.289 626.688 260.918 626.988 260.469 c 627.297 
260.027 627.449 259.516 627.449 258.934 c 627.449 258.348 627.281 
257.797 626.949 257.281 c 626.617 256.773 626.137 256.379 625.512 
256.094 c 624.895 255.812 624.199 255.668 623.426 255.668 c 622.441 
255.668 621.617 255.812 620.949 256.094 c 620.281 256.387 619.758 
256.82 619.375 257.395 c 619 257.969 618.805 258.625 618.785 259.355 c 
h
629.23 255.855 m 629.23 266.73 l 633.328 266.73 l 634.055 266.73 
634.609 266.699 634.992 266.633 c 635.523 266.539 635.973 266.371 
636.328 266.121 c 636.688 265.871 636.977 265.52 637.191 265.07 c 
637.418 264.621 637.531 264.129 637.531 263.594 c 637.531 262.668 
637.234 261.887 636.641 261.246 c 636.059 260.602 634.996 260.281 
633.453 260.281 c 630.668 260.281 l 630.668 255.855 l 629.23 255.855 l 
h
630.668 261.57 m 633.48 261.57 l 634.414 261.57 635.07 261.738 635.453 
262.082 c 635.848 262.434 636.043 262.918 636.043 263.543 c 636.043 
264.004 635.926 264.395 635.691 264.719 c 635.469 265.043 635.168 
265.258 634.793 265.355 c 634.551 265.422 634.105 265.457 633.453 
265.457 c 630.668 265.457 l 630.668 261.57 l h
639.422 255.855 m 639.422 266.73 l 640.871 266.73 l 640.871 255.855 l 
639.422 255.855 l h
647.316 265.207 m 647.316 266.73 l 648.652 266.73 l 648.652 265.207 l 
647.316 265.207 l h
647.316 255.855 m 647.316 263.746 l 648.652 263.746 l 648.652 255.855 l 
647.316 255.855 l h
650.617 255.855 m 650.617 263.746 l 651.82 263.746 l 651.82 262.621 l 
652.402 263.484 653.238 263.918 654.332 263.918 c 654.805 263.918 
655.242 263.832 655.645 263.656 c 656.043 263.488 656.34 263.266 
656.531 262.98 c 656.73 262.707 656.871 262.383 656.957 262.008 c 
657.008 261.758 657.031 261.324 657.031 260.707 c 657.031 255.855 l 
655.695 255.855 l 655.695 260.656 l 655.695 261.199 655.641 261.602 
655.531 261.871 c 655.43 262.145 655.246 262.359 654.98 262.52 c 
654.715 262.676 654.402 262.758 654.043 262.758 c 653.477 262.758 
652.984 262.578 652.57 262.219 c 652.16 261.859 651.957 261.172 651.957 
260.156 c 651.957 255.855 l 650.617 255.855 l h
661.844 257.059 m 662.031 255.871 l 661.656 255.793 661.32 255.758 
661.02 255.758 c 660.535 255.758 660.16 255.832 659.895 255.98 c 
659.629 256.141 659.441 256.34 659.332 256.582 c 659.223 256.832 
659.168 257.359 659.168 258.168 c 659.168 262.695 l 658.18 262.695 l 
658.18 263.746 l 659.168 263.746 l 659.168 265.695 l 660.492 266.496 l 
660.492 263.746 l 661.844 263.746 l 661.844 262.695 l 660.492 262.695 l 
660.492 258.094 l 660.492 257.711 660.516 257.465 660.555 257.355 c 
660.605 257.25 660.688 257.16 660.793 257.094 c 660.902 257.027 661.055 
256.996 661.258 256.996 c 661.398 256.996 661.594 257.016 661.844 
257.059 c h
668.465 258.395 m 669.84 258.219 l 669.625 257.418 669.219 256.793 
668.629 256.344 c 668.043 255.902 667.293 255.684 666.379 255.684 c 
665.227 255.684 664.316 256.035 663.641 256.746 c 662.965 257.453 
662.629 258.449 662.629 259.73 c 662.629 261.059 662.965 262.086 
663.641 262.82 c 664.324 263.551 665.211 263.918 666.305 263.918 c 
667.363 263.918 668.223 263.562 668.891 262.844 c 669.559 262.129 
669.891 261.113 669.891 259.809 c 669.891 259.73 669.887 259.613 
669.879 259.457 c 664.004 259.457 l 664.055 258.59 664.301 257.926 
664.742 257.469 c 665.184 257.012 665.73 256.781 666.391 256.781 c 
666.875 256.781 667.285 256.906 667.629 257.156 c 667.977 257.414 
668.258 257.828 668.465 258.395 c h
664.078 260.559 m 668.477 260.559 l 668.418 261.215 668.254 261.711 
667.977 262.043 c 667.555 262.562 667 262.82 666.316 262.82 c 665.707 
262.82 665.191 262.609 664.766 262.195 c 664.348 261.785 664.121 
261.238 664.078 260.559 c h
671.355 255.855 m 671.355 263.746 l 672.555 263.746 l 672.555 262.543 l 
672.863 263.102 673.145 263.469 673.402 263.645 c 673.66 263.828 
673.949 263.918 674.266 263.918 c 674.715 263.918 675.176 263.773 
675.641 263.48 c 675.18 262.246 l 674.855 262.438 674.523 262.531 
674.191 262.531 c 673.898 262.531 673.637 262.445 673.402 262.27 c 
673.18 262.094 673.016 261.852 672.918 261.543 c 672.766 261.07 672.691 
260.547 672.691 259.98 c 672.691 255.855 l 671.355 255.855 l h
676.66 255.855 m 676.66 262.695 l 675.473 262.695 l 675.473 263.746 l 
676.66 263.746 l 676.66 264.582 l 676.66 265.105 676.707 265.5 676.797 
265.758 c 676.922 266.105 677.148 266.387 677.473 266.594 c 677.797 
266.812 678.254 266.918 678.836 266.918 c 679.211 266.918 679.629 
266.879 680.086 266.793 c 679.887 265.621 l 679.609 265.668 679.348 
265.695 679.098 265.695 c 678.691 265.695 678.402 265.605 678.234 
265.434 c 678.07 265.266 677.984 264.945 677.984 264.469 c 677.984 
263.746 l 679.523 263.746 l 679.523 262.695 l 677.984 262.695 l 677.984 
255.855 l 676.66 255.855 l h
685.633 256.832 m 685.133 256.406 684.652 256.105 684.195 255.934 c 
683.738 255.766 683.246 255.684 682.719 255.684 c 681.863 255.684 
681.199 255.891 680.734 256.309 c 680.266 256.73 680.031 257.273 
680.031 257.934 c 680.031 258.324 680.121 258.676 680.297 258.996 c 
680.469 259.312 680.699 259.566 680.984 259.758 c 681.266 259.949 
681.586 260.094 681.945 260.195 c 682.211 260.27 682.609 260.336 
683.133 260.395 c 684.215 260.527 685.012 260.684 685.52 260.855 c 
685.52 261.207 l 685.52 261.75 685.395 262.133 685.145 262.355 c 
684.805 262.656 684.297 262.809 683.621 262.809 c 682.996 262.809 
682.531 262.699 682.234 262.48 c 681.934 262.266 681.711 261.875 681.57 
261.309 c 680.258 261.496 l 680.383 262.051 680.578 262.504 680.844 
262.844 c 681.121 263.188 681.512 263.449 682.02 263.633 c 682.539 
263.824 683.137 263.918 683.82 263.918 c 684.496 263.918 685.043 263.84 
685.457 263.684 c 685.875 263.523 686.184 263.324 686.383 263.082 c 
686.582 262.84 686.719 262.535 686.797 262.168 c 686.844 261.945 
686.871 261.535 686.871 260.945 c 686.871 259.156 l 686.871 257.914 
686.895 257.129 686.945 256.793 c 687.004 256.469 687.121 256.156 
687.297 255.855 c 685.895 255.855 l 685.754 256.133 685.668 256.457 
685.633 256.832 c h
685.52 259.809 m 685.039 259.613 684.309 259.449 683.332 259.309 c 
682.781 259.23 682.395 259.145 682.172 259.043 c 681.945 258.945 681.77 
258.797 681.645 258.605 c 681.52 258.414 681.457 258.203 681.457 
257.969 c 681.457 257.609 681.59 257.312 681.859 257.07 c 682.133 
256.836 682.527 256.719 683.047 256.719 c 683.562 256.719 684.02 
256.832 684.422 257.059 c 684.82 257.289 685.117 257.598 685.309 257.98 
c 685.449 258.289 685.52 258.734 685.52 259.32 c 685.52 259.809 l h
693.934 258.746 m 695.246 258.57 l 695.105 257.668 694.738 256.961 
694.145 256.445 c 693.555 255.938 692.824 255.684 691.957 255.684 c 
690.883 255.684 690.016 256.031 689.359 256.73 c 688.707 257.441 
688.383 258.453 688.383 259.77 c 688.383 260.621 688.52 261.359 688.797 
261.996 c 689.078 262.637 689.508 263.113 690.082 263.434 c 690.668 
263.758 691.297 263.918 691.973 263.918 c 692.828 263.918 693.531 
263.703 694.07 263.27 c 694.613 262.836 694.961 262.219 695.121 261.418 
c 693.82 261.219 l 693.695 261.754 693.477 262.152 693.16 262.418 c 
692.844 262.688 692.461 262.82 692.02 262.82 c 691.348 262.82 690.797 
262.578 690.371 262.094 c 689.953 261.609 689.746 260.848 689.746 
259.809 c 689.746 258.75 689.949 257.977 690.359 257.496 c 690.766 
257.02 691.297 256.781 691.945 256.781 c 692.473 256.781 692.91 256.941 
693.258 257.258 c 693.609 257.582 693.832 258.078 693.934 258.746 c h
701.645 258.395 m 703.02 258.219 l 702.805 257.418 702.398 256.793 
701.809 256.344 c 701.227 255.902 700.477 255.684 699.559 255.684 c 
698.41 255.684 697.496 256.035 696.82 256.746 c 696.145 257.453 695.809 
258.449 695.809 259.73 c 695.809 261.059 696.145 262.086 696.82 262.82 
c 697.504 263.551 698.391 263.918 699.484 263.918 c 700.543 263.918 
701.406 263.562 702.07 262.844 c 702.738 262.129 703.07 261.113 703.07 
259.809 c 703.07 259.73 703.066 259.613 703.059 259.457 c 697.184 
259.457 l 697.234 258.59 697.48 257.926 697.922 257.469 c 698.363 
257.012 698.914 256.781 699.57 256.781 c 700.055 256.781 700.469 
256.906 700.809 257.156 c 701.16 257.414 701.438 257.828 701.645 
258.395 c h
697.258 260.559 m 701.66 260.559 l 701.602 261.215 701.434 261.711 
701.16 262.043 c 700.734 262.562 700.18 262.82 699.496 262.82 c 698.887 
262.82 698.371 262.609 697.945 262.195 c 697.531 261.785 697.301 
261.238 697.258 260.559 c h
697.258 260.559 m f
0.956863 0.8 0.8 rg
591.039 217.852 139.566 -35.199 re f
0 g
q 1 0 0 -1 0 333 cm
591.039 115.148 139.566 35.199 re S Q
619.926 194.715 m 619.926 205.59 l 621.379 205.59 l 621.379 194.715 l 
619.926 194.715 l h
630.312 196.004 m 630.312 194.715 l 623.125 194.715 l 623.117 195.043 
623.164 195.352 623.273 195.641 c 623.457 196.133 623.75 196.617 
624.148 197.09 c 624.559 197.566 625.141 198.117 625.898 198.742 c 
627.082 199.707 627.883 200.477 628.301 201.043 c 628.715 201.609 
628.926 202.145 628.926 202.652 c 628.926 203.18 628.73 203.625 628.348 
203.992 c 627.973 204.359 627.48 204.543 626.875 204.543 c 626.23 
204.543 625.715 204.344 625.324 203.953 c 624.941 203.57 624.75 203.039 
624.75 202.355 c 623.375 202.492 l 623.465 203.516 623.82 204.297 
624.438 204.828 c 625.055 205.371 625.879 205.641 626.91 205.641 c 
627.953 205.641 628.777 205.352 629.387 204.766 c 629.996 204.191 
630.301 203.477 630.301 202.617 c 630.301 202.184 630.207 201.754 
630.023 201.328 c 629.848 200.914 629.555 200.469 629.137 200.004 c 
628.727 199.547 628.043 198.906 627.086 198.09 c 626.285 197.418 625.77 
196.957 625.535 196.715 c 625.312 196.484 625.125 196.246 624.973 
196.004 c 630.312 196.004 l h
639.898 198.527 m 641.336 198.168 l 641.039 196.984 640.496 196.078 
639.711 195.453 c 638.93 194.836 637.969 194.527 636.836 194.527 c 
635.664 194.527 634.707 194.766 633.977 195.242 c 633.242 195.727 
632.684 196.418 632.301 197.316 c 631.918 198.227 631.727 199.199 
631.727 200.242 c 631.727 201.375 631.938 202.363 632.363 203.203 c 
632.797 204.047 633.414 204.684 634.211 205.117 c 635.012 205.559 
635.891 205.777 636.852 205.777 c 637.941 205.777 638.859 205.5 639.602 
204.941 c 640.34 204.391 640.859 203.617 641.148 202.617 c 639.738 
202.277 l 639.488 203.07 639.121 203.645 638.637 204.004 c 638.152 
204.371 637.551 204.555 636.824 204.555 c 635.992 204.555 635.293 
204.355 634.727 203.953 c 634.168 203.555 633.77 203.012 633.539 
202.328 c 633.312 201.652 633.199 200.957 633.199 200.242 c 633.199 
199.316 633.332 198.508 633.602 197.816 c 633.875 197.133 634.297 
196.621 634.863 196.277 c 635.438 195.938 636.055 195.766 636.711 
195.766 c 637.52 195.766 638.203 195.996 638.762 196.453 c 639.32 
196.922 639.699 197.613 639.898 198.527 c h
646.898 204.066 m 646.898 205.59 l 648.238 205.59 l 648.238 204.066 l 
646.898 204.066 l h
646.898 194.715 m 646.898 202.605 l 648.238 202.605 l 648.238 194.715 l 
646.898 194.715 l h
650.203 194.715 m 650.203 202.605 l 651.402 202.605 l 651.402 201.48 l 
651.988 202.344 652.824 202.777 653.914 202.777 c 654.391 202.777 
654.828 202.691 655.227 202.516 c 655.629 202.352 655.926 202.125 
656.117 201.84 c 656.316 201.566 656.457 201.242 656.539 200.867 c 
656.59 200.617 656.617 200.184 656.617 199.566 c 656.617 194.715 l 
655.277 194.715 l 655.277 199.516 l 655.277 200.059 655.223 200.461 
655.117 200.73 c 655.016 201.004 654.832 201.219 654.566 201.379 c 
654.301 201.539 653.988 201.617 653.629 201.617 c 653.062 201.617 
652.57 201.438 652.152 201.078 c 651.746 200.719 651.539 200.031 
651.539 199.016 c 651.539 194.715 l 650.203 194.715 l h
661.43 195.918 m 661.617 194.73 l 661.242 194.652 660.902 194.617 
660.605 194.617 c 660.121 194.617 659.746 194.691 659.48 194.84 c 
659.211 195 659.023 195.199 658.918 195.441 c 658.809 195.691 658.754 
196.219 658.754 197.027 c 658.754 201.555 l 657.766 201.555 l 657.766 
202.605 l 658.754 202.605 l 658.754 204.555 l 660.078 205.355 l 660.078 
202.605 l 661.43 202.605 l 661.43 201.555 l 660.078 201.555 l 660.078 
196.953 l 660.078 196.57 660.098 196.324 660.141 196.215 c 660.191 
196.109 660.27 196.02 660.379 195.953 c 660.488 195.887 660.641 195.855 
660.84 195.855 c 660.984 195.855 661.18 195.875 661.43 195.918 c h
668.051 197.254 m 669.426 197.078 l 669.207 196.277 668.805 195.652 
668.211 195.203 c 667.629 194.762 666.879 194.543 665.961 194.543 c 
664.812 194.543 663.898 194.895 663.227 195.605 c 662.551 196.312 
662.211 197.309 662.211 198.59 c 662.211 199.918 662.551 200.945 
663.227 201.68 c 663.91 202.414 664.797 202.777 665.887 202.777 c 
666.945 202.777 667.809 202.422 668.477 201.703 c 669.141 200.988 
669.477 199.977 669.477 198.668 c 669.477 198.59 669.473 198.477 
669.461 198.316 c 663.586 198.316 l 663.637 197.449 663.883 196.789 
664.324 196.328 c 664.766 195.871 665.316 195.641 665.977 195.641 c 
666.457 195.641 666.871 195.766 667.211 196.016 c 667.562 196.273 
667.844 196.688 668.051 197.254 c h
663.664 199.418 m 668.062 199.418 l 668.004 200.074 667.836 200.57 
667.562 200.902 c 667.137 201.422 666.582 201.68 665.898 201.68 c 
665.293 201.68 664.773 201.469 664.352 201.055 c 663.934 200.645 
663.703 200.102 663.664 199.418 c h
670.938 194.715 m 670.938 202.605 l 672.137 202.605 l 672.137 201.402 l 
672.445 201.961 672.73 202.328 672.988 202.504 c 673.246 202.688 
673.535 202.777 673.852 202.777 c 674.301 202.777 674.758 202.633 
675.227 202.34 c 674.762 201.105 l 674.438 201.297 674.109 201.391 
673.777 201.391 c 673.484 201.391 673.223 201.305 672.988 201.129 c 
672.762 200.953 672.602 200.711 672.5 200.402 c 672.352 199.93 672.277 
199.406 672.277 198.84 c 672.277 194.715 l 670.938 194.715 l h
676.246 194.715 m 676.246 201.555 l 675.059 201.555 l 675.059 202.605 l 
676.246 202.605 l 676.246 203.441 l 676.246 203.965 676.293 204.359 
676.383 204.617 c 676.508 204.965 676.734 205.246 677.059 205.453 c 
677.383 205.672 677.836 205.777 678.422 205.777 c 678.797 205.777 
679.211 205.738 679.672 205.652 c 679.473 204.48 l 679.195 204.527 
678.934 204.555 678.684 204.555 c 678.273 204.555 677.988 204.465 
677.82 204.293 c 677.652 204.125 677.57 203.805 677.57 203.328 c 677.57 
202.605 l 679.109 202.605 l 679.109 201.555 l 677.57 201.555 l 677.57 
194.715 l 676.246 194.715 l h
685.219 195.691 m 684.719 195.266 684.238 194.965 683.781 194.793 c 
683.32 194.625 682.828 194.543 682.305 194.543 c 681.445 194.543 
680.785 194.75 680.316 195.168 c 679.852 195.59 679.617 196.133 679.617 
196.793 c 679.617 197.184 679.703 197.539 679.879 197.855 c 680.055 
198.172 680.285 198.426 680.566 198.617 c 680.852 198.809 681.172 
198.953 681.531 199.055 c 681.797 199.129 682.191 199.195 682.719 
199.254 c 683.801 199.387 684.598 199.543 685.105 199.715 c 685.105 
200.066 l 685.105 200.609 684.98 200.992 684.73 201.215 c 684.387 
201.516 683.879 201.668 683.203 201.668 c 682.578 201.668 682.117 
201.559 681.816 201.34 c 681.516 201.125 681.297 200.734 681.156 
200.168 c 679.844 200.355 l 679.969 200.914 680.164 201.363 680.43 
201.703 c 680.703 202.047 681.098 202.309 681.605 202.492 c 682.121 
202.684 682.723 202.777 683.406 202.777 c 684.078 202.777 684.625 
202.699 685.043 202.543 c 685.461 202.383 685.766 202.184 685.969 
201.941 c 686.168 201.699 686.305 201.395 686.379 201.027 c 686.43 
200.805 686.453 200.395 686.453 199.805 c 686.453 198.016 l 686.453 
196.773 686.48 195.988 686.531 195.652 c 686.59 195.328 686.703 195.016 
686.879 194.715 c 685.48 194.715 l 685.34 194.992 685.25 195.316 
685.219 195.691 c h
685.105 198.668 m 684.621 198.477 683.891 198.309 682.918 198.168 c 
682.367 198.09 681.98 198.004 681.754 197.902 c 681.531 197.805 681.355 
197.656 681.23 197.465 c 681.105 197.273 681.043 197.062 681.043 
196.828 c 681.043 196.469 681.176 196.172 681.441 195.93 c 681.719 
195.695 682.113 195.578 682.629 195.578 c 683.148 195.578 683.605 
195.691 684.004 195.918 c 684.406 196.148 684.699 196.457 684.891 
196.84 c 685.035 197.148 685.105 197.594 685.105 198.18 c 685.105 
198.668 l h
693.52 197.605 m 694.832 197.43 l 694.688 196.527 694.324 195.82 693.73 
195.305 c 693.141 194.797 692.41 194.543 691.543 194.543 c 690.469 
194.543 689.602 194.891 688.941 195.59 c 688.293 196.301 687.969 
197.312 687.969 198.629 c 687.969 199.48 688.105 200.219 688.379 
200.855 c 688.664 201.496 689.094 201.977 689.668 202.293 c 690.25 
202.617 690.879 202.777 691.555 202.777 c 692.414 202.777 693.113 
202.562 693.656 202.129 c 694.199 201.695 694.547 201.078 694.707 
200.277 c 693.406 200.078 l 693.281 200.613 693.059 201.012 692.742 
201.277 c 692.426 201.547 692.047 201.68 691.605 201.68 c 690.93 201.68 
690.379 201.438 689.957 200.953 c 689.539 200.469 689.332 199.707 
689.332 198.668 c 689.332 197.609 689.535 196.836 689.941 196.355 c 
690.352 195.879 690.879 195.641 691.531 195.641 c 692.055 195.641 
692.492 195.801 692.844 196.117 c 693.191 196.441 693.418 196.938 
693.52 197.605 c h
701.23 197.254 m 702.605 197.078 l 702.391 196.277 701.984 195.652 
701.395 195.203 c 700.809 194.762 700.059 194.543 699.145 194.543 c 
697.992 194.543 697.082 194.895 696.406 195.605 c 695.73 196.312 
695.395 197.309 695.395 198.59 c 695.395 199.918 695.73 200.945 696.406 
201.68 c 697.09 202.414 697.977 202.777 699.066 202.777 c 700.125 
202.777 700.988 202.422 701.656 201.703 c 702.324 200.988 702.656 
199.977 702.656 198.668 c 702.656 198.59 702.652 198.477 702.645 
198.316 c 696.77 198.316 l 696.816 197.449 697.062 196.789 697.504 
196.328 c 697.949 195.871 698.496 195.641 699.156 195.641 c 699.641 
195.641 700.051 195.766 700.395 196.016 c 700.742 196.273 701.023 
196.688 701.23 197.254 c h
696.844 199.418 m 701.242 199.418 l 701.184 200.074 701.02 200.57 
700.742 200.902 c 700.316 201.422 699.766 201.68 699.082 201.68 c 
698.473 201.68 697.957 201.469 697.531 201.055 c 697.113 200.645 
696.887 200.102 696.844 199.418 c h
696.844 199.418 m f
0.956863 0.8 0.8 rg
591.039 159.223 139.566 -35.199 re f
0 g
q 1 0 0 -1 0 333 cm
591.039 173.777 139.566 35.199 re S Q
628.445 136.086 m 632.633 146.961 l 634.184 146.961 l 638.633 136.086 l 
636.996 136.086 l 635.719 139.387 l 631.168 139.387 l 629.98 136.086 l 
628.445 136.086 l h
631.582 140.547 m 635.27 140.547 l 634.145 143.574 l 633.793 144.48 
633.535 145.23 633.371 145.824 c 633.227 145.121 633.031 144.43 632.781 
143.746 c 631.582 140.547 l h
639.602 136.086 m 639.602 146.961 l 643.352 146.961 l 644.191 146.961 
644.836 146.91 645.289 146.809 c 645.902 146.668 646.434 146.41 646.875 
146.035 c 647.449 145.543 647.879 144.918 648.164 144.16 c 648.445 
143.41 648.586 142.551 648.586 141.586 c 648.586 140.762 648.492 
140.027 648.301 139.387 c 648.109 138.754 647.863 138.223 647.562 
137.797 c 647.262 137.383 646.934 137.051 646.574 136.809 c 646.215 
136.578 645.781 136.398 645.273 136.273 c 644.766 136.148 644.184 
136.086 643.523 136.086 c 639.602 136.086 l h
641.039 137.371 m 643.363 137.371 l 644.078 137.371 644.641 137.441 
645.051 137.574 c 645.457 137.707 645.781 137.895 646.023 138.137 c 
646.367 138.477 646.633 138.934 646.824 139.512 c 647.016 140.086 
647.113 140.785 647.113 141.609 c 647.113 142.742 646.926 143.613 
646.551 144.223 c 646.176 144.84 645.719 145.254 645.188 145.461 c 
644.805 145.609 644.184 145.684 643.324 145.684 c 641.039 145.684 l 
641.039 137.371 l h
658.141 139.898 m 659.578 139.535 l 659.277 138.352 658.738 137.449 
657.953 136.824 c 657.168 136.207 656.211 135.898 655.078 135.898 c 
653.902 135.898 652.949 136.137 652.215 136.609 c 651.48 137.094 
650.926 137.785 650.539 138.684 c 650.156 139.594 649.965 140.57 
649.965 141.609 c 649.965 142.742 650.18 143.73 650.602 144.574 c 
651.035 145.414 651.652 146.051 652.453 146.484 c 653.254 146.926 
654.133 147.148 655.09 147.148 c 656.184 147.148 657.098 146.867 657.84 
146.309 c 658.582 145.762 659.098 144.984 659.391 143.984 c 657.977 
143.648 l 657.727 144.441 657.363 145.016 656.879 145.371 c 656.395 
145.738 655.789 145.922 655.066 145.922 c 654.23 145.922 653.531 
145.723 652.965 145.324 c 652.406 144.922 652.012 144.383 651.777 
143.699 c 651.555 143.023 651.441 142.328 651.441 141.609 c 651.441 
140.684 651.574 139.879 651.84 139.184 c 652.117 138.504 652.535 
137.988 653.102 137.648 c 653.68 137.305 654.293 137.137 654.953 
137.137 c 655.762 137.137 656.445 137.363 657.004 137.824 c 657.562 
138.289 657.941 138.98 658.141 139.898 c h
670.242 136.086 m 670.242 137.086 l 669.742 136.301 669.008 135.91 
668.039 135.91 c 667.414 135.91 666.836 136.082 666.305 136.422 c 
665.777 136.773 665.371 137.258 665.078 137.871 c 664.793 138.496 
664.652 139.215 664.652 140.023 c 664.652 140.805 664.781 141.52 
665.039 142.16 c 665.309 142.801 665.699 143.293 666.215 143.637 c 
666.742 143.977 667.328 144.148 667.977 144.148 c 668.453 144.148 
668.875 144.047 669.242 143.848 c 669.617 143.648 669.918 143.387 
670.152 143.059 c 670.152 146.961 l 671.477 146.961 l 671.477 136.086 l 
670.242 136.086 l h
666.016 140.023 m 666.016 139.016 666.227 138.262 666.652 137.762 c 
667.086 137.262 667.59 137.012 668.164 137.012 c 668.75 137.012 669.246 
137.246 669.652 137.723 c 670.062 138.199 670.266 138.926 670.266 
139.91 c 670.266 140.984 670.059 141.773 669.641 142.273 c 669.223 
142.781 668.711 143.035 668.102 143.035 c 667.512 143.035 667.016 
142.793 666.617 142.309 c 666.215 141.828 666.016 141.066 666.016 
140.023 c h
678.578 137.059 m 678.078 136.637 677.598 136.336 677.141 136.16 c 
676.684 135.992 676.191 135.91 675.668 135.91 c 674.809 135.91 674.145 
136.117 673.68 136.535 c 673.211 136.961 672.98 137.504 672.98 138.16 c 
672.98 138.551 673.066 138.906 673.242 139.223 c 673.418 139.539 
673.645 139.793 673.93 139.984 c 674.211 140.176 674.531 140.324 
674.891 140.422 c 675.156 140.496 675.555 140.566 676.078 140.621 c 
677.16 140.758 677.957 140.91 678.465 141.086 c 678.465 141.434 l 
678.465 141.977 678.34 142.359 678.09 142.586 c 677.75 142.887 677.242 
143.035 676.566 143.035 c 675.941 143.035 675.48 142.926 675.18 142.711 
c 674.879 142.492 674.656 142.102 674.516 141.535 c 673.203 141.723 l 
673.328 142.281 673.523 142.73 673.793 143.074 c 674.066 143.414 
674.457 143.676 674.965 143.859 c 675.484 144.051 676.082 144.148 
676.766 144.148 c 677.441 144.148 677.988 144.07 678.402 143.91 c 
678.82 143.754 679.129 143.551 679.328 143.309 c 679.527 143.07 679.668 
142.766 679.742 142.398 c 679.793 142.172 679.816 141.766 679.816 
141.172 c 679.816 139.387 l 679.816 138.145 679.84 137.355 679.891 
137.023 c 679.949 136.699 680.066 136.387 680.242 136.086 c 678.84 
136.086 l 678.699 136.359 678.613 136.684 678.578 137.059 c h
678.465 140.035 m 677.984 139.844 677.254 139.676 676.277 139.535 c 
675.73 139.461 675.34 139.371 675.117 139.273 c 674.891 139.172 674.715 
139.027 674.59 138.836 c 674.465 138.645 674.402 138.43 674.402 138.199 
c 674.402 137.84 674.535 137.539 674.805 137.297 c 675.078 137.066 
675.473 136.949 675.992 136.949 c 676.508 136.949 676.965 137.059 
677.367 137.285 c 677.766 137.52 678.062 137.828 678.254 138.211 c 
678.395 138.52 678.465 138.965 678.465 139.547 c 678.465 140.035 l h
684.652 137.285 m 684.84 136.098 l 684.465 136.023 684.129 135.984 
683.828 135.984 c 683.348 135.984 682.973 136.059 682.703 136.211 c 
682.438 136.367 682.25 136.57 682.141 136.809 c 682.035 137.059 681.98 
137.59 681.98 138.398 c 681.98 142.922 l 680.992 142.922 l 680.992 
143.973 l 681.98 143.973 l 681.98 145.922 l 683.305 146.723 l 683.305 
143.973 l 684.652 143.973 l 684.652 142.922 l 683.305 142.922 l 683.305 
138.324 l 683.305 137.941 683.324 137.695 683.367 137.586 c 683.418 
137.477 683.496 137.391 683.605 137.324 c 683.711 137.258 683.867 
137.223 684.066 137.223 c 684.207 137.223 684.402 137.242 684.652 
137.285 c h
691.027 137.059 m 690.527 136.637 690.047 136.336 689.59 136.16 c 
689.129 135.992 688.637 135.91 688.113 135.91 c 687.254 135.91 686.594 
136.117 686.125 136.535 c 685.66 136.961 685.426 137.504 685.426 138.16 
c 685.426 138.551 685.512 138.906 685.688 139.223 c 685.863 139.539 
686.094 139.793 686.375 139.984 c 686.66 140.176 686.98 140.324 687.34 
140.422 c 687.605 140.496 688 140.566 688.527 140.621 c 689.609 140.758 
690.406 140.91 690.914 141.086 c 690.914 141.434 l 690.914 141.977 
690.789 142.359 690.539 142.586 c 690.195 142.887 689.688 143.035 
689.012 143.035 c 688.387 143.035 687.926 142.926 687.625 142.711 c 
687.324 142.492 687.105 142.102 686.965 141.535 c 685.652 141.723 l 
685.777 142.281 685.973 142.73 686.238 143.074 c 686.512 143.414 
686.906 143.676 687.414 143.859 c 687.93 144.051 688.531 144.148 
689.215 144.148 c 689.887 144.148 690.434 144.07 690.852 143.91 c 
691.266 143.754 691.574 143.551 691.777 143.309 c 691.977 143.07 
692.113 142.766 692.188 142.398 c 692.238 142.172 692.262 141.766 
692.262 141.172 c 692.262 139.387 l 692.262 138.145 692.289 137.355 
692.34 137.023 c 692.398 136.699 692.512 136.387 692.688 136.086 c 
691.289 136.086 l 691.148 136.359 691.059 136.684 691.027 137.059 c h
690.914 140.035 m 690.43 139.844 689.699 139.676 688.727 139.535 c 
688.176 139.461 687.789 139.371 687.562 139.273 c 687.34 139.172 
687.164 139.027 687.039 138.836 c 686.914 138.645 686.852 138.43 
686.852 138.199 c 686.852 137.84 686.984 137.539 687.25 137.297 c 
687.527 137.066 687.922 136.949 688.438 136.949 c 688.953 136.949 
689.414 137.059 689.812 137.285 c 690.215 137.52 690.508 137.828 
690.699 138.211 c 690.844 138.52 690.914 138.965 690.914 139.547 c 
690.914 140.035 l h
690.914 140.035 m f
[ 1.6 4.8] 0 d
q 1 0 0 -1 0 333 cm
660.824 89.207 m 590.422 103.77 l S Q
[ 1.6 4.8] 0 d
q 1 0 0 -1 0 333 cm
660.824 150.348 m 589.82 160.805 l S Q
[ 1.6 4.8] 0 d
q 1 0 0 -1 0 333 cm
660.824 208.977 m 599.543 221.477 l S Q
1 g
51.105 170.133 193.031 -57.023 re f
0 g
[] 0.0 d
q 1 0 0 -1 0 333 cm
51.105 162.867 193.031 57.023 re S Q
81.434 136.086 m 81.434 143.973 l 82.633 143.973 l 82.633 142.848 l 
83.219 143.715 84.055 144.148 85.148 144.148 c 85.621 144.148 86.059 
144.059 86.461 143.887 c 86.859 143.719 87.156 143.492 87.348 143.211 c 
87.547 142.934 87.688 142.609 87.773 142.234 c 87.82 141.984 87.848 
141.551 87.848 140.934 c 87.848 136.086 l 86.508 136.086 l 86.508 
140.887 l 86.508 141.426 86.453 141.832 86.348 142.098 c 86.246 142.371 
86.062 142.59 85.797 142.746 c 85.531 142.906 85.219 142.984 84.859 
142.984 c 84.293 142.984 83.801 142.805 83.383 142.449 c 82.977 142.09 
82.773 141.402 82.773 140.387 c 82.773 136.086 l 81.434 136.086 l h
89.234 140.023 m 89.234 141.48 89.645 142.566 90.461 143.273 c 91.133 
143.855 91.961 144.148 92.934 144.148 c 94.02 144.148 94.902 143.789 
95.586 143.074 c 96.277 142.363 96.621 141.387 96.621 140.137 c 96.621 
139.117 96.469 138.32 96.16 137.734 c 95.859 137.16 95.418 136.711 
94.836 136.387 c 94.258 136.07 93.625 135.91 92.934 135.91 c 91.836 
135.91 90.941 136.266 90.258 136.973 c 89.578 137.68 89.234 138.699 
89.234 140.023 c h
90.609 140.023 m 90.609 139.016 90.832 138.262 91.273 137.762 c 91.715 
137.262 92.27 137.012 92.934 137.012 c 93.602 137.012 94.152 137.262 
94.586 137.762 c 95.027 138.27 95.246 139.039 95.246 140.074 c 95.246 
141.047 95.027 141.785 94.586 142.285 c 94.145 142.785 93.594 143.035 
92.934 143.035 c 92.27 143.035 91.715 142.785 91.273 142.285 c 90.832 
141.785 90.609 141.031 90.609 140.023 c h
98.035 136.086 m 98.035 143.973 l 99.234 143.973 l 99.234 142.848 l 
99.82 143.715 100.656 144.148 101.746 144.148 c 102.223 144.148 102.66 
144.059 103.059 143.887 c 103.461 143.719 103.758 143.492 103.949 
143.211 c 104.148 142.934 104.289 142.609 104.371 142.234 c 104.422 
141.984 104.449 141.551 104.449 140.934 c 104.449 136.086 l 103.109 
136.086 l 103.109 140.887 l 103.109 141.426 103.055 141.832 102.949 
142.098 c 102.848 142.371 102.664 142.59 102.398 142.746 c 102.133 
142.906 101.82 142.984 101.461 142.984 c 100.895 142.984 100.402 
142.805 99.984 142.449 c 99.578 142.09 99.371 141.402 99.371 140.387 c 
99.371 136.086 l 98.035 136.086 l h
105.824 139.348 m 105.824 140.699 l 109.922 140.699 l 109.922 139.348 l 
105.824 139.348 l h
113.492 136.086 m 110.492 143.973 l 111.906 143.973 l 113.605 139.246 l 
113.789 138.738 113.957 138.211 114.105 137.66 c 114.223 138.078 
114.391 138.578 114.605 139.16 c 116.355 143.973 l 117.73 143.973 l 
114.742 136.086 l 113.492 136.086 l h
118.27 140.023 m 118.27 141.48 118.676 142.566 119.492 143.273 c 
120.168 143.855 120.992 144.148 121.969 144.148 c 123.051 144.148 
123.934 143.789 124.617 143.074 c 125.309 142.363 125.656 141.387 
125.656 140.137 c 125.656 139.117 125.5 138.32 125.195 137.734 c 
124.895 137.16 124.453 136.711 123.867 136.387 c 123.293 136.07 122.66 
135.91 121.969 135.91 c 120.867 135.91 119.977 136.266 119.293 136.973 
c 118.609 137.68 118.27 138.699 118.27 140.023 c h
119.645 140.023 m 119.645 139.016 119.863 138.262 120.305 137.762 c 
120.746 137.262 121.301 137.012 121.969 137.012 c 122.637 137.012 
123.184 137.262 123.617 137.762 c 124.059 138.27 124.281 139.039 
124.281 140.074 c 124.281 141.047 124.059 141.785 123.617 142.285 c 
123.176 142.785 122.625 143.035 121.969 143.035 c 121.301 143.035 
120.746 142.785 120.305 142.285 c 119.863 141.785 119.645 141.031 
119.645 140.023 c h
127.043 136.086 m 127.043 146.961 l 128.383 146.961 l 128.383 136.086 l 
127.043 136.086 l h
135.535 137.059 m 135.035 136.637 134.555 136.336 134.098 136.16 c 
133.641 135.992 133.148 135.91 132.621 135.91 c 131.766 135.91 131.102 
136.117 130.637 136.535 c 130.168 136.961 129.934 137.504 129.934 
138.16 c 129.934 138.551 130.023 138.906 130.199 139.223 c 130.371 
139.539 130.602 139.793 130.887 139.984 c 131.168 140.176 131.488 
140.324 131.848 140.422 c 132.113 140.496 132.512 140.566 133.035 
140.621 c 134.117 140.758 134.914 140.91 135.422 141.086 c 135.422 
141.434 l 135.422 141.977 135.297 142.359 135.047 142.586 c 134.707 
142.887 134.199 143.035 133.523 143.035 c 132.898 143.035 132.434 
142.926 132.137 142.711 c 131.836 142.492 131.613 142.102 131.473 
141.535 c 130.16 141.723 l 130.285 142.281 130.48 142.73 130.746 
143.074 c 131.023 143.414 131.414 143.676 131.922 143.859 c 132.438 
144.051 133.039 144.148 133.723 144.148 c 134.398 144.148 134.941 
144.07 135.359 143.91 c 135.777 143.754 136.086 143.551 136.285 143.309 
c 136.484 143.07 136.621 142.766 136.699 142.398 c 136.746 142.172 
136.773 141.766 136.773 141.172 c 136.773 139.387 l 136.773 138.145 
136.797 137.355 136.848 137.023 c 136.906 136.699 137.023 136.387 
137.199 136.086 c 135.797 136.086 l 135.656 136.359 135.566 136.684 
135.535 137.059 c h
135.422 140.035 m 134.938 139.844 134.211 139.676 133.234 139.535 c 
132.684 139.461 132.297 139.371 132.074 139.273 c 131.848 139.172 
131.672 139.027 131.547 138.836 c 131.422 138.645 131.359 138.43 
131.359 138.199 c 131.359 137.84 131.492 137.539 131.762 137.297 c 
132.035 137.066 132.43 136.949 132.949 136.949 c 133.465 136.949 
133.922 137.059 134.324 137.285 c 134.723 137.52 135.02 137.828 135.211 
138.211 c 135.352 138.52 135.422 138.965 135.422 139.547 c 135.422 
140.035 l h
141.609 137.285 m 141.797 136.098 l 141.422 136.023 141.086 135.984 
140.785 135.984 c 140.301 135.984 139.926 136.059 139.66 136.211 c 
139.395 136.367 139.207 136.57 139.098 136.809 c 138.988 137.059 
138.934 137.59 138.934 138.398 c 138.934 142.922 l 137.949 142.922 l 
137.949 143.973 l 138.934 143.973 l 138.934 145.922 l 140.262 146.723 l 
140.262 143.973 l 141.609 143.973 l 141.609 142.922 l 140.262 142.922 l 
140.262 138.324 l 140.262 137.941 140.281 137.695 140.324 137.586 c 
140.371 137.477 140.453 137.391 140.559 137.324 c 140.668 137.258 
140.824 137.223 141.023 137.223 c 141.164 137.223 141.359 137.242 
141.609 137.285 c h
142.844 145.434 m 142.844 146.961 l 144.184 146.961 l 144.184 145.434 l 
142.844 145.434 l h
142.844 136.086 m 142.844 143.973 l 144.184 143.973 l 144.184 136.086 l 
142.844 136.086 l h
146.121 136.086 m 146.121 146.961 l 147.461 146.961 l 147.461 136.086 l 
146.121 136.086 l h
154.863 138.621 m 156.238 138.449 l 156.023 137.648 155.617 137.023 
155.027 136.574 c 154.441 136.133 153.691 135.91 152.777 135.91 c 
151.625 135.91 150.715 136.266 150.039 136.973 c 149.363 137.68 149.027 
138.676 149.027 139.961 c 149.027 141.285 149.363 142.316 150.039 
143.047 c 150.723 143.781 151.609 144.148 152.703 144.148 c 153.758 
144.148 154.621 143.789 155.289 143.074 c 155.957 142.355 156.289 
141.344 156.289 140.035 c 156.289 139.961 156.285 139.844 156.277 
139.684 c 150.402 139.684 l 150.453 138.82 150.695 138.156 151.141 
137.699 c 151.582 137.238 152.129 137.012 152.789 137.012 c 153.273 
137.012 153.684 137.137 154.027 137.387 c 154.375 137.645 154.656 
138.055 154.863 138.621 c h
150.477 140.785 m 154.875 140.785 l 154.816 141.445 154.652 141.941 
154.375 142.273 c 153.953 142.789 153.398 143.047 152.715 143.047 c 
152.105 143.047 151.59 142.84 151.164 142.422 c 150.746 142.016 150.52 
141.469 150.477 140.785 c h
161.91 136.086 m 161.91 143.973 l 163.109 143.973 l 163.109 142.859 l 
163.352 143.242 163.676 143.551 164.086 143.785 c 164.504 144.027 
164.973 144.148 165.5 144.148 c 166.082 144.148 166.562 144.027 166.938 
143.785 c 167.312 143.543 167.574 143.203 167.723 142.762 c 168.348 
143.684 169.16 144.148 170.16 144.148 c 170.945 144.148 171.543 143.93 
171.961 143.496 c 172.387 143.066 172.598 142.398 172.598 141.496 c 
172.598 136.086 l 171.262 136.086 l 171.262 141.047 l 171.262 141.582 
171.219 141.965 171.137 142.199 c 171.051 142.441 170.895 142.633 
170.66 142.773 c 170.438 142.914 170.168 142.984 169.859 142.984 c 
169.312 142.984 168.852 142.801 168.484 142.434 c 168.121 142.07 
167.938 141.477 167.938 140.66 c 167.938 136.086 l 166.598 136.086 l 
166.598 141.211 l 166.598 141.801 166.488 142.242 166.273 142.535 c 
166.059 142.836 165.699 142.984 165.199 142.984 c 164.824 142.984 
164.473 142.887 164.148 142.684 c 163.832 142.492 163.602 142.207 
163.461 141.824 c 163.32 141.441 163.25 140.891 163.25 140.172 c 163.25 
136.086 l 161.91 136.086 l h
179.742 138.621 m 181.117 138.449 l 180.902 137.648 180.496 137.023 
179.906 136.574 c 179.324 136.133 178.574 135.91 177.656 135.91 c 
176.508 135.91 175.594 136.266 174.918 136.973 c 174.242 137.68 173.906 
138.676 173.906 139.961 c 173.906 141.285 174.242 142.316 174.918 
143.047 c 175.602 143.781 176.488 144.148 177.582 144.148 c 178.641 
144.148 179.504 143.789 180.168 143.074 c 180.836 142.355 181.168 
141.344 181.168 140.035 c 181.168 139.961 181.164 139.844 181.156 
139.684 c 175.281 139.684 l 175.332 138.82 175.578 138.156 176.02 
137.699 c 176.461 137.238 177.012 137.012 177.668 137.012 c 178.152 
137.012 178.566 137.137 178.906 137.387 c 179.258 137.645 179.535 
138.055 179.742 138.621 c h
175.355 140.785 m 179.758 140.785 l 179.699 141.445 179.531 141.941 
179.258 142.273 c 178.832 142.789 178.277 143.047 177.594 143.047 c 
176.984 143.047 176.469 142.84 176.043 142.422 c 175.629 142.016 
175.398 141.469 175.355 140.785 c h
182.645 136.086 m 182.645 143.973 l 183.844 143.973 l 183.844 142.859 l 
184.086 143.242 184.41 143.551 184.82 143.785 c 185.234 144.027 185.707 
144.148 186.23 144.148 c 186.816 144.148 187.293 144.027 187.668 
143.785 c 188.043 143.543 188.309 143.203 188.457 142.762 c 189.082 
143.684 189.895 144.148 190.895 144.148 c 191.676 144.148 192.277 
143.93 192.695 143.496 c 193.121 143.066 193.332 142.398 193.332 
141.496 c 193.332 136.086 l 191.996 136.086 l 191.996 141.047 l 191.996 
141.582 191.953 141.965 191.871 142.199 c 191.785 142.441 191.629 
142.633 191.395 142.773 c 191.168 142.914 190.902 142.984 190.594 
142.984 c 190.043 142.984 189.586 142.801 189.219 142.434 c 188.852 
142.07 188.668 141.477 188.668 140.66 c 188.668 136.086 l 187.332 
136.086 l 187.332 141.211 l 187.332 141.801 187.223 142.242 187.008 
142.535 c 186.789 142.836 186.434 142.984 185.934 142.984 c 185.559 
142.984 185.207 142.887 184.883 142.684 c 184.566 142.492 184.336 
142.207 184.195 141.824 c 184.051 141.441 183.98 140.891 183.98 140.172 
c 183.98 136.086 l 182.645 136.086 l h
194.578 140.023 m 194.578 141.48 194.984 142.566 195.801 143.273 c 
196.477 143.855 197.301 144.148 198.277 144.148 c 199.359 144.148 
200.242 143.789 200.926 143.074 c 201.617 142.363 201.965 141.387 
201.965 140.137 c 201.965 139.117 201.809 138.32 201.5 137.734 c 
201.203 137.16 200.762 136.711 200.176 136.387 c 199.602 136.07 198.969 
135.91 198.277 135.91 c 197.176 135.91 196.285 136.266 195.602 136.973 
c 194.918 137.68 194.578 138.699 194.578 140.023 c h
195.953 140.023 m 195.953 139.016 196.172 138.262 196.613 137.762 c 
197.055 137.262 197.609 137.012 198.277 137.012 c 198.945 137.012 
199.492 137.262 199.926 137.762 c 200.367 138.27 200.59 139.039 200.59 
140.074 c 200.59 141.047 200.367 141.785 199.926 142.285 c 199.484 
142.785 198.934 143.035 198.277 143.035 c 197.609 143.035 197.055 
142.785 196.613 142.285 c 196.172 141.785 195.953 141.031 195.953 
140.023 c h
203.363 136.086 m 203.363 143.973 l 204.566 143.973 l 204.566 142.773 l 
204.875 143.332 205.156 143.699 205.414 143.871 c 205.672 144.055 
205.961 144.148 206.277 144.148 c 206.727 144.148 207.188 144.004 
207.652 143.711 c 207.191 142.473 l 206.863 142.664 206.535 142.762 
206.203 142.762 c 205.91 142.762 205.648 142.672 205.414 142.496 c 
205.191 142.324 205.027 142.082 204.926 141.773 c 204.777 141.297 
204.703 140.777 204.703 140.211 c 204.703 136.086 l 203.363 136.086 l h
208.285 133.047 m 208.148 134.297 l 208.438 134.223 208.695 134.184 
208.91 134.184 c 209.203 134.184 209.434 134.234 209.609 134.336 c 
209.793 134.434 209.945 134.574 210.059 134.746 c 210.145 134.883 
210.277 135.215 210.461 135.746 c 210.484 135.824 210.527 135.93 
210.586 136.074 c 207.598 143.973 l 209.035 143.973 l 210.672 139.398 l 
210.891 138.824 211.082 138.215 211.246 137.574 c 211.398 138.191 
211.582 138.789 211.797 139.371 c 213.473 143.973 l 214.809 143.973 l 
211.809 135.949 l 211.492 135.082 211.242 134.484 211.059 134.16 c 
210.828 133.719 210.555 133.398 210.246 133.199 c 209.938 132.988 
209.574 132.887 209.148 132.887 c 208.891 132.887 208.602 132.941 
208.285 133.047 c h
208.285 133.047 m f
1 g
273.832 263.039 90.434 -219.488 re f
0 g
q 1 0 0 -1 0 333 cm
273.832 69.961 90.434 219.488 re S Q
289.98 147.762 m 287.57 155.648 l 288.945 155.648 l 290.195 151.098 l 
290.668 149.398 l 290.688 149.48 290.82 150.023 291.07 151.023 c 
292.332 155.648 l 293.707 155.648 l 294.883 151.074 l 295.27 149.559 l 
295.73 151.086 l 297.082 155.648 l 298.383 155.648 l 295.918 147.762 l 
294.531 147.762 l 293.27 152.484 l 292.969 153.824 l 291.367 147.762 l 
289.98 147.762 l h
299.309 157.109 m 299.309 158.637 l 300.648 158.637 l 300.648 157.109 l 
299.309 157.109 l h
299.309 147.762 m 299.309 155.648 l 300.648 155.648 l 300.648 147.762 l 
299.309 147.762 l h
302.074 150.109 m 303.402 150.324 l 303.477 149.789 303.68 149.383 
304.012 149.098 c 304.355 148.824 304.828 148.684 305.438 148.684 c 
306.055 148.684 306.508 148.809 306.801 149.059 c 307.102 149.309 
307.25 149.602 307.25 149.934 c 307.25 150.234 307.121 150.473 306.863 
150.648 c 306.68 150.766 306.227 150.914 305.5 151.098 c 304.516 
151.348 303.836 151.559 303.449 151.734 c 303.074 151.918 302.789 
152.168 302.59 152.484 c 302.398 152.809 302.301 153.164 302.301 
153.547 c 302.301 153.898 302.379 154.223 302.539 154.523 c 302.703 
154.824 302.926 155.074 303.199 155.273 c 303.41 155.422 303.691 
155.551 304.051 155.66 c 304.41 155.77 304.793 155.824 305.199 155.824 
c 305.824 155.824 306.371 155.73 306.84 155.547 c 307.305 155.371 
307.648 155.133 307.863 154.824 c 308.09 154.523 308.242 154.117 
308.324 153.609 c 307.027 153.434 l 306.969 153.836 306.793 154.148 
306.5 154.371 c 306.219 154.605 305.816 154.723 305.301 154.723 c 
304.684 154.723 304.246 154.617 303.988 154.41 c 303.73 154.211 303.602 
153.977 303.602 153.711 c 303.602 153.535 303.656 153.375 303.762 
153.234 c 303.871 153.094 304.043 152.977 304.277 152.887 c 304.41 
152.836 304.801 152.719 305.449 152.535 c 306.391 152.285 307.051 
152.082 307.426 151.922 c 307.801 151.766 308.094 151.531 308.301 
151.223 c 308.516 150.914 308.625 150.531 308.625 150.074 c 308.625 
149.633 308.496 149.211 308.238 148.809 c 307.98 148.418 307.605 
148.113 307.113 147.898 c 306.621 147.688 306.066 147.586 305.449 
147.586 c 304.426 147.586 303.641 147.797 303.102 148.223 c 302.566 
148.648 302.227 149.277 302.074 150.109 c h
310.074 147.762 m 310.074 158.637 l 311.414 158.637 l 311.414 154.734 l 
312.039 155.461 312.824 155.824 313.777 155.824 c 314.359 155.824 
314.863 155.707 315.289 155.473 c 315.723 155.246 316.031 154.93 
316.215 154.523 c 316.406 154.113 316.5 153.527 316.5 152.762 c 316.5 
147.762 l 315.164 147.762 l 315.164 152.762 l 315.164 153.426 315.016 
153.91 314.727 154.211 c 314.434 154.52 314.027 154.672 313.5 154.672 c 
313.102 154.672 312.727 154.57 312.375 154.359 c 312.035 154.16 311.789 
153.883 311.637 153.523 c 311.488 153.172 311.414 152.688 311.414 
152.074 c 311.414 147.762 l 310.074 147.762 l h
319.613 147.762 m 318.375 147.762 l 318.375 158.637 l 319.703 158.637 l 
319.703 154.762 l 320.27 155.469 320.988 155.824 321.863 155.824 c 
322.348 155.824 322.805 155.723 323.238 155.523 c 323.672 155.332 
324.027 155.055 324.301 154.699 c 324.586 154.348 324.805 153.922 
324.965 153.422 c 325.121 152.922 325.203 152.391 325.203 151.824 c 
325.203 150.473 324.867 149.426 324.203 148.684 c 323.535 147.953 
322.734 147.586 321.801 147.586 c 320.867 147.586 320.141 147.973 
319.613 148.746 c 319.613 147.762 l h
319.602 151.762 m 319.602 150.82 319.727 150.137 319.977 149.711 c 
320.402 149.027 320.973 148.684 321.688 148.684 c 322.273 148.684 
322.777 148.934 323.203 149.434 c 323.625 149.945 323.84 150.703 323.84 
151.711 c 323.84 152.734 323.633 153.492 323.227 153.984 c 322.816 
154.477 322.328 154.723 321.75 154.723 c 321.168 154.723 320.664 
154.469 320.238 153.961 c 319.812 153.453 319.602 152.719 319.602 
151.762 c h
326.176 151.699 m 326.176 153.156 326.586 154.238 327.402 154.949 c 
328.078 155.531 328.902 155.824 329.875 155.824 c 330.961 155.824 
331.844 155.465 332.527 154.746 c 333.219 154.039 333.562 153.059 
333.562 151.809 c 333.562 150.793 333.41 149.992 333.102 149.41 c 
332.801 148.836 332.359 148.387 331.777 148.059 c 331.203 147.742 
330.57 147.586 329.875 147.586 c 328.777 147.586 327.887 147.938 
327.203 148.648 c 326.52 149.355 326.176 150.371 326.176 151.699 c h
327.551 151.699 m 327.551 150.688 327.773 149.934 328.215 149.434 c 
328.656 148.934 329.211 148.684 329.875 148.684 c 330.543 148.684 
331.094 148.934 331.527 149.434 c 331.969 149.945 332.188 150.715 
332.188 151.746 c 332.188 152.723 331.969 153.461 331.527 153.961 c 
331.086 154.461 330.535 154.711 329.875 154.711 c 329.211 154.711 
328.656 154.461 328.215 153.961 c 327.773 153.461 327.551 152.707 
327.551 151.699 c h
334.977 147.762 m 334.977 155.648 l 336.176 155.648 l 336.176 154.523 l 
336.762 155.391 337.598 155.824 338.691 155.824 c 339.164 155.824 
339.602 155.734 340.004 155.559 c 340.402 155.395 340.699 155.168 
340.891 154.887 c 341.09 154.609 341.23 154.285 341.316 153.91 c 
341.363 153.66 341.391 153.227 341.391 152.609 c 341.391 147.762 l 
340.051 147.762 l 340.051 152.559 l 340.051 153.102 340 153.508 339.891 
153.773 c 339.789 154.047 339.605 154.266 339.34 154.422 c 339.074 
154.582 338.762 154.66 338.402 154.66 c 337.836 154.66 337.344 154.48 
336.926 154.121 c 336.52 153.766 336.316 153.078 336.316 152.059 c 
336.316 147.762 l 334.977 147.762 l h
348.68 150.297 m 350.055 150.121 l 349.836 149.324 349.434 148.699 
348.84 148.246 c 348.258 147.805 347.508 147.586 346.59 147.586 c 
345.441 147.586 344.527 147.938 343.852 148.648 c 343.18 149.355 342.84 
150.352 342.84 151.637 c 342.84 152.961 343.18 153.988 343.852 154.723 
c 344.535 155.457 345.426 155.824 346.516 155.824 c 347.574 155.824 
348.438 155.465 349.102 154.746 c 349.77 154.031 350.102 153.02 350.102 
151.711 c 350.102 151.637 350.098 151.52 350.09 151.359 c 344.215 
151.359 l 344.266 150.492 344.512 149.832 344.953 149.371 c 345.395 
148.914 345.945 148.684 346.602 148.684 c 347.086 148.684 347.5 148.809 
347.84 149.059 c 348.191 149.32 348.469 149.73 348.68 150.297 c h
344.289 152.461 m 348.691 152.461 l 348.633 153.117 348.465 153.613 
348.191 153.949 c 347.766 154.465 347.211 154.723 346.527 154.723 c 
345.918 154.723 345.402 154.516 344.977 154.098 c 344.562 153.688 
344.332 153.145 344.289 152.461 c h
344.289 152.461 m f
q 1 0 0 -1 0 333 cm
244.137 191.379 m 274.426 191.379 l S Q
q 1 0 0 -1 0 333 cm
244.145 110.148 m 274.906 110.148 l S Q
Q q
0 333 m 754.398 333 l 754.398 0.199 l 0 0.199 l 0 333 l h
0 333 m W n
  Q
Q
Q q
Q
showpage
%%Trailer
count op_count sub {pop} repeat
countdictstack dict_count sub {end} repeat
cairo_eps_state restore
%%EOF
